<?xml version="1.0" encoding="utf-8" ?>
<svg xmlns="http://www.w3.org/2000/svg" xmlns:ev="http://www.w3.org/2001/xml-events" xmlns:inkscape="http://www.inkscape.org/namespaces/inkscape" xmlns:sodipodi="http://sodipodi.sourceforge.net/DTD/sodipodi-0.dtd" xmlns:xlink="http://www.w3.org/1999/xlink" baseProfile="full" height="325.0mm" id="svg" version="1.1" viewBox="0 0 325.0 325.0" width="325.0mm">
  <defs/>
  <style type="text/css"><![CDATA[@import url(../prj.css);]]></style>
  <g class="prj kitchen_plan" inkscape:groupmode="layer" inkscape:label="prj">
    <g class="Scene_Collection KTC_107_Furniture HouseA eames_daw_chair_seat hidden KTC_A107 eames_daw_chair_seat_prj__kitchen_plan prj kitchen_plan" id="eames_daw_chair_seat_prj__kitchen_plan">
      <path class="Scene_Collection KTC_107_Furniture HouseA eames_daw_chair_seat hidden KTC_A107 eames_daw_chair_seat_prj__kitchen_plan prj kitchen_plan" d="M 196.13762,259.0907 196.44485,258.81277 "/>
      <path class="Scene_Collection KTC_107_Furniture HouseA eames_daw_chair_seat hidden KTC_A107 eames_daw_chair_seat_prj__kitchen_plan prj kitchen_plan" d="M 196.17737,259.05469 196.04378,259.17194 "/>
      <path class="Scene_Collection KTC_107_Furniture HouseA eames_daw_chair_seat hidden KTC_A107 eames_daw_chair_seat_prj__kitchen_plan prj kitchen_plan" d="M 195.84836,259.34119 195.57724,259.56808 195.24644,259.83423 "/>
      <path class="Scene_Collection KTC_107_Furniture HouseA eames_daw_chair_seat hidden KTC_A107 eames_daw_chair_seat_prj__kitchen_plan prj kitchen_plan" d="M 195.25862,259.82446 194.97588,260.04233 194.63068,260.29828 "/>
      <path class="Scene_Collection KTC_107_Furniture HouseA eames_daw_chair_seat hidden KTC_A107 eames_daw_chair_seat_prj__kitchen_plan prj kitchen_plan" d="M 194.6591,260.27716 194.33165,260.50647 194.01721,260.71545 193.65497,260.94131 "/>
      <path class="Scene_Collection KTC_107_Furniture HouseA eames_daw_chair_seat hidden KTC_A107 eames_daw_chair_seat_prj__kitchen_plan prj kitchen_plan" d="M 193.65822,260.9393 193.32039,261.13318 192.97456,261.31705 192.6189,261.48984 192.25487,261.6485 191.88417,261.79068 191.50961,261.9169 191.13411,262.02838 190.75722,262.12723 "/>
      <path class="Scene_Collection KTC_107_Furniture HouseA eames_daw_chair_seat hidden KTC_A107 eames_daw_chair_seat_prj__kitchen_plan prj kitchen_plan" d="M 190.76094,262.1264 190.34438,262.21942 189.97368,262.29098 189.57944,262.35724 "/>
      <path class="Scene_Collection KTC_107_Furniture HouseA eames_daw_chair_seat hidden KTC_A107 eames_daw_chair_seat_prj__kitchen_plan prj kitchen_plan" d="M 189.61453,262.3523 189.1889,262.41196 188.83464,262.45499 "/>
      <path class="Scene_Collection KTC_107_Furniture HouseA eames_daw_chair_seat hidden KTC_A107 eames_daw_chair_seat_prj__kitchen_plan prj kitchen_plan" d="M 188.85013,262.45343 188.42767,262.49576 188.07527,262.52417 "/>
      <path class="Scene_Collection KTC_107_Furniture HouseA eames_daw_chair_seat hidden KTC_A107 eames_daw_chair_seat_prj__kitchen_plan prj kitchen_plan" d="M 188.11092,262.52191 187.6935,262.54843 "/>
      <path class="Scene_Collection KTC_107_Furniture HouseA eames_daw_chair_seat hidden KTC_A107 eames_daw_chair_seat_prj__kitchen_plan prj kitchen_plan" d="M 187.81747,262.54059 187.6398,262.55072 "/>
      <path class="Scene_Collection KTC_107_Furniture HouseA eames_daw_chair_seat hidden KTC_A107 eames_daw_chair_seat_prj__kitchen_plan prj kitchen_plan" d="M 187.6935,262.54843 187.27949,262.56592 "/>
      <path class="Scene_Collection KTC_107_Furniture HouseA eames_daw_chair_seat hidden KTC_A107 eames_daw_chair_seat_prj__kitchen_plan prj kitchen_plan" d="M 187.4829,262.55609 187.73604,262.5452 "/>
      <path class="Scene_Collection KTC_107_Furniture HouseA eames_daw_chair_seat hidden KTC_A107 eames_daw_chair_seat_prj__kitchen_plan prj kitchen_plan" d="M 196.29306,258.94846 196.10492,259.11832 "/>
      <path class="Scene_Collection KTC_107_Furniture HouseA eames_daw_chair_seat hidden KTC_A107 eames_daw_chair_seat_prj__kitchen_plan prj kitchen_plan" d="M 195.8214,259.36456 196.13762,259.0907 "/>
      <path class="Scene_Collection KTC_107_Furniture HouseA eames_daw_chair_seat hidden KTC_A107 eames_daw_chair_seat_prj__kitchen_plan prj kitchen_plan" d="M 194.99703,261.38107 195.20415,261.2897 195.40002,261.19507 195.58693,261.09222 195.76732,260.97601 195.94344,260.84146 196.11793,260.68347 196.29314,260.49713 196.4698,260.27976 196.64584,260.03732 196.8212,259.77655 196.99701,259.5036 197.17462,259.22452 197.35446,258.94547 197.53538,258.67291 197.71578,258.41345 197.89461,258.17133 198.07469,257.94281 198.25903,257.72287 198.45113,257.50635 198.6546,257.28805 198.87311,257.06268 199.10991,256.82477 199.37344,256.56372 199.63185,256.29535 199.93234,255.98377 200.25111,255.63739 200.56602,255.25818 200.85637,254.84607 201.10518,254.39838 201.29919,253.91077 201.4269,253.38141 201.48361,252.81802 201.47989,252.23172 201.42651,251.62808 201.33144,251.00978 201.20142,250.37895 201.04295,249.73804 200.86264,249.08984 200.66737,248.43768 200.46211,247.78635 200.24477,247.14249 199.9989,246.47131 199.74173,245.83826 199.4606,245.22498 199.15198,244.63747 198.81244,244.08182 198.43834,243.56406 198.0282,243.08853 197.58784,242.65286 197.54686,242.61737 "/>
      <path class="Scene_Collection KTC_107_Furniture HouseA eames_daw_chair_seat hidden KTC_A107 eames_daw_chair_seat_prj__kitchen_plan prj kitchen_plan" d="M 175.15448,251.5531 175.13062,251.8488 175.12239,252.46814 175.16354,253.09479 175.26001,253.72623 175.4077,254.36047 175.59987,254.99567 175.82962,255.63001 176.09019,256.26163 176.37512,256.88873 "/>
      <path class="Scene_Collection KTC_107_Furniture HouseA eames_daw_chair_seat hidden KTC_A107 eames_daw_chair_seat_prj__kitchen_plan prj kitchen_plan" d="M 176.3748,256.88818 176.38565,256.91248 176.68234,257.52387 176.99298,258.13205 177.31114,258.73389 177.63728,259.32239 177.9738,259.89035 178.32365,260.43121 178.68947,260.9386 179.0748,261.40631 179.48331,261.82684 179.91895,262.18863 180.3813,262.47638 180.86148,262.68793 181.35289,262.83255 181.84888,262.92261 182.33937,262.97205 182.8094,262.99539 183.24223,263.00674 183.61464,263.01675 183.98549,263.01804 184.32123,263.02152 184.63506,263.0289 184.93314,263.04175 185.22192,263.06137 185.50754,263.0889 185.79617,263.12549 186.09357,263.17258 186.40405,263.23105 186.72415,263.29846 187.04813,263.37122 187.37047,263.44556 187.68723,263.51682 187.99515,263.57965 188.29068,263.62897 188.56902,263.66003 188.82457,263.67004 189.05974,263.66025 189.27972,263.63257 189.4897,263.5889 189.69511,263.53116 189.90115,263.46124 190.11285,263.38104 190.33585,263.2923 190.57466,263.19635 190.82906,263.09387 191.09685,262.98575 191.37587,262.87277 191.6638,262.75592 191.95848,262.63605 192.25758,262.51404 192.55893,262.39081 192.86011,262.26733 193.15891,262.1445 193.45303,262.02332 193.74028,261.90463 194.01837,261.78946 194.28508,261.67871 194.5383,261.5733 194.77588,261.47418 194.99703,261.38107 "/>
    </g>
  </g>
  <g inkscape:groupmode="layer" inkscape:label="cut"/>
  <g inkscape:groupmode="layer" inkscape:label="xray"/>
  <g class="kitchen_plan hid" inkscape:groupmode="layer" inkscape:label="hid">
    <g class="Scene_Collection KTC_107_Furniture HouseA eames_daw_chair_seat hidden KTC_A107 hid eames_daw_chair_seat_hid__kitchen_plan kitchen_plan" id="eames_daw_chair_seat_hid__kitchen_plan">
      <path class="Scene_Collection KTC_107_Furniture HouseA eames_daw_chair_seat hidden KTC_A107 hid eames_daw_chair_seat_hid__kitchen_plan kitchen_plan" d="M 195.98032,259.23071 196.21913,259.01801 196.13762,259.0907 "/>
      <path class="Scene_Collection KTC_107_Furniture HouseA eames_daw_chair_seat hidden KTC_A107 hid eames_daw_chair_seat_hid__kitchen_plan kitchen_plan" d="M 196.44485,258.81277 196.21913,259.01801 "/>
      <path class="Scene_Collection KTC_107_Furniture HouseA eames_daw_chair_seat hidden KTC_A107 hid eames_daw_chair_seat_hid__kitchen_plan kitchen_plan" d="M 196.21913,259.01801 196.17737,259.05469 "/>
      <path class="Scene_Collection KTC_107_Furniture HouseA eames_daw_chair_seat hidden KTC_A107 hid eames_daw_chair_seat_hid__kitchen_plan kitchen_plan" d="M 196.04378,259.17194 195.90268,259.29568 195.84836,259.34119 "/>
      <path class="Scene_Collection KTC_107_Furniture HouseA eames_daw_chair_seat hidden KTC_A107 hid eames_daw_chair_seat_hid__kitchen_plan kitchen_plan" d="M 195.24644,259.83423 195.31773,259.7789 "/>
      <path class="Scene_Collection KTC_107_Furniture HouseA eames_daw_chair_seat hidden KTC_A107 hid eames_daw_chair_seat_hid__kitchen_plan kitchen_plan" d="M 195.31773,259.7789 195.25862,259.82446 "/>
      <path class="Scene_Collection KTC_107_Furniture HouseA eames_daw_chair_seat hidden KTC_A107 hid eames_daw_chair_seat_hid__kitchen_plan kitchen_plan" d="M 194.63068,260.29828 194.68762,260.25717 "/>
      <path class="Scene_Collection KTC_107_Furniture HouseA eames_daw_chair_seat hidden KTC_A107 hid eames_daw_chair_seat_hid__kitchen_plan kitchen_plan" d="M 194.68762,260.25717 194.6591,260.27716 "/>
      <path class="Scene_Collection KTC_107_Furniture HouseA eames_daw_chair_seat hidden KTC_A107 hid eames_daw_chair_seat_hid__kitchen_plan kitchen_plan" d="M 193.65497,260.94131 193.6886,260.92188 "/>
      <path class="Scene_Collection KTC_107_Furniture HouseA eames_daw_chair_seat hidden KTC_A107 hid eames_daw_chair_seat_hid__kitchen_plan kitchen_plan" d="M 193.6886,260.92188 193.65822,260.9393 "/>
      <path class="Scene_Collection KTC_107_Furniture HouseA eames_daw_chair_seat hidden KTC_A107 hid eames_daw_chair_seat_hid__kitchen_plan kitchen_plan" d="M 190.75722,262.12723 190.72351,262.13611 "/>
      <path class="Scene_Collection KTC_107_Furniture HouseA eames_daw_chair_seat hidden KTC_A107 hid eames_daw_chair_seat_hid__kitchen_plan kitchen_plan" d="M 190.72351,262.13611 190.76094,262.1264 "/>
      <path class="Scene_Collection KTC_107_Furniture HouseA eames_daw_chair_seat hidden KTC_A107 hid eames_daw_chair_seat_hid__kitchen_plan kitchen_plan" d="M 189.57944,262.35724 189.54511,262.36301 "/>
      <path class="Scene_Collection KTC_107_Furniture HouseA eames_daw_chair_seat hidden KTC_A107 hid eames_daw_chair_seat_hid__kitchen_plan kitchen_plan" d="M 189.54511,262.36301 189.61453,262.3523 "/>
      <path class="Scene_Collection KTC_107_Furniture HouseA eames_daw_chair_seat hidden KTC_A107 hid eames_daw_chair_seat_hid__kitchen_plan kitchen_plan" d="M 188.83464,262.45499 188.76056,262.46399 "/>
      <path class="Scene_Collection KTC_107_Furniture HouseA eames_daw_chair_seat hidden KTC_A107 hid eames_daw_chair_seat_hid__kitchen_plan kitchen_plan" d="M 188.76056,262.46399 188.85013,262.45343 "/>
      <path class="Scene_Collection KTC_107_Furniture HouseA eames_daw_chair_seat hidden KTC_A107 hid eames_daw_chair_seat_hid__kitchen_plan kitchen_plan" d="M 188.07527,262.52417 188.00468,262.52988 "/>
      <path class="Scene_Collection KTC_107_Furniture HouseA eames_daw_chair_seat hidden KTC_A107 hid eames_daw_chair_seat_hid__kitchen_plan kitchen_plan" d="M 188.00468,262.52988 188.11092,262.52191 "/>
      <path class="Scene_Collection KTC_107_Furniture HouseA eames_daw_chair_seat hidden KTC_A107 hid eames_daw_chair_seat_hid__kitchen_plan kitchen_plan" d="M 187.6935,262.54843 188.00468,262.52988 "/>
      <path class="Scene_Collection KTC_107_Furniture HouseA eames_daw_chair_seat hidden KTC_A107 hid eames_daw_chair_seat_hid__kitchen_plan kitchen_plan" d="M 188.00468,262.52988 187.81747,262.54059 "/>
      <path class="Scene_Collection KTC_107_Furniture HouseA eames_daw_chair_seat hidden KTC_A107 hid eames_daw_chair_seat_hid__kitchen_plan kitchen_plan" d="M 187.6398,262.55072 187.5844,262.55386 "/>
      <path class="Scene_Collection KTC_107_Furniture HouseA eames_daw_chair_seat hidden KTC_A107 hid eames_daw_chair_seat_hid__kitchen_plan kitchen_plan" d="M 187.5844,262.55386 187.6935,262.54843 "/>
      <path class="Scene_Collection KTC_107_Furniture HouseA eames_daw_chair_seat hidden KTC_A107 hid eames_daw_chair_seat_hid__kitchen_plan kitchen_plan" d="M 187.27949,262.56592 187.5844,262.55386 187.90379,262.53799 188.23877,262.51727 "/>
      <path class="Scene_Collection KTC_107_Furniture HouseA eames_daw_chair_seat hidden KTC_A107 hid eames_daw_chair_seat_hid__kitchen_plan kitchen_plan" d="M 188.23877,262.51727 187.84367,262.54059 "/>
      <path class="Scene_Collection KTC_107_Furniture HouseA eames_daw_chair_seat hidden KTC_A107 hid eames_daw_chair_seat_hid__kitchen_plan kitchen_plan" d="M 187.84367,262.54059 187.80896,262.5426 "/>
      <path class="Scene_Collection KTC_107_Furniture HouseA eames_daw_chair_seat hidden KTC_A107 hid eames_daw_chair_seat_hid__kitchen_plan kitchen_plan" d="M 187.80896,262.5426 187.7503,262.54504 "/>
      <path class="Scene_Collection KTC_107_Furniture HouseA eames_daw_chair_seat hidden KTC_A107 hid eames_daw_chair_seat_hid__kitchen_plan kitchen_plan" d="M 187.7503,262.54504 187.74039,262.54547 "/>
      <path class="Scene_Collection KTC_107_Furniture HouseA eames_daw_chair_seat hidden KTC_A107 hid eames_daw_chair_seat_hid__kitchen_plan kitchen_plan" d="M 187.74039,262.54547 187.70885,262.54678 "/>
      <path class="Scene_Collection KTC_107_Furniture HouseA eames_daw_chair_seat hidden KTC_A107 hid eames_daw_chair_seat_hid__kitchen_plan kitchen_plan" d="M 187.70885,262.54678 187.4829,262.55609 "/>
      <path class="Scene_Collection KTC_107_Furniture HouseA eames_daw_chair_seat hidden KTC_A107 hid eames_daw_chair_seat_hid__kitchen_plan kitchen_plan" d="M 187.73604,262.5452 187.76169,262.5441 "/>
      <path class="Scene_Collection KTC_107_Furniture HouseA eames_daw_chair_seat hidden KTC_A107 hid eames_daw_chair_seat_hid__kitchen_plan kitchen_plan" d="M 187.76169,262.5441 187.7775,262.54343 "/>
      <path class="Scene_Collection KTC_107_Furniture HouseA eames_daw_chair_seat hidden KTC_A107 hid eames_daw_chair_seat_hid__kitchen_plan kitchen_plan" d="M 187.7775,262.54343 187.90379,262.53799 "/>
      <path class="Scene_Collection KTC_107_Furniture HouseA eames_daw_chair_seat hidden KTC_A107 hid eames_daw_chair_seat_hid__kitchen_plan kitchen_plan" d="M 187.90379,262.53799 187.80896,262.5426 "/>
      <path class="Scene_Collection KTC_107_Furniture HouseA eames_daw_chair_seat hidden KTC_A107 hid eames_daw_chair_seat_hid__kitchen_plan kitchen_plan" d="M 187.80896,262.5426 187.8584,262.53995 "/>
      <path class="Scene_Collection KTC_107_Furniture HouseA eames_daw_chair_seat hidden KTC_A107 hid eames_daw_chair_seat_hid__kitchen_plan kitchen_plan" d="M 187.8584,262.53995 187.9709,262.53384 "/>
      <path class="Scene_Collection KTC_107_Furniture HouseA eames_daw_chair_seat hidden KTC_A107 hid eames_daw_chair_seat_hid__kitchen_plan kitchen_plan" d="M 187.9709,262.53384 188.15106,262.52408 188.51021,262.49948 188.88786,262.4678 189.28421,262.42792 189.69636,262.37769 190.12059,262.31485 190.55304,262.23709 190.98984,262.14221 191.42732,262.02777 191.86163,261.8916 192.28889,261.73142 192.70584,261.5459 193.11093,261.33841 193.50302,261.11313 193.88092,260.87442 194.2437,260.62653 194.59007,260.37378 194.91914,260.12048 195.22972,259.87091 195.52106,259.62866 195.79428,259.39423 195.92956,259.27484 "/>
      <path class="Scene_Collection KTC_107_Furniture HouseA eames_daw_chair_seat hidden KTC_A107 hid eames_daw_chair_seat_hid__kitchen_plan kitchen_plan" d="M 195.92956,259.27484 196.0141,259.20026 "/>
      <path class="Scene_Collection KTC_107_Furniture HouseA eames_daw_chair_seat hidden KTC_A107 hid eames_daw_chair_seat_hid__kitchen_plan kitchen_plan" d="M 196.0141,259.20026 196.05107,259.16757 "/>
      <path class="Scene_Collection KTC_107_Furniture HouseA eames_daw_chair_seat hidden KTC_A107 hid eames_daw_chair_seat_hid__kitchen_plan kitchen_plan" d="M 196.05107,259.16757 195.98032,259.23071 "/>
      <path class="Scene_Collection KTC_107_Furniture HouseA eames_daw_chair_seat hidden KTC_A107 hid eames_daw_chair_seat_hid__kitchen_plan kitchen_plan" d="M 195.98032,259.23071 195.72702,259.45096 "/>
      <path class="Scene_Collection KTC_107_Furniture HouseA eames_daw_chair_seat hidden KTC_A107 hid eames_daw_chair_seat_hid__kitchen_plan kitchen_plan" d="M 195.72702,259.45096 196.02495,259.19046 "/>
      <path class="Scene_Collection KTC_107_Furniture HouseA eames_daw_chair_seat hidden KTC_A107 hid eames_daw_chair_seat_hid__kitchen_plan kitchen_plan" d="M 196.02495,259.19046 196.05107,259.16757 "/>
      <path class="Scene_Collection KTC_107_Furniture HouseA eames_daw_chair_seat hidden KTC_A107 hid eames_daw_chair_seat_hid__kitchen_plan kitchen_plan" d="M 196.05107,259.16757 196.0947,259.12814 "/>
      <path class="Scene_Collection KTC_107_Furniture HouseA eames_daw_chair_seat hidden KTC_A107 hid eames_daw_chair_seat_hid__kitchen_plan kitchen_plan" d="M 196.0947,259.12814 196.10205,259.12149 "/>
      <path class="Scene_Collection KTC_107_Furniture HouseA eames_daw_chair_seat hidden KTC_A107 hid eames_daw_chair_seat_hid__kitchen_plan kitchen_plan" d="M 196.10205,259.12149 196.12538,259.10034 "/>
      <path class="Scene_Collection KTC_107_Furniture HouseA eames_daw_chair_seat hidden KTC_A107 hid eames_daw_chair_seat_hid__kitchen_plan kitchen_plan" d="M 196.12538,259.10034 196.29306,258.94846 "/>
      <path class="Scene_Collection KTC_107_Furniture HouseA eames_daw_chair_seat hidden KTC_A107 hid eames_daw_chair_seat_hid__kitchen_plan kitchen_plan" d="M 196.10492,259.11832 196.08594,259.13544 "/>
      <path class="Scene_Collection KTC_107_Furniture HouseA eames_daw_chair_seat hidden KTC_A107 hid eames_daw_chair_seat_hid__kitchen_plan kitchen_plan" d="M 196.08594,259.13544 196.07408,259.14609 "/>
      <path class="Scene_Collection KTC_107_Furniture HouseA eames_daw_chair_seat hidden KTC_A107 hid eames_daw_chair_seat_hid__kitchen_plan kitchen_plan" d="M 196.07408,259.14609 195.98032,259.23071 "/>
      <path class="Scene_Collection KTC_107_Furniture HouseA eames_daw_chair_seat hidden KTC_A107 hid eames_daw_chair_seat_hid__kitchen_plan kitchen_plan" d="M 195.90268,259.29568 195.8214,259.36456 "/>
      <path class="Scene_Collection KTC_107_Furniture HouseA eames_daw_chair_seat hidden KTC_A107 hid eames_daw_chair_seat_hid__kitchen_plan kitchen_plan" d="M 196.13762,259.0907 195.90268,259.29568 "/>
      <path class="Scene_Collection KTC_107_Furniture HouseA eames_daw_chair_seat hidden KTC_A107 hid eames_daw_chair_seat_hid__kitchen_plan kitchen_plan" d="M 196.18574,259.46432 195.92941,259.68716 "/>
      <path class="Scene_Collection KTC_107_Furniture HouseA eames_daw_chair_seat hidden KTC_A107 hid eames_daw_chair_seat_hid__kitchen_plan kitchen_plan" d="M 195.92941,259.68716 196.23146,259.4231 "/>
      <path class="Scene_Collection KTC_107_Furniture HouseA eames_daw_chair_seat hidden KTC_A107 hid eames_daw_chair_seat_hid__kitchen_plan kitchen_plan" d="M 196.23146,259.4231 196.25842,259.39951 "/>
      <path class="Scene_Collection KTC_107_Furniture HouseA eames_daw_chair_seat hidden KTC_A107 hid eames_daw_chair_seat_hid__kitchen_plan kitchen_plan" d="M 196.25842,259.39951 196.22021,259.43323 "/>
      <path class="Scene_Collection KTC_107_Furniture HouseA eames_daw_chair_seat hidden KTC_A107 hid eames_daw_chair_seat_hid__kitchen_plan kitchen_plan" d="M 196.22021,259.43323 196.13405,259.50925 "/>
      <path class="Scene_Collection KTC_107_Furniture HouseA eames_daw_chair_seat hidden KTC_A107 hid eames_daw_chair_seat_hid__kitchen_plan kitchen_plan" d="M 196.13405,259.50925 195.99838,259.62897 195.7216,259.86639 195.42645,260.11182 195.11131,260.36508 194.7765,260.62277 194.423,260.88068 194.05162,261.13443 193.66341,261.37958 193.25925,261.61179 192.83997,261.82657 192.40674,262.01926 191.96283,262.18573 191.51334,262.32672 191.06244,262.44467 190.61372,262.54217 190.17111,262.6218 189.73813,262.68594 189.31877,262.73703 188.91653,262.77753 188.53407,262.8096 188.1702,262.83453 187.9895,262.84433 "/>
      <path class="Scene_Collection KTC_107_Furniture HouseA eames_daw_chair_seat hidden KTC_A107 hid eames_daw_chair_seat_hid__kitchen_plan kitchen_plan" d="M 187.9895,262.84433 187.87474,262.85055 "/>
      <path class="Scene_Collection KTC_107_Furniture HouseA eames_daw_chair_seat hidden KTC_A107 hid eames_daw_chair_seat_hid__kitchen_plan kitchen_plan" d="M 187.87474,262.85055 187.82391,262.8533 "/>
      <path class="Scene_Collection KTC_107_Furniture HouseA eames_daw_chair_seat hidden KTC_A107 hid eames_daw_chair_seat_hid__kitchen_plan kitchen_plan" d="M 187.82391,262.8533 187.92123,262.84857 "/>
      <path class="Scene_Collection KTC_107_Furniture HouseA eames_daw_chair_seat hidden KTC_A107 hid eames_daw_chair_seat_hid__kitchen_plan kitchen_plan" d="M 187.92123,262.84857 188.26016,262.82761 "/>
      <path class="Scene_Collection KTC_107_Furniture HouseA eames_daw_chair_seat hidden KTC_A107 hid eames_daw_chair_seat_hid__kitchen_plan kitchen_plan" d="M 188.26016,262.82761 187.85971,262.8512 "/>
      <path class="Scene_Collection KTC_107_Furniture HouseA eames_daw_chair_seat hidden KTC_A107 hid eames_daw_chair_seat_hid__kitchen_plan kitchen_plan" d="M 187.85971,262.8512 187.82391,262.8533 "/>
      <path class="Scene_Collection KTC_107_Furniture HouseA eames_daw_chair_seat hidden KTC_A107 hid eames_daw_chair_seat_hid__kitchen_plan kitchen_plan" d="M 187.82391,262.8533 187.76642,262.85568 "/>
      <path class="Scene_Collection KTC_107_Furniture HouseA eames_daw_chair_seat hidden KTC_A107 hid eames_daw_chair_seat_hid__kitchen_plan kitchen_plan" d="M 187.76642,262.85568 187.75665,262.85611 "/>
      <path class="Scene_Collection KTC_107_Furniture HouseA eames_daw_chair_seat hidden KTC_A107 hid eames_daw_chair_seat_hid__kitchen_plan kitchen_plan" d="M 187.75665,262.85611 187.72372,262.85745 "/>
      <path class="Scene_Collection KTC_107_Furniture HouseA eames_daw_chair_seat hidden KTC_A107 hid eames_daw_chair_seat_hid__kitchen_plan kitchen_plan" d="M 187.72372,262.85745 187.49405,262.86694 "/>
      <path class="Scene_Collection KTC_107_Furniture HouseA eames_daw_chair_seat hidden KTC_A107 hid eames_daw_chair_seat_hid__kitchen_plan kitchen_plan" d="M 187.49405,262.86694 187.75185,262.85584 "/>
      <path class="Scene_Collection KTC_107_Furniture HouseA eames_daw_chair_seat hidden KTC_A107 hid eames_daw_chair_seat_hid__kitchen_plan kitchen_plan" d="M 187.75185,262.85584 187.77866,262.85467 "/>
      <path class="Scene_Collection KTC_107_Furniture HouseA eames_daw_chair_seat hidden KTC_A107 hid eames_daw_chair_seat_hid__kitchen_plan kitchen_plan" d="M 187.77866,262.85467 187.79469,262.854 "/>
      <path class="Scene_Collection KTC_107_Furniture HouseA eames_daw_chair_seat hidden KTC_A107 hid eames_daw_chair_seat_hid__kitchen_plan kitchen_plan" d="M 187.79469,262.854 187.92123,262.84857 "/>
      <path class="Scene_Collection KTC_107_Furniture HouseA eames_daw_chair_seat hidden KTC_A107 hid eames_daw_chair_seat_hid__kitchen_plan kitchen_plan" d="M 187.92123,262.84857 187.59827,262.86459 187.71054,262.85901 "/>
      <path class="Scene_Collection KTC_107_Furniture HouseA eames_daw_chair_seat hidden KTC_A107 hid eames_daw_chair_seat_hid__kitchen_plan kitchen_plan" d="M 187.71054,262.85901 187.29057,262.87677 "/>
      <path class="Scene_Collection KTC_107_Furniture HouseA eames_daw_chair_seat hidden KTC_A107 hid eames_daw_chair_seat_hid__kitchen_plan kitchen_plan" d="M 187.29057,262.87677 187.59827,262.86459 "/>
      <path class="Scene_Collection KTC_107_Furniture HouseA eames_daw_chair_seat hidden KTC_A107 hid eames_daw_chair_seat_hid__kitchen_plan kitchen_plan" d="M 187.59827,262.86459 187.65546,262.86136 "/>
      <path class="Scene_Collection KTC_107_Furniture HouseA eames_daw_chair_seat hidden KTC_A107 hid eames_daw_chair_seat_hid__kitchen_plan kitchen_plan" d="M 187.65546,262.86136 187.83607,262.85104 "/>
      <path class="Scene_Collection KTC_107_Furniture HouseA eames_daw_chair_seat hidden KTC_A107 hid eames_daw_chair_seat_hid__kitchen_plan kitchen_plan" d="M 187.83607,262.85104 188.02507,262.84027 188.09767,262.83441 "/>
      <path class="Scene_Collection KTC_107_Furniture HouseA eames_daw_chair_seat hidden KTC_A107 hid eames_daw_chair_seat_hid__kitchen_plan kitchen_plan" d="M 188.09767,262.83441 188.45534,262.80557 188.88594,262.76242 "/>
      <path class="Scene_Collection KTC_107_Furniture HouseA eames_daw_chair_seat hidden KTC_A107 hid eames_daw_chair_seat_hid__kitchen_plan kitchen_plan" d="M 188.88594,262.76242 188.79233,262.77341 "/>
      <path class="Scene_Collection KTC_107_Furniture HouseA eames_daw_chair_seat hidden KTC_A107 hid eames_daw_chair_seat_hid__kitchen_plan kitchen_plan" d="M 188.79233,262.77341 188.86873,262.76416 "/>
      <path class="Scene_Collection KTC_107_Furniture HouseA eames_daw_chair_seat hidden KTC_A107 hid eames_daw_chair_seat_hid__kitchen_plan kitchen_plan" d="M 188.86873,262.76416 189.2292,262.72046 189.66428,262.65933 "/>
      <path class="Scene_Collection KTC_107_Furniture HouseA eames_daw_chair_seat hidden KTC_A107 hid eames_daw_chair_seat_hid__kitchen_plan kitchen_plan" d="M 189.66428,262.65933 189.59052,262.67068 "/>
      <path class="Scene_Collection KTC_107_Furniture HouseA eames_daw_chair_seat hidden KTC_A107 hid eames_daw_chair_seat_hid__kitchen_plan kitchen_plan" d="M 189.59052,262.67068 189.6277,262.66446 "/>
      <path class="Scene_Collection KTC_107_Furniture HouseA eames_daw_chair_seat hidden KTC_A107 hid eames_daw_chair_seat_hid__kitchen_plan kitchen_plan" d="M 189.6277,262.66446 190.02946,262.59701 190.40745,262.52402 190.83588,262.42825 "/>
      <path class="Scene_Collection KTC_107_Furniture HouseA eames_daw_chair_seat hidden KTC_A107 hid eames_daw_chair_seat_hid__kitchen_plan kitchen_plan" d="M 190.83588,262.42825 190.7948,262.43881 "/>
      <path class="Scene_Collection KTC_107_Furniture HouseA eames_daw_chair_seat hidden KTC_A107 hid eames_daw_chair_seat_hid__kitchen_plan kitchen_plan" d="M 190.7948,262.43881 190.83099,262.42935 "/>
      <path class="Scene_Collection KTC_107_Furniture HouseA eames_daw_chair_seat hidden KTC_A107 hid eames_daw_chair_seat_hid__kitchen_plan kitchen_plan" d="M 190.83099,262.42935 191.21796,262.32791 191.60353,262.21344 191.98956,262.08334 192.3728,261.93634 192.74908,261.77237 193.11551,261.59433 193.47063,261.40549 193.81761,261.20633 "/>
      <path class="Scene_Collection KTC_107_Furniture HouseA eames_daw_chair_seat hidden KTC_A107 hid eames_daw_chair_seat_hid__kitchen_plan kitchen_plan" d="M 193.81761,261.20633 193.85001,261.18777 "/>
      <path class="Scene_Collection KTC_107_Furniture HouseA eames_daw_chair_seat hidden KTC_A107 hid eames_daw_chair_seat_hid__kitchen_plan kitchen_plan" d="M 193.85001,261.18777 193.81343,261.20898 "/>
      <path class="Scene_Collection KTC_107_Furniture HouseA eames_daw_chair_seat hidden KTC_A107 hid eames_daw_chair_seat_hid__kitchen_plan kitchen_plan" d="M 193.81343,261.20898 194.1859,260.97675 194.50653,260.76373 194.84019,260.53 "/>
      <path class="Scene_Collection KTC_107_Furniture HouseA eames_daw_chair_seat hidden KTC_A107 hid eames_daw_chair_seat_hid__kitchen_plan kitchen_plan" d="M 194.84019,260.53 194.87111,260.50836 "/>
      <path class="Scene_Collection KTC_107_Furniture HouseA eames_daw_chair_seat hidden KTC_A107 hid eames_daw_chair_seat_hid__kitchen_plan kitchen_plan" d="M 194.87111,260.50836 194.81059,260.55197 "/>
      <path class="Scene_Collection KTC_107_Furniture HouseA eames_daw_chair_seat hidden KTC_A107 hid eames_daw_chair_seat_hid__kitchen_plan kitchen_plan" d="M 194.81059,260.55197 195.16354,260.29037 195.45117,260.06873 "/>
      <path class="Scene_Collection KTC_107_Furniture HouseA eames_daw_chair_seat hidden KTC_A107 hid eames_daw_chair_seat_hid__kitchen_plan kitchen_plan" d="M 195.45117,260.06873 195.51207,260.02176 "/>
      <path class="Scene_Collection KTC_107_Furniture HouseA eames_daw_chair_seat hidden KTC_A107 hid eames_daw_chair_seat_hid__kitchen_plan kitchen_plan" d="M 195.51207,260.02176 195.43768,260.07956 "/>
      <path class="Scene_Collection KTC_107_Furniture HouseA eames_daw_chair_seat hidden KTC_A107 hid eames_daw_chair_seat_hid__kitchen_plan kitchen_plan" d="M 195.43768,260.07956 195.77483,259.80835 196.04999,259.57806 "/>
      <path class="Scene_Collection KTC_107_Furniture HouseA eames_daw_chair_seat hidden KTC_A107 hid eames_daw_chair_seat_hid__kitchen_plan kitchen_plan" d="M 196.04999,259.57806 196.10585,259.53125 "/>
      <path class="Scene_Collection KTC_107_Furniture HouseA eames_daw_chair_seat hidden KTC_A107 hid eames_daw_chair_seat_hid__kitchen_plan kitchen_plan" d="M 196.10585,259.53125 196.02185,259.60245 "/>
      <path class="Scene_Collection KTC_107_Furniture HouseA eames_daw_chair_seat hidden KTC_A107 hid eames_daw_chair_seat_hid__kitchen_plan kitchen_plan" d="M 196.02185,259.60245 196.34319,259.32407 "/>
      <path class="Scene_Collection KTC_107_Furniture HouseA eames_daw_chair_seat hidden KTC_A107 hid eames_daw_chair_seat_hid__kitchen_plan kitchen_plan" d="M 196.34319,259.32407 196.10585,259.53125 "/>
      <path class="Scene_Collection KTC_107_Furniture HouseA eames_daw_chair_seat hidden KTC_A107 hid eames_daw_chair_seat_hid__kitchen_plan kitchen_plan" d="M 196.10585,259.53125 196.24818,259.40628 "/>
      <path class="Scene_Collection KTC_107_Furniture HouseA eames_daw_chair_seat hidden KTC_A107 hid eames_daw_chair_seat_hid__kitchen_plan kitchen_plan" d="M 196.24818,259.40628 196.38411,259.28705 "/>
      <path class="Scene_Collection KTC_107_Furniture HouseA eames_daw_chair_seat hidden KTC_A107 hid eames_daw_chair_seat_hid__kitchen_plan kitchen_plan" d="M 196.38411,259.28705 196.42711,259.2493 "/>
      <path class="Scene_Collection KTC_107_Furniture HouseA eames_daw_chair_seat hidden KTC_A107 hid eames_daw_chair_seat_hid__kitchen_plan kitchen_plan" d="M 196.42711,259.2493 196.34319,259.32407 "/>
      <path class="Scene_Collection KTC_107_Furniture HouseA eames_daw_chair_seat hidden KTC_A107 hid eames_daw_chair_seat_hid__kitchen_plan kitchen_plan" d="M 196.34319,259.32407 196.65508,259.04211 "/>
      <path class="Scene_Collection KTC_107_Furniture HouseA eames_daw_chair_seat hidden KTC_A107 hid eames_daw_chair_seat_hid__kitchen_plan kitchen_plan" d="M 196.65508,259.04211 196.42711,259.2493 196.18574,259.46432 "/>
      <path class="Scene_Collection KTC_107_Furniture HouseA eames_daw_chair_seat hidden KTC_A107 hid eames_daw_chair_seat_hid__kitchen_plan kitchen_plan" d="M 196.18574,259.46432 196.25842,259.39951 196.30104,259.3609 "/>
      <path class="Scene_Collection KTC_107_Furniture HouseA eames_daw_chair_seat hidden KTC_A107 hid eames_daw_chair_seat_hid__kitchen_plan kitchen_plan" d="M 196.30104,259.3609 196.30832,259.35428 "/>
      <path class="Scene_Collection KTC_107_Furniture HouseA eames_daw_chair_seat hidden KTC_A107 hid eames_daw_chair_seat_hid__kitchen_plan kitchen_plan" d="M 196.30832,259.35428 196.33273,259.33215 "/>
      <path class="Scene_Collection KTC_107_Furniture HouseA eames_daw_chair_seat hidden KTC_A107 hid eames_daw_chair_seat_hid__kitchen_plan kitchen_plan" d="M 196.33273,259.33215 196.50304,259.17786 "/>
      <path class="Scene_Collection KTC_107_Furniture HouseA eames_daw_chair_seat hidden KTC_A107 hid eames_daw_chair_seat_hid__kitchen_plan kitchen_plan" d="M 196.50304,259.17786 196.31142,259.3508 "/>
      <path class="Scene_Collection KTC_107_Furniture HouseA eames_daw_chair_seat hidden KTC_A107 hid eames_daw_chair_seat_hid__kitchen_plan kitchen_plan" d="M 196.31142,259.3508 196.29158,259.36871 "/>
      <path class="Scene_Collection KTC_107_Furniture HouseA eames_daw_chair_seat hidden KTC_A107 hid eames_daw_chair_seat_hid__kitchen_plan kitchen_plan" d="M 196.29158,259.36871 196.27972,259.37949 "/>
      <path class="Scene_Collection KTC_107_Furniture HouseA eames_daw_chair_seat hidden KTC_A107 hid eames_daw_chair_seat_hid__kitchen_plan kitchen_plan" d="M 196.27972,259.37949 196.18574,259.46432 "/>
      <path class="Scene_Collection KTC_107_Furniture HouseA eames_daw_chair_seat hidden KTC_A107 hid eames_daw_chair_seat_hid__kitchen_plan kitchen_plan" d="M 188.02507,262.84027 188.13493,262.83203 "/>
      <path class="Scene_Collection KTC_107_Furniture HouseA eames_daw_chair_seat hidden KTC_A107 hid eames_daw_chair_seat_hid__kitchen_plan kitchen_plan" d="M 188.13493,262.83203 187.71054,262.85901 "/>
      <path class="Scene_Collection KTC_107_Furniture HouseA eames_daw_chair_seat hidden KTC_A107 hid eames_daw_chair_seat_hid__kitchen_plan kitchen_plan" d="M 187.71054,262.85901 188.02507,262.84027 "/>
      <path class="Scene_Collection KTC_107_Furniture HouseA eames_daw_chair_seat hidden KTC_A107 hid eames_daw_chair_seat_hid__kitchen_plan kitchen_plan" d="M 197.54686,242.61737 197.12549,242.25293 196.64918,241.88467 196.16667,241.54404 195.68611,241.22688 195.21545,240.92917 "/>
      <path class="Scene_Collection KTC_107_Furniture HouseA eames_daw_chair_seat hidden KTC_A107 hid eames_daw_chair_seat_hid__kitchen_plan kitchen_plan" d="M 195.21545,240.92917 195.84836,241.42127 "/>
      <path class="Scene_Collection KTC_107_Furniture HouseA eames_daw_chair_seat hidden KTC_A107 hid eames_daw_chair_seat_hid__kitchen_plan kitchen_plan" d="M 195.84836,241.42127 195.47574,241.09378 "/>
      <path class="Scene_Collection KTC_107_Furniture HouseA eames_daw_chair_seat hidden KTC_A107 hid eames_daw_chair_seat_hid__kitchen_plan kitchen_plan" d="M 195.47574,241.09378 195.43103,241.0545 195.00221,240.68762 194.54489,240.42864 194.11191,240.19531 193.53648,239.89078 193.15936,239.68372 192.79085,239.50711 192.42665,239.36581 192.28586,239.32669 "/>
      <path class="Scene_Collection KTC_107_Furniture HouseA eames_daw_chair_seat hidden KTC_A107 hid eames_daw_chair_seat_hid__kitchen_plan kitchen_plan" d="M 192.28586,239.32669 192.06247,239.2646 191.69395,239.20828 191.31737,239.19998 190.93094,239.23608 190.53352,239.31128 190.12393,239.42032 189.70116,239.55786 189.26392,239.71863 188.81108,239.89735 188.34152,240.08868 187.8546,240.28809 187.35187,240.4939 186.8358,240.70523 186.82449,240.70987 "/>
      <path class="Scene_Collection KTC_107_Furniture HouseA eames_daw_chair_seat hidden KTC_A107 hid eames_daw_chair_seat_hid__kitchen_plan kitchen_plan" d="M 186.82449,240.70987 186.30859,240.92114 185.77231,241.14072 185.22937,241.36304 184.68201,241.58722 184.13225,241.81232 183.58255,242.03738 183.0352,242.26155 182.49225,242.48389 181.97378,242.6962 "/>
      <path class="Scene_Collection KTC_107_Furniture HouseA eames_daw_chair_seat hidden KTC_A107 hid eames_daw_chair_seat_hid__kitchen_plan kitchen_plan" d="M 181.97378,242.6962 181.95596,242.70348 181.42868,242.91937 180.9127,243.13069 180.40997,243.33652 179.92305,243.5359 179.4541,243.72891 179.006,243.91913 178.5816,244.11121 178.18372,244.30969 177.81543,244.5192 177.47937,244.74432 177.39265,244.81503 177.17857,244.98962 176.91589,245.2597 176.72496,245.5152 "/>
      <path class="Scene_Collection KTC_107_Furniture HouseA eames_daw_chair_seat hidden KTC_A107 hid eames_daw_chair_seat_hid__kitchen_plan kitchen_plan" d="M 176.72496,245.5152 176.69273,245.55829 176.50421,245.88588 176.34374,246.24203 176.20488,246.62636 176.08128,247.03845 176.03348,247.21027 175.8847,247.65913 175.73973,248.12909 175.59537,248.63452 175.54703,249.19676 175.48604,249.49854 175.36601,250.06165 175.26102,250.64285 175.17973,251.23947 175.15448,251.5531 "/>
      <path class="Scene_Collection KTC_107_Furniture HouseA eames_daw_chair_seat hidden KTC_A107 hid eames_daw_chair_seat_hid__kitchen_plan kitchen_plan" d="M 176.37512,256.88873 176.11066,256.29959 "/>
      <path class="Scene_Collection KTC_107_Furniture HouseA eames_daw_chair_seat hidden KTC_A107 hid eames_daw_chair_seat_hid__kitchen_plan kitchen_plan" d="M 176.11066,256.29959 176.3748,256.88818 "/>
    </g>
  </g>
  <g inkscape:groupmode="layer" inkscape:label="sym"/>
  <g inkscape:groupmode="layer" inkscape:label="bak"/>
</svg>
<!--
{"subject": "eames_daw_chair_seat",
"original_name": "Eames_Daw_chair_seat",
"resolution": [325, 325],
"force": "False",
"outline": "False",
"hidden": "True",
"back": "False",
"symbol": "False",
"overlaps": [("kitchen_floor", "None"),("slaba_001", "None"),("table_003", "None"),("eames_daw_chair_legs", "None"),("eames_daw_chair_bolt", "None"),("eames_daw_chair_wire", "None"),],
"render_pixels": [(311082, 311083), (311728, 311736), (312376, 312387), (313023, 313039), (313671, 313690), (314319, 314342), (314966, 314993), (315614, 315644), (316261, 316295), (316909, 316946), (317557, 317597), (318205, 318247), (318854, 318898), (319503, 319548), (320153, 320199), (320802, 320849), (321452, 321500), (322102, 322150), (322751, 322800), (323401, 323451), (324051, 324101), (324701, 324751), (325351, 325401), (326000, 326052), (326650, 326702), (327300, 327352), (327950, 328002), (328600, 328652), (329250, 329302), (329901, 329952), (330551, 330601), (331201, 331251), (331851, 331900), (332502, 332549), (333152, 333198), (333803, 333847), (334453, 334496), (335104, 335145), (335754, 335795), (336405, 336444), (337055, 337093), (337706, 337743), (338356, 338392), (339007, 339041), (339658, 339690), (340309, 340337), (340960, 340985), (341612, 341632), (342273, 342280)],}
-->