<?xml version="1.0" encoding="utf-8" ?>
<svg xmlns="http://www.w3.org/2000/svg" xmlns:ev="http://www.w3.org/2001/xml-events" xmlns:inkscape="http://www.inkscape.org/namespaces/inkscape" xmlns:sodipodi="http://sodipodi.sourceforge.net/DTD/sodipodi-0.dtd" xmlns:xlink="http://www.w3.org/1999/xlink" baseProfile="full" height="325.0mm" id="svg" version="1.1" viewBox="0 0 325.0 325.0" width="325.0mm">
  <defs/>
  <style type="text/css"><![CDATA[@import url(../prj.css);]]></style>
  <g inkscape:groupmode="layer" inkscape:label="prj"/>
  <g inkscape:groupmode="layer" inkscape:label="cut"/>
  <g inkscape:groupmode="layer" inkscape:label="xray"/>
  <g inkscape:groupmode="layer" inkscape:label="hid"/>
  <g inkscape:groupmode="layer" inkscape:label="sym"/>
  <g class="bak kitchen_plan" inkscape:groupmode="layer" inkscape:label="bak">
    <g class="Scene_Collection frisbi_lamp_diffuser KTC_107_Furniture HouseA back bak KTC_A107 frisbi_lamp_diffuser_bak__kitchen_plan kitchen_plan" id="frisbi_lamp_diffuser_bak__kitchen_plan">
      <path class="Scene_Collection frisbi_lamp_diffuser KTC_107_Furniture HouseA back bak KTC_A107 frisbi_lamp_diffuser_bak__kitchen_plan kitchen_plan" d="M 174.87622,227.66168 175.18935,227.89203 175.524,228.09097 175.87642,228.25705 176.243,228.38876 176.62028,228.48469 177.00461,228.54334 177.39258,228.5632 177.78047,228.54334 178.16481,228.48469 178.54208,228.38876 178.90868,228.25705 179.26108,228.09097 179.59575,227.89203 179.90894,227.66168 180.19734,227.40143 180.45755,227.11307 180.68791,226.7998 180.88681,226.46521 181.05295,226.11285 181.18468,225.74625 181.28059,225.36899 181.33926,224.98459 181.3591,224.59666 181.33926,224.20872 181.28059,223.82436 181.18468,223.44708 181.05295,223.08049 180.88681,222.72812 180.68791,222.39352 180.45755,222.08026 180.19734,221.79192 179.90894,221.53165 179.59575,221.30131 179.26108,221.10237 178.90868,220.93631 178.54208,220.80455 178.16481,220.70865 177.78047,220.65001 177.39258,220.63016 177.00461,220.65001 176.62028,220.70865 176.243,220.80455 175.87642,220.93631 175.524,221.10237 175.18935,221.30131 174.87622,221.53165 174.58783,221.79192 174.32754,222.08026 174.09726,222.39352 173.89827,222.72812 173.73215,223.08049 173.60049,223.44708 173.50449,223.82436 173.44583,224.20872 173.426,224.59666 173.44583,224.98459 173.50449,225.36899 173.60049,225.74625 173.73215,226.11285 173.89827,226.46521 174.09726,226.7998 174.32754,227.11307 174.58783,227.40143 Z "/>
      <path class="Scene_Collection frisbi_lamp_diffuser KTC_107_Furniture HouseA back bak KTC_A107 frisbi_lamp_diffuser_bak__kitchen_plan kitchen_plan" d="M 192.22488,226.05486 192.00444,227.49947 191.64397,228.91724 191.14899,230.29477 190.52492,231.6189 189.77733,232.87625 188.91157,234.05359 187.93339,235.1375 186.84944,236.11575 185.67219,236.98145 184.41475,237.72906 183.09067,238.35312 181.71304,238.84814 180.29536,239.20859 178.85072,239.42894 177.39258,239.50363 175.93437,239.42894 174.48973,239.20859 173.07204,238.84814 171.69441,238.35312 170.37033,237.72906 169.11298,236.98145 167.93564,236.11575 166.8517,235.1375 165.8735,234.05359 165.00775,232.87625 164.26018,231.6189 163.63609,230.29477 163.14111,228.91724 162.78065,227.49947 162.56029,226.05486 162.48558,224.59666 162.56029,223.13849 162.78065,221.69386 163.14111,220.27611 163.63609,218.89856 164.26018,217.57443 165.00775,216.31705 165.8735,215.13974 166.8517,214.05585 167.93564,213.07756 169.11298,212.21188 170.37033,211.46426 171.69441,210.84021 173.07204,210.34518 174.48973,209.98474 175.93437,209.76437 177.39258,209.6897 178.85072,209.76437 180.29536,209.98474 181.71304,210.34518 183.09067,210.84021 184.41475,211.46426 185.67219,212.21188 186.84944,213.07756 187.93339,214.05585 188.91157,215.13974 189.77733,216.31705 190.52492,217.57443 191.14899,218.89856 191.64404,220.27612 192.00444,221.69386 192.22488,223.13849 192.2995,224.59666 Z "/>
      <path class="Scene_Collection frisbi_lamp_diffuser KTC_107_Furniture HouseA back bak KTC_A107 frisbi_lamp_diffuser_bak__kitchen_plan kitchen_plan" d="M 191.41113,227.38123 191.06523,228.74152 190.59024,230.06332 189.99142,231.33386 189.27414,232.54025 188.44365,233.66971 187.5052,234.70938 186.46565,235.64774 185.33623,236.47824 184.12976,237.19554 182.85922,237.79434 181.53738,238.26932 180.17712,238.61517 178.79121,238.82657 177.39258,238.89819 175.99388,238.82657 174.60805,238.61517 173.2477,238.26932 171.92587,237.79434 170.65533,237.19554 169.44894,236.47821 168.31952,235.64774 167.27988,234.70938 166.34145,233.66971 165.51103,232.54025 164.79367,231.33386 164.19485,230.06332 163.71994,228.74152 163.37404,227.38123 163.16266,225.99535 163.09099,224.59666 163.16266,223.198 163.37404,221.8121 163.71994,220.45184 164.19485,219.13001 164.79367,217.85947 165.51103,216.65306 166.34145,215.52362 167.27988,214.48395 168.31952,213.54559 169.44894,212.71509 170.65533,211.99777 171.92587,211.39899 173.2477,210.924 174.60805,210.57816 175.99388,210.36676 177.39258,210.29512 178.79121,210.36676 180.17712,210.57816 181.53738,210.924 182.85922,211.39899 184.12976,211.99777 185.33623,212.71509 186.46565,213.54559 187.50528,214.48395 188.44365,215.52362 189.27414,216.65306 189.99142,217.85947 190.59024,219.13001 191.06523,220.45184 191.41113,221.8121 191.62244,223.198 191.69418,224.59666 191.62244,225.99535 Z "/>
      <path class="Scene_Collection frisbi_lamp_diffuser KTC_107_Furniture HouseA back bak KTC_A107 frisbi_lamp_diffuser_bak__kitchen_plan kitchen_plan" d="M 174.61517,210.61299 173.25816,210.95799 171.9395,211.43185 170.67198,212.02924 169.46848,212.7448 168.3419,213.5732 167.30499,214.50906 166.36911,215.54602 165.54071,216.67262 164.82512,217.8761 164.22778,219.14362 163.75388,220.4623 163.40891,221.81928 163.19807,223.20166 163.12656,224.59666 163.19807,225.99167 163.40891,227.37407 163.75388,228.73102 164.22778,230.04971 164.82512,231.31723 165.54071,232.52069 166.36911,233.64731 167.30499,234.68427 168.3419,235.62013 169.46848,236.44852 170.67198,237.16409 171.9395,237.76147 173.25816,238.23532 174.61517,238.58034 175.99753,238.79121 177.39258,238.86266 178.78757,238.79121 180.16992,238.58034 181.52693,238.23532 182.84558,237.76147 184.1131,237.16409 185.31662,236.44852 186.44319,235.62013 187.48018,234.68427 188.41599,233.64731 189.24446,232.52069 189.95996,231.31723 190.55739,230.04971 191.0312,228.73102 191.37617,227.37407 191.58717,225.99167 191.65854,224.59666 191.58717,223.20166 191.37617,221.81928 191.0312,220.4623 190.55739,219.14362 189.95996,217.8761 189.24446,216.67262 188.41599,215.54602 187.48018,214.50909 186.44319,213.5732 185.31662,212.7448 184.1131,212.02924 182.84558,211.43185 181.52693,210.95799 180.16992,210.61299 178.78757,210.40213 177.39258,210.33066 175.99753,210.40213 Z "/>
    </g>
  </g>
</svg>
<!--
{"subject": "frisbi_lamp_diffuser",
"original_name": "Frisbi_lamp_diffuser",
"resolution": [325, 325],
"force": "False",
"outline": "False",
"hidden": "False",
"back": "True",
"symbol": "False",
"overlaps": [],
"render_pixels": [],}
-->