<?xml version="1.0" encoding="utf-8" ?>
<svg xmlns="http://www.w3.org/2000/svg" xmlns:ev="http://www.w3.org/2001/xml-events" xmlns:inkscape="http://www.inkscape.org/namespaces/inkscape" xmlns:sodipodi="http://sodipodi.sourceforge.net/DTD/sodipodi-0.dtd" xmlns:xlink="http://www.w3.org/1999/xlink" baseProfile="full" height="325.0mm" id="svg" version="1.1" viewBox="0 0 325.0 325.0" width="325.0mm">
  <defs/>
  <style type="text/css"><![CDATA[@import url(../prj.css);]]></style>
  <g class="prj kitchen_plan" inkscape:groupmode="layer" inkscape:label="prj">
    <g class="Scene_Collection HouseA prj hall_wrd_004_prj__kitchen_plan hall_wrd_004 kitchen_plan" id="hall_wrd_004_prj__kitchen_plan">
      <path class="Scene_Collection HouseA prj hall_wrd_004_prj__kitchen_plan hall_wrd_004 kitchen_plan" d="M 283.19186,23.478 284.96466,53.30029 286.73755,83.1226 "/>
    </g>
  </g>
  <g class="cut kitchen_plan" inkscape:groupmode="layer" inkscape:label="cut">
    <g class="Scene_Collection HouseA cut hall_wrd_004_cut__kitchen_plan hall_wrd_004 kitchen_plan" id="hall_wrd_004_cut__kitchen_plan">
      <path class="Scene_Collection HouseA cut hall_wrd_004_cut__kitchen_plan hall_wrd_004 kitchen_plan" d="M 283.1474,22.72934 283.19186,23.478 253.99342,25.21365 255.76614,55.03604 257.53903,84.85841 286.73755,83.1226 286.78201,83.87128 256.83484,85.6516 255.01747,55.08054 253.2002,24.50949 Z "/>
    </g>
  </g>
  <g inkscape:groupmode="layer" inkscape:label="xray"/>
  <g inkscape:groupmode="layer" inkscape:label="hid"/>
  <g inkscape:groupmode="layer" inkscape:label="sym"/>
  <g inkscape:groupmode="layer" inkscape:label="bak"/>
</svg>
<!--
{"subject": "hall_wrd_004",
"original_name": "HALL_Wrd.004",
"resolution": [325, 325],
"force": "False",
"outline": "False",
"hidden": "False",
"back": "False",
"symbol": "False",
"overlaps": [("hallway_floor_001", "None"),("slaba_001", "None"),],
"render_pixels": [(30449, 30465), (31082, 31115), (31715, 31765), (32356, 32416), (33006, 33066), (33657, 33716), (34307, 34366), (34957, 35016), (35607, 35666), (36257, 36316), (36907, 36966), (37557, 37616), (38207, 38266), (38857, 38916), (39507, 39566), (40157, 40216), (40807, 40866), (41457, 41516), (42107, 42166), (42757, 42816), (43407, 43467), (44057, 44117), (44708, 44767), (45358, 45417), (46008, 46067), (46658, 46717), (47308, 47367), (47958, 48017), (48608, 48667), (49258, 49317), (49908, 49967), (50558, 50617), (51208, 51267), (51858, 51917), (52508, 52567), (53158, 53217), (53808, 53867), (54458, 54518), (55109, 55168), (55759, 55818), (56409, 56468), (57059, 57118), (57709, 57768), (58359, 58418), (59009, 59068), (59659, 59718), (60309, 60368), (60959, 61018), (61609, 61668), (62259, 62318), (62909, 62968), (63559, 63618), (64209, 64268), (64859, 64919), (65509, 65569), (66160, 66219), (66810, 66869), (67460, 67519), (68110, 68169), (68760, 68819), (69410, 69469), (70060, 70119), (70710, 70769), (71360, 71419), (72010, 72069), (72660, 72719), (73310, 73369), (73960, 74019), (74610, 74669), (75260, 75319), (75910, 75970), (76560, 76620), (77211, 77270), (77861, 77920), (78511, 78570), (79161, 79220), (79811, 79870), (80461, 80520), (81111, 81170), (81761, 81820), (82411, 82470), (83061, 83120), (83711, 83770), (84361, 84420), (85011, 85070), (85661, 85720), (86311, 86370), (86961, 87021), (87611, 87671), (88262, 88321), (88912, 88971), (89562, 89621), (90212, 90271), (90862, 90921), (91512, 91571), (92162, 92221), (92812, 92871), (93462, 93521), (94112, 94171), (94762, 94821), (95412, 95471), (96062, 96121), (96712, 96771), (97362, 97421), (98012, 98072), (98662, 98722), (99313, 99372), (99963, 100022), (100613, 100672), (101263, 101322), (101913, 101972), (102563, 102622), (103213, 103272), (103863, 103922), (104513, 104572), (105163, 105222), (105813, 105872), (106463, 106522), (107113, 107172), (107763, 107822), (108413, 108472), (109063, 109123), (109714, 109760), (110364, 110393), (111014, 111026)],}
-->