<?xml version="1.0" encoding="utf-8" ?>
<svg xmlns="http://www.w3.org/2000/svg" xmlns:ev="http://www.w3.org/2001/xml-events" xmlns:inkscape="http://www.inkscape.org/namespaces/inkscape" xmlns:sodipodi="http://sodipodi.sourceforge.net/DTD/sodipodi-0.dtd" xmlns:xlink="http://www.w3.org/1999/xlink" baseProfile="full" height="325.0mm" id="svg" version="1.1" viewBox="0 0 325.0 325.0" width="325.0mm">
  <defs/>
  <style type="text/css"><![CDATA[@import url(../prj.css);]]></style>
  <g inkscape:groupmode="layer" inkscape:label="prj"/>
  <g inkscape:groupmode="layer" inkscape:label="cut"/>
  <g inkscape:groupmode="layer" inkscape:label="xray"/>
  <g inkscape:groupmode="layer" inkscape:label="hid"/>
  <g inkscape:groupmode="layer" inkscape:label="sym"/>
  <g class="bak kitchen_plan" inkscape:groupmode="layer" inkscape:label="bak">
    <g class="Scene_Collection KTC_107_Furniture HouseA ktc_top_001 back bak KTC_A107 ktc_top_001_bak__kitchen_plan kitchen_plan" id="ktc_top_001_bak__kitchen_plan">
      <path class="Scene_Collection KTC_107_Furniture HouseA ktc_top_001 back bak KTC_A107 ktc_top_001_bak__kitchen_plan kitchen_plan" d="M 116.2272,119.55565 115.26289,103.33426 60.48459,106.59082 61.44891,122.8122 Z "/>
      <path class="Scene_Collection KTC_107_Furniture HouseA ktc_top_001 back bak KTC_A107 ktc_top_001_bak__kitchen_plan kitchen_plan" d="M 116.43649,102.01228 117.47504,119.48146 116.2272,119.55565 "/>
      <path class="Scene_Collection KTC_107_Furniture HouseA ktc_top_001 back bak KTC_A107 ktc_top_001_bak__kitchen_plan kitchen_plan" d="M 116.2272,119.55565 61.44891,122.8122 "/>
      <path class="Scene_Collection KTC_107_Furniture HouseA ktc_top_001 back bak KTC_A107 ktc_top_001_bak__kitchen_plan kitchen_plan" d="M 61.44891,122.8122 60.20115,122.88638 59.1626,105.41722 116.43649,102.01228 "/>
    </g>
  </g>
</svg>
<!--
{"subject": "ktc_top_001",
"original_name": "KTC_top.001",
"resolution": [325, 325],
"force": "False",
"outline": "False",
"hidden": "False",
"back": "True",
"symbol": "False",
"overlaps": [],
"render_pixels": [],}
-->