<?xml version="1.0" encoding="utf-8" ?>
<svg xmlns="http://www.w3.org/2000/svg" xmlns:ev="http://www.w3.org/2001/xml-events" xmlns:inkscape="http://www.inkscape.org/namespaces/inkscape" xmlns:sodipodi="http://sodipodi.sourceforge.net/DTD/sodipodi-0.dtd" xmlns:xlink="http://www.w3.org/1999/xlink" baseProfile="full" height="325.0mm" id="svg" version="1.1" viewBox="0 0 325.0 325.0" width="325.0mm">
  <defs/>
  <style type="text/css"><![CDATA[@import url(../prj.css);]]></style>
  <g class="prj kitchen_plan" inkscape:groupmode="layer" inkscape:label="prj">
    <g class="Scene_Collection FLOOR HouseA ktc_doorstep ktc_doorstep_prj__kitchen_plan prj kitchen_plan" id="ktc_doorstep_prj__kitchen_plan">
      <path class="Scene_Collection FLOOR HouseA ktc_doorstep ktc_doorstep_prj__kitchen_plan prj kitchen_plan" d="M 122.14201,313.04571 247.37093,305.60095 246.95544,298.61322 249.85048,298.44107 "/>
      <path class="Scene_Collection FLOOR HouseA ktc_doorstep ktc_doorstep_prj__kitchen_plan prj kitchen_plan" d="M 246.8279,296.46695 121.59899,303.9118 "/>
      <path class="Scene_Collection FLOOR HouseA ktc_doorstep ktc_doorstep_prj__kitchen_plan prj kitchen_plan" d="M 118.95641,306.22269 119.08132,306.21527 "/>
      <path class="Scene_Collection FLOOR HouseA ktc_doorstep ktc_doorstep_prj__kitchen_plan prj kitchen_plan" d="M 121.737,306.2323 122.14201,313.04571 "/>
    </g>
  </g>
  <g inkscape:groupmode="layer" inkscape:label="cut"/>
  <g inkscape:groupmode="layer" inkscape:label="xray"/>
  <g inkscape:groupmode="layer" inkscape:label="hid"/>
  <g inkscape:groupmode="layer" inkscape:label="sym"/>
  <g inkscape:groupmode="layer" inkscape:label="bak"/>
</svg>
<!--
{"subject": "ktc_doorstep",
"original_name": "KTC_doorstep",
"resolution": [325, 325],
"force": "False",
"outline": "False",
"hidden": "False",
"back": "False",
"symbol": "False",
"overlaps": [("slaba_001", "None"),("insect_screen_frame_042", "None"),("insect_screen_frame_041", "None"),("room_insect_screen_frame_020", "None"),("insect_screen_027", "None"),],
"render_pixels": [(385934, 385948), (386567, 386599), (387200, 387249), (387834, 387899), (388467, 388543), (389100, 389193), (389733, 389843), (390366, 390493), (391000, 391143), (391633, 391793), (392266, 392443), (392899, 393093), (393532, 393743), (394165, 394393), (394799, 395044), (395437, 395694), (396087, 396344), (396738, 396994), (397388, 397639), (398043, 398272), (398694, 398905), (399344, 399538), (399994, 400171), (400644, 400805), (401294, 401438), (401944, 402071), (402594, 402704), (403244, 403337), (403894, 403971), (404544, 404604), (405194, 405237), (405844, 405870), (406494, 406503)],}
-->