<?xml version="1.0" encoding="utf-8" ?>
<svg xmlns="http://www.w3.org/2000/svg" xmlns:ev="http://www.w3.org/2001/xml-events" xmlns:inkscape="http://www.inkscape.org/namespaces/inkscape" xmlns:sodipodi="http://sodipodi.sourceforge.net/DTD/sodipodi-0.dtd" xmlns:xlink="http://www.w3.org/1999/xlink" baseProfile="full" height="325.0mm" id="svg" version="1.1" viewBox="0 0 325.0 325.0" width="325.0mm">
  <defs/>
  <style type="text/css"><![CDATA[@import url(../prj.css);]]></style>
  <g inkscape:groupmode="layer" inkscape:label="prj"/>
  <g inkscape:groupmode="layer" inkscape:label="cut"/>
  <g inkscape:groupmode="layer" inkscape:label="xray"/>
  <g inkscape:groupmode="layer" inkscape:label="hid"/>
  <g inkscape:groupmode="layer" inkscape:label="sym"/>
  <g class="bak kitchen_plan" inkscape:groupmode="layer" inkscape:label="bak">
    <g class="Scene_Collection KTC_107_Furniture HouseA back ktc_top_010_bak__kitchen_plan ktc_top_010 bak KTC_A107 kitchen_plan" id="ktc_top_010_bak__kitchen_plan">
      <path class="Scene_Collection KTC_107_Furniture HouseA back ktc_top_010_bak__kitchen_plan ktc_top_010 bak KTC_A107 kitchen_plan" d="M 46.60576,125.94859 30.38444,126.91296 33.64103,181.69122 49.86234,180.72687 Z "/>
      <path class="Scene_Collection KTC_107_Furniture HouseA back ktc_top_010_bak__kitchen_plan ktc_top_010 bak KTC_A107 kitchen_plan" d="M 29.06246,125.73935 46.53169,124.70081 46.60576,125.94859 "/>
      <path class="Scene_Collection KTC_107_Furniture HouseA back ktc_top_010_bak__kitchen_plan ktc_top_010 bak KTC_A107 kitchen_plan" d="M 46.60576,125.94859 48.23405,153.33794 "/>
      <path class="Scene_Collection KTC_107_Furniture HouseA back ktc_top_010_bak__kitchen_plan ktc_top_010 bak KTC_A107 kitchen_plan" d="M 48.23405,153.33794 49.93657,181.97467 32.46735,183.01321 29.06246,125.73935 "/>
    </g>
  </g>
</svg>
<!--
{"subject": "ktc_top_010",
"original_name": "KTC_top.010",
"resolution": [325, 325],
"force": "False",
"outline": "False",
"hidden": "False",
"back": "True",
"symbol": "False",
"overlaps": [],
"render_pixels": [],}
-->