<?xml version="1.0" encoding="utf-8" ?>
<svg xmlns="http://www.w3.org/2000/svg" xmlns:ev="http://www.w3.org/2001/xml-events" xmlns:inkscape="http://www.inkscape.org/namespaces/inkscape" xmlns:sodipodi="http://sodipodi.sourceforge.net/DTD/sodipodi-0.dtd" xmlns:xlink="http://www.w3.org/1999/xlink" baseProfile="full" height="325.0mm" id="svg" version="1.1" viewBox="0 0 325.0 325.0" width="325.0mm">
  <defs/>
  <style type="text/css"><![CDATA[@import url(../prj.css);]]></style>
  <g inkscape:groupmode="layer" inkscape:label="prj"/>
  <g inkscape:groupmode="layer" inkscape:label="cut"/>
  <g inkscape:groupmode="layer" inkscape:label="xray"/>
  <g inkscape:groupmode="layer" inkscape:label="hid"/>
  <g inkscape:groupmode="layer" inkscape:label="sym"/>
  <g class="bak kitchen_plan" inkscape:groupmode="layer" inkscape:label="bak">
    <g class="Scene_Collection KTC_107_Furniture HouseA back ktc_top_011 bak KTC_A107 kitchen_plan ktc_top_011_bak__kitchen_plan" id="ktc_top_011_bak__kitchen_plan">
      <path class="Scene_Collection KTC_107_Furniture HouseA back ktc_top_011 bak KTC_A107 kitchen_plan ktc_top_011_bak__kitchen_plan" d="M 146.04956,117.78273 117.59986,119.47406 117.65914,120.47231 146.10899,118.78097 Z "/>
      <path class="Scene_Collection KTC_107_Furniture HouseA back ktc_top_011 bak KTC_A107 kitchen_plan ktc_top_011_bak__kitchen_plan" d="M 174.62416,116.084 146.17439,117.77531 146.23375,118.77354 174.68344,117.08221 Z "/>
      <path class="Scene_Collection KTC_107_Furniture HouseA back ktc_top_011 bak KTC_A107 kitchen_plan ktc_top_011_bak__kitchen_plan" d="M 203.19869,114.38524 174.74899,116.07657 174.80827,117.07481 203.25804,115.38348 Z "/>
    </g>
  </g>
</svg>
<!--
{"subject": "ktc_top_011",
"original_name": "KTC_top.011",
"resolution": [325, 325],
"force": "False",
"outline": "False",
"hidden": "False",
"back": "True",
"symbol": "False",
"overlaps": [],
"render_pixels": [],}
-->