<?xml version="1.0" encoding="utf-8" ?>
<svg xmlns="http://www.w3.org/2000/svg" xmlns:ev="http://www.w3.org/2001/xml-events" xmlns:inkscape="http://www.inkscape.org/namespaces/inkscape" xmlns:sodipodi="http://sodipodi.sourceforge.net/DTD/sodipodi-0.dtd" xmlns:xlink="http://www.w3.org/1999/xlink" baseProfile="full" height="325.0mm" id="svg" version="1.1" viewBox="0 0 325.0 325.0" width="325.0mm">
  <defs/>
  <style type="text/css"><![CDATA[@import url(../prj.css);]]></style>
  <g inkscape:groupmode="layer" inkscape:label="prj"/>
  <g class="cut kitchen_plan" inkscape:groupmode="layer" inkscape:label="cut">
    <g class="Scene_Collection room_window_glass_009_cut__kitchen_plan HouseA cut kitchen_plan room_window_glass_009" id="room_window_glass_009_cut__kitchen_plan">
      <path class="Scene_Collection room_window_glass_009_cut__kitchen_plan HouseA cut kitchen_plan room_window_glass_009" d="M 302.85449,80.41478 325.00009,79.10011 325.00009,78.69942 302.83078,80.01547 Z  M 325.00009,77.69765 325.00009,77.29695 302.7478,78.61794 302.77158,79.01724 Z "/>
    </g>
  </g>
  <g inkscape:groupmode="layer" inkscape:label="xray"/>
  <g inkscape:groupmode="layer" inkscape:label="hid"/>
  <g inkscape:groupmode="layer" inkscape:label="sym"/>
  <g inkscape:groupmode="layer" inkscape:label="bak"/>
</svg>
<!--
{"subject": "room_window_glass_009",
"original_name": "ROOM_window_glass.009",
"resolution": [325, 325],
"force": "False",
"outline": "False",
"hidden": "False",
"back": "False",
"symbol": "False",
"overlaps": [("hallway_floor_001", "None"),("slaba_001", "None"),("room_window0_frame_001", "None"),],
"render_pixels": [(101385, 101397), (102018, 102030), (102656, 102664), (102698, 102699), (103331, 103344), (103965, 103977), (104606, 104610)],}
-->