<?xml version="1.0" encoding="utf-8" ?>
<svg xmlns="http://www.w3.org/2000/svg" xmlns:ev="http://www.w3.org/2001/xml-events" xmlns:inkscape="http://www.inkscape.org/namespaces/inkscape" xmlns:sodipodi="http://sodipodi.sourceforge.net/DTD/sodipodi-0.dtd" xmlns:xlink="http://www.w3.org/1999/xlink" baseProfile="full" height="325.0mm" id="svg" version="1.1" viewBox="0 0 325.0 325.0" width="325.0mm">
  <defs/>
  <style type="text/css"><![CDATA[@import url(../prj.css);]]></style>
  <g class="prj kitchen_plan" inkscape:groupmode="layer" inkscape:label="prj">
    <g class="room_doorstep_003 Scene_Collection FLOOR HouseA room_doorstep_003_prj__kitchen_plan prj kitchen_plan" id="room_doorstep_003_prj__kitchen_plan">
      <path class="room_doorstep_003 Scene_Collection FLOOR HouseA room_doorstep_003_prj__kitchen_plan prj kitchen_plan" d="M 325.0,95.6245 298.4931,97.20015 "/>
      <path class="room_doorstep_003 Scene_Collection FLOOR HouseA room_doorstep_003_prj__kitchen_plan prj kitchen_plan" d="M 298.07764,90.21217 297.88477,86.96787 "/>
      <path class="room_doorstep_003 Scene_Collection FLOOR HouseA room_doorstep_003_prj__kitchen_plan prj kitchen_plan" d="M 297.87741,86.84309 297.85959,86.54364 "/>
    </g>
  </g>
  <g inkscape:groupmode="layer" inkscape:label="cut"/>
  <g inkscape:groupmode="layer" inkscape:label="xray"/>
  <g inkscape:groupmode="layer" inkscape:label="hid"/>
  <g inkscape:groupmode="layer" inkscape:label="sym"/>
  <g inkscape:groupmode="layer" inkscape:label="bak"/>
</svg>
<!--
{"subject": "room_doorstep_003",
"original_name": "ROOM_doorstep.003",
"resolution": [325, 325],
"force": "False",
"outline": "False",
"hidden": "False",
"back": "False",
"symbol": "False",
"overlaps": [("wall", "None"),("slaba_001", "None"),("insect_screen_frame_027", "None"),],
"render_pixels": [(111137, 111149), (111770, 111799), (112403, 112449), (113046, 113099), (113696, 113749), (114346, 114399), (114996, 115049), (115646, 115699), (116296, 116349), (116946, 116999), (117596, 117649), (118246, 118299), (118896, 118949), (119546, 119599), (120196, 120249), (120846, 120899), (121497, 121549), (122147, 122199), (122797, 122849), (123447, 123499), (124097, 124149), (124747, 124795), (125397, 125428), (126047, 126061)],}
-->