<?xml version="1.0" encoding="utf-8" ?>
<svg xmlns="http://www.w3.org/2000/svg" xmlns:ev="http://www.w3.org/2001/xml-events" xmlns:inkscape="http://www.inkscape.org/namespaces/inkscape" xmlns:sodipodi="http://sodipodi.sourceforge.net/DTD/sodipodi-0.dtd" xmlns:xlink="http://www.w3.org/1999/xlink" baseProfile="full" height="325.0mm" id="svg" version="1.1" viewBox="0 0 325.0 325.0" width="325.0mm">
  <defs/>
  <style type="text/css"><![CDATA[@import url(../prj.css);]]></style>
  <g class="prj kitchen_plan" inkscape:groupmode="layer" inkscape:label="prj">
    <g class="Scene_Collection FLOOR HouseA threshold_003_prj__kitchen_plan threshold_003 prj kitchen_plan" id="threshold_003_prj__kitchen_plan">
      <path class="Scene_Collection FLOOR HouseA threshold_003_prj__kitchen_plan threshold_003 prj kitchen_plan" d="M 325.0,81.84969 299.27307,83.37912 "/>
      <path class="Scene_Collection FLOOR HouseA threshold_003_prj__kitchen_plan threshold_003 prj kitchen_plan" d="M 299.3309,84.35243 299.34872,84.65195 "/>
    </g>
  </g>
  <g inkscape:groupmode="layer" inkscape:label="cut"/>
  <g inkscape:groupmode="layer" inkscape:label="xray"/>
  <g inkscape:groupmode="layer" inkscape:label="hid"/>
  <g inkscape:groupmode="layer" inkscape:label="sym"/>
  <g inkscape:groupmode="layer" inkscape:label="bak"/>
</svg>
<!--
{"subject": "threshold_003",
"original_name": "Threshold.003",
"resolution": [325, 325],
"force": "False",
"outline": "False",
"hidden": "False",
"back": "False",
"symbol": "False",
"overlaps": [("slaba_001", "None"),("insect_screen_frame_027", "None"),("insect_screen_003", "None"),("insect_screen_frame_036", "None"),],
"render_pixels": [(107237, 107249), (107870, 107899), (108503, 108549), (109149, 109199), (109799, 109849), (110449, 110499), (111099, 111136), (111749, 111769)],}
-->