<?xml version="1.0" encoding="utf-8" ?>
<svg xmlns="http://www.w3.org/2000/svg" xmlns:ev="http://www.w3.org/2001/xml-events" xmlns:inkscape="http://www.inkscape.org/namespaces/inkscape" xmlns:sodipodi="http://sodipodi.sourceforge.net/DTD/sodipodi-0.dtd" xmlns:xlink="http://www.w3.org/1999/xlink" baseProfile="full" height="325.0mm" id="svg" version="1.1" viewBox="0 0 325.0 325.0" width="325.0mm">
  <defs/>
  <style type="text/css"><![CDATA[@import url(../prj.css);]]></style>
  <g class="prj kitchen_plan" inkscape:groupmode="layer" inkscape:label="prj">
    <g class="threshold_001 Scene_Collection FLOOR HouseA threshold_001_prj__kitchen_plan prj kitchen_plan" id="threshold_001_prj__kitchen_plan">
      <path class="threshold_001 Scene_Collection FLOOR HouseA threshold_001_prj__kitchen_plan prj kitchen_plan" d="M 268.31732,87.98735 268.31671,87.97726 "/>
      <path class="threshold_001 Scene_Collection FLOOR HouseA threshold_001_prj__kitchen_plan prj kitchen_plan" d="M 268.31061,87.87444 268.09015,87.88753 "/>
      <path class="threshold_001 Scene_Collection FLOOR HouseA threshold_001_prj__kitchen_plan prj kitchen_plan" d="M 268.06101,87.88925 242.28288,89.42175 242.12558,86.7766 "/>
      <path class="threshold_001 Scene_Collection FLOOR HouseA threshold_001_prj__kitchen_plan prj kitchen_plan" d="M 241.87601,86.79143 204.44211,89.01681 "/>
      <path class="threshold_001 Scene_Collection FLOOR HouseA threshold_001_prj__kitchen_plan prj kitchen_plan" d="M 204.36331,91.90398 204.36455,91.92641 "/>
      <path class="threshold_001 Scene_Collection FLOOR HouseA threshold_001_prj__kitchen_plan prj kitchen_plan" d="M 203.63943,96.57774 204.13852,96.54806 204.63753,96.51842 242.57074,94.26329 243.56891,94.20396 243.43533,91.95781 268.46494,90.46983 268.71454,90.45499 "/>
    </g>
  </g>
  <g inkscape:groupmode="layer" inkscape:label="cut"/>
  <g inkscape:groupmode="layer" inkscape:label="xray"/>
  <g inkscape:groupmode="layer" inkscape:label="hid"/>
  <g inkscape:groupmode="layer" inkscape:label="sym"/>
  <g inkscape:groupmode="layer" inkscape:label="bak"/>
</svg>
<!--
{"subject": "threshold_001",
"original_name": "Threshold.001",
"resolution": [325, 325],
"force": "False",
"outline": "False",
"hidden": "False",
"back": "False",
"symbol": "False",
"overlaps": [("wall", "None"),("slaba_001", "None"),("door_frame_034", "None"),("skirting_board_016", "None"),("ktc_door_003", "None"),("wrd_glass_002", "None"),],
"render_pixels": [(113568, 113583), (114202, 114233), (114835, 114883), (114924, 114937), (115468, 115533), (115557, 115587), (116108, 116184), (116190, 116237), (116758, 116887), (117409, 117537), (118059, 118177), (118709, 118810), (119359, 119443), (120008, 120086), (120658, 120736), (121308, 121386), (121958, 122036), (122607, 122685), (123257, 123318), (123907, 123951), (124557, 124584), (125207, 125217)],}
-->