<?xml version="1.0" encoding="utf-8" ?>
<svg xmlns="http://www.w3.org/2000/svg" xmlns:ev="http://www.w3.org/2001/xml-events" xmlns:inkscape="http://www.inkscape.org/namespaces/inkscape" xmlns:sodipodi="http://sodipodi.sourceforge.net/DTD/sodipodi-0.dtd" xmlns:xlink="http://www.w3.org/1999/xlink" baseProfile="full" height="325.0mm" id="svg" version="1.1" viewBox="0 0 325.0 325.0" width="325.0mm">
  <defs/>
  <style type="text/css"><![CDATA[@import url(../prj.css);]]></style>
  <g class="prj kitchen_plan" inkscape:groupmode="layer" inkscape:label="prj">
    <g class="Scene_Collection HouseA KTC_A107_Doors_window window_counterframe_prj__kitchen_plan window_counterframe KTC_A107 prj kitchen_plan" id="window_counterframe_prj__kitchen_plan">
      <path class="Scene_Collection HouseA KTC_A107_Doors_window window_counterframe_prj__kitchen_plan window_counterframe KTC_A107 prj kitchen_plan" d="M 246.96017,291.95117 247.2034,296.04395 "/>
      <path class="Scene_Collection HouseA KTC_A107_Doors_window window_counterframe_prj__kitchen_plan window_counterframe KTC_A107 prj kitchen_plan" d="M 246.80418,296.06769 246.8279,296.46698 121.59899,303.91177 "/>
      <path class="Scene_Collection HouseA KTC_A107_Doors_window window_counterframe_prj__kitchen_plan window_counterframe KTC_A107 prj kitchen_plan" d="M 120.08415,299.4939 121.33198,299.41971 "/>
      <path class="Scene_Collection HouseA KTC_A107_Doors_window window_counterframe_prj__kitchen_plan window_counterframe KTC_A107 prj kitchen_plan" d="M 120.67993,294.34946 121.02932,294.32871 246.25822,286.88391 246.28201,287.2832 246.5164,291.22623 246.56081,291.97492 246.96017,291.95117 "/>
    </g>
  </g>
  <g class="cut kitchen_plan" inkscape:groupmode="layer" inkscape:label="cut">
    <g class="Scene_Collection HouseA cut window_counterframe_cut__kitchen_plan KTC_A107_Doors_window window_counterframe KTC_A107 kitchen_plan" id="window_counterframe_cut__kitchen_plan">
      <path class="Scene_Collection HouseA cut window_counterframe_cut__kitchen_plan KTC_A107_Doors_window window_counterframe KTC_A107 kitchen_plan" d="M 118.03154,303.72318 118.05533,304.12244 121.24969,303.93253 121.59899,303.91177 121.5752,303.51245 120.32745,303.58667 120.08415,299.4939 121.33198,299.41971 121.28742,298.67102 120.93812,298.69177 120.70364,294.74875 120.67993,294.34946 117.48557,294.53937 117.74375,298.88171 117.78823,299.63037 Z  M 117.74375,298.88171 118.05533,304.12244 117.78823,299.63037  M 120.93812,298.69177 120.67993,294.34946  M 246.28201,287.28317 246.5164,291.22623 246.56081,291.97488 246.96017,291.95117 247.2034,296.04395 246.80418,296.06769 246.8279,296.46698 250.37164,296.25629 250.34786,295.85699 250.10463,291.76422 250.06007,291.01556 249.8019,286.67319 246.25822,286.88391 246.28201,287.28317 246.56081,291.97488  M 250.06007,291.01556 250.34786,295.85699 "/>
    </g>
  </g>
  <g inkscape:groupmode="layer" inkscape:label="xray"/>
  <g inkscape:groupmode="layer" inkscape:label="hid"/>
  <g inkscape:groupmode="layer" inkscape:label="sym"/>
  <g inkscape:groupmode="layer" inkscape:label="bak"/>
</svg>
<!--
{"subject": "window_counterframe",
"original_name": "Window_counterframe",
"resolution": [325, 325],
"force": "False",
"outline": "False",
"hidden": "False",
"back": "False",
"symbol": "False",
"overlaps": [("slaba_001", "None"),("window_drain_box_001", "None"),("window_frame_026", "None"),("window_frame_007", "None"),("window_glass_018", "None"),("room_window_glass_067", "None"),("insect_screen_frame_042", "None"),],
"render_pixels": [(372947, 372949), (373580, 373599), (374213, 374249), (374847, 374899), (375480, 375549), (376113, 376199), (376746, 376849), (377379, 377499), (378012, 378149), (378646, 378799), (379279, 379449), (379912, 380099), (380545, 380749), (381178, 381399), (381812, 382049), (382445, 382699), (383085, 383349), (383735, 383999), (384385, 384649), (385035, 385299), (385685, 385933), (386335, 386566), (386985, 387199), (387635, 387833), (388285, 388466), (388936, 389099), (389586, 389732), (390236, 390365), (390886, 390999), (391536, 391632), (392186, 392265), (392836, 392898), (393486, 393531), (394136, 394164), (394786, 394798)],}
-->