<?xml version="1.0" encoding="utf-8" ?>
<svg xmlns="http://www.w3.org/2000/svg" xmlns:ev="http://www.w3.org/2001/xml-events" xmlns:inkscape="http://www.inkscape.org/namespaces/inkscape" xmlns:sodipodi="http://sodipodi.sourceforge.net/DTD/sodipodi-0.dtd" xmlns:xlink="http://www.w3.org/1999/xlink" baseProfile="full" height="325.0mm" id="svg" version="1.1" viewBox="0 0 325.0 325.0" width="325.0mm">
  <defs/>
  <style type="text/css"><![CDATA[@import url(../prj.css);]]></style>
  <g inkscape:groupmode="layer" inkscape:label="prj"/>
  <g class="cut kitchen_plan" inkscape:groupmode="layer" inkscape:label="cut">
    <g class="Scene_Collection HouseA cut KTC_A107_Doors_window wrd_glass_002 KTC_A107 wrd_glass_002_cut__kitchen_plan kitchen_plan" id="wrd_glass_002_cut__kitchen_plan">
      <path class="Scene_Collection HouseA cut KTC_A107_Doors_window wrd_glass_002 KTC_A107 wrd_glass_002_cut__kitchen_plan kitchen_plan" d="M 254.61618,90.04083 254.56465,90.04388 253.99226,90.07791 253.86743,90.08534 253.24352,90.12242 253.11868,90.12984 252.49477,90.16693 252.36993,90.17436 251.74609,90.21146 251.62126,90.21886 250.99734,90.25597 250.87251,90.26337 250.2486,90.30046 250.12384,90.30789 249.5,90.34499 249.37509,90.3524 248.75125,90.38948 248.62643,90.39691 248.00252,90.43399 247.87769,90.44141 247.25377,90.47852 247.12894,90.48593 246.50502,90.52303 246.38019,90.53043 245.75635,90.56752 245.63152,90.57494 245.0076,90.61203 244.88284,90.61946 244.25893,90.65654 244.13409,90.66397 243.51025,90.70105 243.38542,90.70848 242.7615,90.74556 242.63669,90.75299 242.01276,90.79009 241.88794,90.7975 241.26402,90.83459 241.13919,90.84199 240.51535,90.87909 240.39044,90.8865 239.7666,90.92361 239.64185,90.93103 239.01793,90.96811 238.8931,90.97554 238.26918,91.01262 238.14435,91.02003 237.52051,91.05714 237.39568,91.06456 236.77176,91.10165 236.64693,91.10907 236.02301,91.14616 235.89818,91.15356 235.27426,91.19066 235.14944,91.19809 234.5256,91.23518 234.40085,91.2426 233.77693,91.27968 233.6521,91.28711 233.02818,91.32419 232.90335,91.3316 232.27951,91.36871 232.1546,91.37613 231.53076,91.41322 231.40593,91.42062 230.78201,91.45772 230.65718,91.46513 230.03326,91.50224 229.90843,91.50966 229.28451,91.54674 229.15985,91.55417 228.53592,91.59125 228.4111,91.59869 227.78719,91.63576 227.66235,91.64319 227.03844,91.68028 226.9136,91.6877 226.28976,91.72479 226.16493,91.73219 225.54102,91.76929 225.41618,91.77672 224.79227,91.81381 224.66744,91.82123 224.04352,91.85831 223.91876,91.86574 223.29492,91.90282 223.17009,91.91023 222.54617,91.94734 222.42134,91.95476 222.41399,91.82999 222.52387,91.573 223.16266,91.78546 223.27261,91.52849 223.91133,91.74095 224.02136,91.48396 224.66008,91.69644 224.77004,91.43945 225.40883,91.65193 225.51877,91.39496 226.15749,91.60742 226.26752,91.35043 226.90616,91.56293 227.01627,91.30594 227.65491,91.51842 227.76486,91.26143 228.40366,91.47389 228.51361,91.21692 229.1524,91.42938 229.26236,91.17239 229.90108,91.38486 230.01103,91.1279 230.64983,91.34036 230.75978,91.08339 231.3985,91.29585 231.50853,91.03889 232.14716,91.25136 232.25726,90.99437 232.8959,91.20683 233.00586,90.94986 233.64465,91.16232 233.75461,90.90533 234.3934,91.11781 234.50336,90.86083 235.14215,91.07332 235.25211,90.81633 235.89082,91.02879 236.00078,90.77182 236.6395,90.98428 236.74953,90.72731 237.38825,90.93979 237.49828,90.6828 238.13692,90.89526 238.24686,90.63829 238.88567,90.85075 238.99561,90.59377 239.6344,90.80624 239.74435,90.54926 240.38315,90.76173 240.4931,90.50476 241.13182,90.71722 241.24185,90.46024 241.88049,90.67273 241.99052,90.41574 242.62924,90.62822 242.73927,90.37123 243.37799,90.58369 243.48795,90.32672 244.12666,90.53919 244.23662,90.2822 244.87541,90.49466 244.98537,90.2377 245.62416,90.45016 245.7341,90.19319 246.37291,90.40565 246.48285,90.1487 247.12149,90.36116 247.23152,90.10417 247.87024,90.31664 247.98027,90.05966 248.61899,90.27213 248.72894,90.01514 249.36766,90.22762 249.47769,89.97063 250.11641,90.18309 250.22636,89.92613 250.86516,90.1386 250.97511,89.88162 251.61391,90.09409 251.72386,89.83711 252.3625,90.04959 252.47261,89.7926 253.11124,90.00507 253.22119,89.74809 253.85998,89.96056 253.96994,89.70357 254.55605,89.89853 254.60873,89.91605 Z "/>
    </g>
  </g>
  <g inkscape:groupmode="layer" inkscape:label="xray"/>
  <g inkscape:groupmode="layer" inkscape:label="hid"/>
  <g inkscape:groupmode="layer" inkscape:label="sym"/>
  <g inkscape:groupmode="layer" inkscape:label="bak"/>
</svg>
<!--
{"subject": "wrd_glass_002",
"original_name": "WRD_glass.002",
"resolution": [325, 325],
"force": "False",
"outline": "False",
"hidden": "False",
"back": "False",
"symbol": "False",
"overlaps": [("threshold_001", "None"),("slaba_001", "None"),("ktc_door_003", "None"),],
"render_pixels": [(117491, 117491), (117493, 117494), (117496, 117501), (118123, 118123), (118126, 118126), (118128, 118134), (118758, 118758), (118760, 118768), (119395, 119401)],}
-->