<?xml version="1.0" encoding="utf-8" ?>
<svg xmlns="http://www.w3.org/2000/svg" xmlns:ev="http://www.w3.org/2001/xml-events" xmlns:inkscape="http://www.inkscape.org/namespaces/inkscape" xmlns:sodipodi="http://sodipodi.sourceforge.net/DTD/sodipodi-0.dtd" xmlns:xlink="http://www.w3.org/1999/xlink" baseProfile="full" height="325.0mm" id="svg" version="1.1" viewBox="0 0 325.0 325.0" width="325.0mm">
  <defs/>
  <style type="text/css"><![CDATA[@import url(../prj.css);]]></style>
  <g class="kitchen_cut prj" inkscape:groupmode="layer" inkscape:label="prj">
    <g class="Scene_Collection KTC_107_Furniture HouseA eames_daw_chair_seat_001 eames_daw_chair_seat_001_prj__kitchen_cut KTC_A107 kitchen_cut prj" id="eames_daw_chair_seat_001_prj__kitchen_cut">
      <path class="Scene_Collection KTC_107_Furniture HouseA eames_daw_chair_seat_001 eames_daw_chair_seat_001_prj__kitchen_cut KTC_A107 kitchen_cut prj" d="M 106.88463,201.55434 106.57174,201.55434 106.26354,201.55434 105.96239,201.55434 105.67065,201.55434 105.39068,201.55434 105.12476,201.55434 104.87534,201.55434 104.64344,201.55536 104.42524,201.56253 104.21558,201.58197 104.00932,201.61984 103.80135,201.68227 103.58653,201.77541 103.35975,201.90538 103.11586,202.07834 102.85134,202.29837 102.56914,202.5614 102.27378,202.86127 102.15986,202.98517 "/>
      <path class="Scene_Collection KTC_107_Furniture HouseA eames_daw_chair_seat_001 eames_daw_chair_seat_001_prj__kitchen_cut KTC_A107 kitchen_cut prj" d="M 98.13233,208.32369 97.93821,208.55638 97.50221,209.05322 97.04607,209.54858 96.57939,210.03113 96.11182,210.48944 95.65303,210.91217 95.21264,211.28793 94.80022,211.60533 94.42319,211.85645 94.07975,212.04701 93.76589,212.18622 93.47757,212.28326 93.21072,212.34729 92.96132,212.38754 92.7253,212.41315 92.49865,212.4333 92.27909,212.45804 92.07121,212.50067 91.88151,212.57536 91.71633,212.69629 91.58216,212.87759 91.48532,213.13345 91.43234,213.478 91.42954,213.92545 91.48083,214.48305 91.57986,215.13062 91.7178,215.84113 91.88575,216.58746 92.07488,217.34259 92.11684,217.51352 92.25974,218.26012 92.38087,218.95694 92.51116,219.58435 92.72817,220.13864 92.94049,220.59128 93.15352,220.96289 93.37269,221.26016 93.59879,221.49142 93.83253,221.66739 94.07892,221.80039 94.34715,221.90122 94.64691,221.97875 94.98027,222.03702 95.34557,222.07877 95.74058,222.10678 96.16319,222.12376 96.61116,222.13249 97.08231,222.13571 97.57449,222.13617 97.88137,222.1362 "/>
      <path class="Scene_Collection KTC_107_Furniture HouseA eames_daw_chair_seat_001 eames_daw_chair_seat_001_prj__kitchen_cut KTC_A107 kitchen_cut prj" d="M 99.86796,222.1362 100.27019,222.1362 100.83991,222.1362 101.41429,222.1362 101.99103,222.1362 102.5678,222.1362 103.14219,222.1362 103.71188,222.1362 104.27455,222.1362 104.82778,222.1362 105.36927,222.1362 105.89668,222.1362 106.40762,222.13617 106.9002,222.13571 107.37436,222.13249 107.83042,222.12376 108.26878,222.10678 108.41709,222.09689 "/>
      <path class="Scene_Collection KTC_107_Furniture HouseA eames_daw_chair_seat_001 eames_daw_chair_seat_001_prj__kitchen_cut KTC_A107 kitchen_cut prj" d="M 116.96696,211.16775 116.78014,210.91217 116.8991,211.07333 116.5873,210.61556 116.56701,210.58749 "/>
      <path class="Scene_Collection KTC_107_Furniture HouseA eames_daw_chair_seat_001 eames_daw_chair_seat_001_prj__kitchen_cut KTC_A107 kitchen_cut prj" d="M 111.87684,202.98517 111.87229,202.97815 111.66052,202.67837 111.45081,202.41522 111.24417,202.19531 111.13183,202.07834 110.93812,201.90538 110.74907,201.77541 110.56128,201.68227 110.37144,201.61984 110.17618,201.58197 109.97216,201.56253 109.75603,201.55536 109.52445,201.55434 109.27499,201.55434 109.0091,201.55434 108.7291,201.55434 108.43737,201.55434 108.13622,201.55434 107.82802,201.55434 107.51513,201.55434 107.19988,201.55434 106.88463,201.55434 "/>
      <path class="Scene_Collection KTC_107_Furniture HouseA eames_daw_chair_seat_001 eames_daw_chair_seat_001_prj__kitchen_cut KTC_A107 kitchen_cut prj" d="M 107.39456,220.92441 107.38937,220.92473 106.94323,220.94611 106.46809,220.96388 105.96675,220.97823 105.44308,220.98949 104.90101,220.99795 104.80996,220.99928 104.25272,221.00331 103.68533,221.00592 103.1114,221.00732 102.53452,221.00775 101.95826,221.00732 101.38602,221.00592 100.82114,221.00331 "/>
      <path class="Scene_Collection KTC_107_Furniture HouseA eames_daw_chair_seat_001 eames_daw_chair_seat_001_prj__kitchen_cut KTC_A107 kitchen_cut prj" d="M 100.87933,221.00359 100.36276,220.99795 99.88384,220.99039 "/>
      <path class="Scene_Collection KTC_107_Furniture HouseA eames_daw_chair_seat_001 eames_daw_chair_seat_001_prj__kitchen_cut KTC_A107 kitchen_cut prj" d="M 97.62447,220.90466 97.24412,220.86728 "/>
      <path class="Scene_Collection KTC_107_Furniture HouseA eames_daw_chair_seat_001 eames_daw_chair_seat_001_prj__kitchen_cut KTC_A107 kitchen_cut prj" d="M 97.05971,220.84076 97.24412,220.86728 "/>
      <path class="Scene_Collection KTC_107_Furniture HouseA eames_daw_chair_seat_001 eames_daw_chair_seat_001_prj__kitchen_cut KTC_A107 kitchen_cut prj" d="M 97.07703,220.84334 96.92378,220.81158 97.086,220.84453 "/>
      <path class="Scene_Collection KTC_107_Furniture HouseA eames_daw_chair_seat_001 eames_daw_chair_seat_001_prj__kitchen_cut KTC_A107 kitchen_cut prj" d="M 97.88732,220.92398 97.62447,220.90466 "/>
      <path class="Scene_Collection KTC_107_Furniture HouseA eames_daw_chair_seat_001 eames_daw_chair_seat_001_prj__kitchen_cut KTC_A107 kitchen_cut prj" d="M 100.62996,222.60669 100.72476,222.63062 100.91698,222.672 101.37942,222.7428 101.86969,222.78635 102.07027,222.79871 102.58656,222.81766 103.12282,222.82239 103.67498,222.81876 104.23869,222.81247 104.78563,222.80927 "/>
      <path class="Scene_Collection KTC_107_Furniture HouseA eames_daw_chair_seat_001 eames_daw_chair_seat_001_prj__kitchen_cut KTC_A107 kitchen_cut prj" d="M 104.60702,222.80832 105.24828,222.81172 "/>
      <path class="Scene_Collection KTC_107_Furniture HouseA eames_daw_chair_seat_001 eames_daw_chair_seat_001_prj__kitchen_cut KTC_A107 kitchen_cut prj" d="M 105.96255,222.81876 105.18404,222.8111 "/>
      <path class="Scene_Collection KTC_107_Furniture HouseA eames_daw_chair_seat_001 eames_daw_chair_seat_001_prj__kitchen_cut KTC_A107 kitchen_cut prj" d="M 110.6396,222.23804 110.07787,222.42873 "/>
      <path class="Scene_Collection KTC_107_Furniture HouseA eames_daw_chair_seat_001 eames_daw_chair_seat_001_prj__kitchen_cut KTC_A107 kitchen_cut prj" d="M 110.6396,222.23804 110.88285,222.1362 "/>
      <path class="Scene_Collection KTC_107_Furniture HouseA eames_daw_chair_seat_001 eames_daw_chair_seat_001_prj__kitchen_cut KTC_A107 kitchen_cut prj" d="M 110.07787,222.42873 109.67796,222.5363 109.47297,222.58298 109.02952,222.66858 108.82463,222.69276 108.34375,222.75363 108.11226,222.76941 "/>
      <path class="Scene_Collection KTC_107_Furniture HouseA eames_daw_chair_seat_001 eames_daw_chair_seat_001_prj__kitchen_cut KTC_A107 kitchen_cut prj" d="M 106.96661,222.81873 106.53307,222.82239 105.96255,222.81876 "/>
      <path class="Scene_Collection KTC_107_Furniture HouseA eames_daw_chair_seat_001 eames_daw_chair_seat_001_prj__kitchen_cut KTC_A107 kitchen_cut prj" d="M 116.8991,211.07333 116.82799,210.97761 "/>
      <path class="Scene_Collection KTC_107_Furniture HouseA eames_daw_chair_seat_001 eames_daw_chair_seat_001_prj__kitchen_cut KTC_A107 kitchen_cut prj" d="M 116.57488,210.63666 116.78014,210.91217 "/>
    </g>
  </g>
  <g inkscape:groupmode="layer" inkscape:label="cut"/>
  <g inkscape:groupmode="layer" inkscape:label="xray"/>
  <g inkscape:groupmode="layer" inkscape:label="hid"/>
  <g inkscape:groupmode="layer" inkscape:label="sym"/>
  <g inkscape:groupmode="layer" inkscape:label="bak"/>
</svg>
<!--
{"subject": "eames_daw_chair_seat_001",
"original_name": "Eames_Daw_chair_seat.001",
"resolution": [325, 325],
"force": "False",
"outline": "False",
"hidden": "False",
"back": "False",
"symbol": "False",
"overlaps": [("wall", "None"),("kitchen_base_001", "None"),("kitchen_base_doors_002", "None"),("table_003", "None"),("table_leg", "None"),("table_leg_001", "None"),("eames_daw_chair_seat_002", "None"),("eames_daw_chair_legs_001", "None"),],
"render_pixels": [(1048216, 1048241), (1049514, 1049543), (1050812, 1050844), (1052111, 1052145), (1053410, 1053445), (1054709, 1054746), (1056008, 1056047), (1057307, 1057348), (1058606, 1058648), (1059906, 1059949), (1061205, 1061249), (1062504, 1062550), (1063803, 1063850), (1065103, 1065151), (1066402, 1066452), (1067701, 1067752), (1069000, 1069053), (1070300, 1070353), (1071599, 1071654), (1072898, 1072954), (1074198, 1074255), (1075497, 1075556), (1076796, 1076856), (1078096, 1078157), (1079395, 1079457), (1080694, 1080758), (1081993, 1082058), (1083292, 1083359), (1084592, 1084660), (1085891, 1085960), (1087190, 1087261), (1088489, 1088562), (1089788, 1089862), (1091087, 1091163), (1092386, 1092464), (1093685, 1093765), (1094984, 1095065), (1096283, 1096366), (1097582, 1097667), (1098880, 1098967), (1100179, 1100268), (1101478, 1101569), (1102776, 1102869), (1104072, 1104169), (1105367, 1105469), (1106666, 1106767), (1107966, 1108066), (1109266, 1109365), (1110566, 1110664), (1111866, 1111963), (1113166, 1113262), (1114466, 1114562), (1115766, 1115861), (1117066, 1117161), (1118366, 1118461), (1119667, 1119761), (1120967, 1121060), (1122267, 1122360), (1123567, 1123660), (1124867, 1124960), (1126168, 1126260), (1127468, 1127560), (1128768, 1128860), (1130068, 1130159), (1131369, 1131459), (1132669, 1132759), (1133969, 1134059), (1135269, 1135358), (1136569, 1136658), (1137869, 1137958), (1139170, 1139257), (1140470, 1140557), (1141770, 1141856), (1143070, 1143156), (1144371, 1144455), (1145671, 1145754), (1146972, 1147053), (1148272, 1148352), (1149573, 1149651), (1150874, 1150949), (1152175, 1152247), (1153477, 1153545), (1154785, 1154843), (1156100, 1156140), (1157403, 1157436)],}
-->