<?xml version="1.0" encoding="utf-8" ?>
<svg xmlns="http://www.w3.org/2000/svg" xmlns:ev="http://www.w3.org/2001/xml-events" xmlns:inkscape="http://www.inkscape.org/namespaces/inkscape" xmlns:sodipodi="http://sodipodi.sourceforge.net/DTD/sodipodi-0.dtd" xmlns:xlink="http://www.w3.org/1999/xlink" baseProfile="full" height="325.0mm" id="svg" version="1.1" viewBox="0 0 325.0 325.0" width="325.0mm">
  <defs/>
  <style type="text/css"><![CDATA[@import url(../prj.css);]]></style>
  <g inkscape:groupmode="layer" inkscape:label="prj"/>
  <g class="kitchen_cut cut" inkscape:groupmode="layer" inkscape:label="cut">
    <g class="Scene_Collection FLOOR HouseA cut hallway_floor_001_cut__kitchen_cut kitchen_cut hallway_floor_001" id="hallway_floor_001_cut__kitchen_cut">
      <path class="Scene_Collection FLOOR HouseA cut hallway_floor_001_cut__kitchen_cut kitchen_cut hallway_floor_001" d="M 325.0,242.49991 325.0,244.99991 313.7568,244.99991 233.75551,244.99988 233.75551,242.49991 313.7568,242.49991 Z "/>
    </g>
  </g>
  <g inkscape:groupmode="layer" inkscape:label="xray"/>
  <g inkscape:groupmode="layer" inkscape:label="hid"/>
  <g inkscape:groupmode="layer" inkscape:label="sym"/>
  <g inkscape:groupmode="layer" inkscape:label="bak"/>
</svg>
<!--
{"subject": "hallway_floor_001",
"original_name": "Hallway_floor.001",
"resolution": [325, 325],
"force": "False",
"outline": "False",
"hidden": "False",
"back": "False",
"symbol": "False",
"overlaps": [("wall", "None"),],
"render_pixels": [(1261935, 1262299), (1263235, 1263599), (1264535, 1264899), (1265835, 1266199), (1267135, 1267499), (1268435, 1268799), (1269735, 1270099), (1271035, 1271399), (1272335, 1272699), (1273635, 1273999)],}
-->