<?xml version="1.0" encoding="utf-8" ?>
<svg xmlns="http://www.w3.org/2000/svg" xmlns:ev="http://www.w3.org/2001/xml-events" xmlns:inkscape="http://www.inkscape.org/namespaces/inkscape" xmlns:sodipodi="http://sodipodi.sourceforge.net/DTD/sodipodi-0.dtd" xmlns:xlink="http://www.w3.org/1999/xlink" baseProfile="full" height="325.0mm" id="svg" version="1.1" viewBox="0 0 325.0 325.0" width="325.0mm">
  <defs/>
  <style type="text/css"><![CDATA[@import url(../prj.css);]]></style>
  <g class="kitchen_cut prj" inkscape:groupmode="layer" inkscape:label="prj">
    <g class="Scene_Collection HouseA KTC_A107_Doors_window insect_screen_frame_042 insect_screen_frame_042_prj__kitchen_cut KTC_A107 kitchen_cut prj" id="insect_screen_frame_042_prj__kitchen_cut">
      <path class="Scene_Collection HouseA KTC_A107_Doors_window insect_screen_frame_042 insect_screen_frame_042_prj__kitchen_cut KTC_A107 kitchen_cut prj" d="M 21.39965,116.95001 21.40323,116.94998 "/>
      <path class="Scene_Collection HouseA KTC_A107_Doors_window insect_screen_frame_042 insect_screen_frame_042_prj__kitchen_cut KTC_A107 kitchen_cut prj" d="M 24.15284,120.49998 24.15284,241.50001 24.15284,242.50001 "/>
      <path class="Scene_Collection HouseA KTC_A107_Doors_window insect_screen_frame_042 insect_screen_frame_042_prj__kitchen_cut KTC_A107 kitchen_cut prj" d="M 21.40306,242.5 21.40306,241.50001 21.40184,120.50002 "/>
      <path class="Scene_Collection HouseA KTC_A107_Doors_window insect_screen_frame_042 insect_screen_frame_042_prj__kitchen_cut KTC_A107 kitchen_cut prj" d="M 21.40319,242.50001 21.40319,241.50001 21.40323,120.49998 "/>
      <path class="Scene_Collection HouseA KTC_A107_Doors_window insect_screen_frame_042 insect_screen_frame_042_prj__kitchen_cut KTC_A107 kitchen_cut prj" d="M 24.20267,242.5 24.20286,120.49998 "/>
      <path class="Scene_Collection HouseA KTC_A107_Doors_window insect_screen_frame_042 insect_screen_frame_042_prj__kitchen_cut KTC_A107 kitchen_cut prj" d="M 24.5556,120.49998 24.75324,120.49998 24.75323,242.50001 "/>
      <path class="Scene_Collection HouseA KTC_A107_Doors_window insect_screen_frame_042 insect_screen_frame_042_prj__kitchen_cut KTC_A107 kitchen_cut prj" d="M 24.02784,242.5 24.02784,241.79411 "/>
      <path class="Scene_Collection HouseA KTC_A107_Doors_window insect_screen_frame_042 insect_screen_frame_042_prj__kitchen_cut KTC_A107 kitchen_cut prj" d="M 24.20284,242.375 24.20284,120.625 "/>
      <path class="Scene_Collection HouseA KTC_A107_Doors_window insect_screen_frame_042 insect_screen_frame_042_prj__kitchen_cut KTC_A107 kitchen_cut prj" d="M 21.39963,242.50003 21.39963,241.50003 21.39965,120.50002 "/>
      <path class="Scene_Collection HouseA KTC_A107_Doors_window insect_screen_frame_042 insect_screen_frame_042_prj__kitchen_cut KTC_A107 kitchen_cut prj" d="M 21.82816,242.50001 21.82816,241.50006 "/>
      <path class="Scene_Collection HouseA KTC_A107_Doors_window insect_screen_frame_042 insect_screen_frame_042_prj__kitchen_cut KTC_A107 kitchen_cut prj" d="M 24.20284,242.50001 24.20286,120.49998 "/>
      <path class="Scene_Collection HouseA KTC_A107_Doors_window insect_screen_frame_042 insect_screen_frame_042_prj__kitchen_cut KTC_A107 kitchen_cut prj" d="M 24.20267,242.375 24.20269,120.625 "/>
    </g>
  </g>
  <g inkscape:groupmode="layer" inkscape:label="cut"/>
  <g inkscape:groupmode="layer" inkscape:label="xray"/>
  <g inkscape:groupmode="layer" inkscape:label="hid"/>
  <g inkscape:groupmode="layer" inkscape:label="sym"/>
  <g inkscape:groupmode="layer" inkscape:label="bak"/>
</svg>
<!--
{"subject": "insect_screen_frame_042",
"original_name": "Insect_screen_frame.042",
"resolution": [325, 325],
"force": "False",
"outline": "False",
"hidden": "False",
"back": "False",
"symbol": "False",
"overlaps": [("wall", "None"),("room_shutter_box_047", "None"),("window_counterframe", "None"),],
"render_pixels": [(608486, 608496), (609786, 609796), (611086, 611096), (612386, 612396), (613686, 613696), (614986, 614996), (616286, 616296), (617586, 617596), (618886, 618896), (620186, 620196), (621486, 621496), (622786, 622796), (624086, 624096), (625386, 625396), (626686, 626698), (627986, 627998), (629286, 629298), (630586, 630598), (631886, 631898), (633186, 633198), (634486, 634498), (635786, 635798), (637086, 637098), (638386, 638398), (639686, 639698), (640986, 640998), (642286, 642298), (643586, 643598), (644886, 644898), (646186, 646198), (647486, 647498), (648786, 648798), (650086, 650098), (651386, 651398), (652686, 652698), (653986, 653998), (655286, 655298), (656586, 656598), (657886, 657898), (659186, 659198), (660486, 660498), (661786, 661798), (663086, 663098), (664386, 664398), (665686, 665698), (666986, 666998), (668286, 668298), (669586, 669598), (670886, 670898), (672186, 672198), (673486, 673498), (674786, 674798), (676086, 676098), (677386, 677398), (678686, 678698), (679986, 679998), (681286, 681298), (682586, 682598), (683886, 683898), (685186, 685198), (686486, 686498), (687786, 687798), (689086, 689098), (690386, 690398), (691686, 691698), (692986, 692998), (694286, 694298), (695586, 695598), (696886, 696898), (698186, 698198), (699486, 699498), (700786, 700798), (702086, 702098), (703386, 703398), (704686, 704698), (705986, 705998), (707286, 707298), (708586, 708598), (709886, 709898), (711186, 711198), (712486, 712498), (713786, 713798), (715086, 715098), (716386, 716398), (717686, 717698), (718986, 718998), (720286, 720298), (721586, 721598), (722886, 722898), (724186, 724198), (725486, 725498), (726786, 726798), (728086, 728098), (729386, 729398), (730686, 730698), (731986, 731998), (733286, 733298), (734586, 734598), (735886, 735898), (737186, 737198), (738486, 738498), (739786, 739798), (741086, 741098), (742386, 742398), (743686, 743698), (744986, 744998), (746286, 746298), (747586, 747598), (748886, 748898), (750186, 750198), (751486, 751498), (752786, 752798), (754086, 754098), (755386, 755398), (756686, 756698), (757986, 757998), (759286, 759298), (760586, 760598), (761886, 761898), (763186, 763198), (764486, 764498), (765786, 765798), (767086, 767098), (768386, 768398), (769686, 769698), (770986, 770998), (772286, 772298), (773586, 773598), (774886, 774898), (776186, 776198), (777486, 777498), (778786, 778798), (780086, 780098), (781386, 781398), (782686, 782698), (783986, 783998), (785286, 785298), (786586, 786598), (787886, 787898), (789186, 789198), (790486, 790498), (791786, 791798), (793086, 793098), (794386, 794398), (795686, 795698), (796986, 796998), (798286, 798298), (799586, 799598), (800886, 800898), (802186, 802198), (803486, 803498), (804786, 804798), (806086, 806098), (807386, 807398), (808686, 808698), (809986, 809998), (811286, 811298), (812586, 812598), (813886, 813898), (815186, 815198), (816486, 816498), (817786, 817798), (819086, 819098), (820386, 820398), (821686, 821698), (822986, 822998), (824286, 824298), (825586, 825598), (826886, 826898), (828186, 828198), (829486, 829498), (830786, 830798), (832086, 832098), (833386, 833398), (834686, 834698), (835986, 835998), (837286, 837298), (838586, 838598), (839886, 839898), (841186, 841198), (842486, 842498), (843786, 843798), (845086, 845098), (846386, 846398), (847686, 847698), (848986, 848998), (850286, 850298), (851586, 851598), (852886, 852898), (854186, 854198), (855486, 855498), (856786, 856798), (858086, 858098), (859386, 859398), (860686, 860698), (861986, 861998), (863286, 863298), (864586, 864598), (865886, 865898), (867186, 867198), (868486, 868498), (869786, 869798), (871086, 871098), (872386, 872398), (873686, 873698), (874986, 874998), (876286, 876298), (877586, 877598), (878886, 878898), (880186, 880198), (881486, 881498), (882786, 882798), (884086, 884098), (885386, 885398), (886686, 886698), (887986, 887998), (889286, 889298), (890586, 890598), (891886, 891898), (893186, 893198), (894486, 894498), (895786, 895798), (897086, 897098), (898386, 898398), (899686, 899698), (900986, 900998), (902286, 902298), (903586, 903598), (904886, 904898), (906186, 906198), (907486, 907498), (908786, 908798), (910086, 910098), (911386, 911398), (912686, 912698), (913986, 913998), (915286, 915298), (916586, 916598), (917886, 917898), (919186, 919198), (920486, 920498), (921786, 921798), (923086, 923098), (924386, 924398), (925686, 925698), (926986, 926998), (928286, 928298), (929586, 929598), (930886, 930898), (932186, 932198), (933486, 933498), (934786, 934798), (936086, 936098), (937386, 937398), (938686, 938698), (939986, 939998), (941286, 941298), (942586, 942598), (943886, 943898), (945186, 945198), (946486, 946498), (947786, 947798), (949086, 949098), (950386, 950398), (951686, 951698), (952986, 952998), (954286, 954298), (955586, 955598), (956886, 956898), (958186, 958198), (959486, 959498), (960786, 960798), (962086, 962098), (963386, 963398), (964686, 964698), (965986, 965998), (967286, 967298), (968586, 968598), (969886, 969898), (971186, 971198), (972486, 972498), (973786, 973798), (975086, 975098), (976386, 976398), (977686, 977698), (978986, 978998), (980286, 980298), (981586, 981598), (982886, 982898), (984186, 984198), (985486, 985498), (986786, 986798), (988086, 988098), (989386, 989398), (990686, 990698), (991986, 991998), (993286, 993298), (994586, 994598), (995886, 995898), (997186, 997198), (998486, 998498), (999786, 999798), (1001086, 1001098), (1002386, 1002398), (1003686, 1003698), (1004986, 1004998), (1006286, 1006298), (1007586, 1007598), (1008886, 1008898), (1010186, 1010198), (1011486, 1011498), (1012786, 1012798), (1014086, 1014098), (1015386, 1015398), (1016686, 1016698), (1017986, 1017998), (1019286, 1019298), (1020586, 1020598), (1021886, 1021898), (1023186, 1023198), (1024486, 1024498), (1025786, 1025798), (1027086, 1027098), (1028386, 1028398), (1029686, 1029698), (1030986, 1030998), (1032286, 1032298), (1033586, 1033598), (1034886, 1034898), (1036186, 1036198), (1037486, 1037498), (1038786, 1038798), (1040086, 1040098), (1041386, 1041398), (1042686, 1042698), (1043986, 1043998), (1045286, 1045298), (1046586, 1046598), (1047886, 1047898), (1049186, 1049198), (1050486, 1050498), (1051786, 1051798), (1053086, 1053098), (1054386, 1054398), (1055686, 1055698), (1056986, 1056998), (1058286, 1058298), (1059586, 1059598), (1060886, 1060898), (1062186, 1062198), (1063486, 1063498), (1064786, 1064798), (1066086, 1066098), (1067386, 1067398), (1068686, 1068698), (1069986, 1069998), (1071286, 1071298), (1072586, 1072598), (1073886, 1073898), (1075186, 1075198), (1076486, 1076498), (1077786, 1077798), (1079086, 1079098), (1080386, 1080398), (1081686, 1081698), (1082986, 1082998), (1084286, 1084298), (1085586, 1085598), (1086886, 1086898), (1088186, 1088198), (1089486, 1089498), (1090786, 1090798), (1092086, 1092098), (1093386, 1093398), (1094686, 1094698), (1095986, 1095998), (1097286, 1097298), (1098586, 1098598), (1099886, 1099898), (1101186, 1101198), (1102486, 1102498), (1103786, 1103798), (1105086, 1105098), (1106386, 1106398), (1107686, 1107698), (1108986, 1108998), (1110286, 1110298), (1111586, 1111598), (1112886, 1112898), (1114186, 1114198), (1115486, 1115498), (1116786, 1116798), (1118086, 1118098), (1119386, 1119398), (1120686, 1120698), (1121986, 1121998), (1123286, 1123298), (1124586, 1124598), (1125886, 1125898), (1127186, 1127198), (1128486, 1128498), (1129786, 1129798), (1131086, 1131098), (1132386, 1132398), (1133686, 1133698), (1134986, 1134998), (1136286, 1136298), (1137586, 1137598), (1138886, 1138898), (1140186, 1140198), (1141486, 1141498), (1142786, 1142798), (1144086, 1144098), (1145386, 1145398), (1146686, 1146698), (1147986, 1147998), (1149286, 1149298), (1150586, 1150598), (1151886, 1151898), (1153186, 1153198), (1154486, 1154498), (1155786, 1155798), (1157086, 1157098), (1158386, 1158398), (1159686, 1159698), (1160986, 1160998), (1162286, 1162298), (1163586, 1163598), (1164886, 1164898), (1166186, 1166198), (1167486, 1167498), (1168786, 1168798), (1170086, 1170098), (1171386, 1171398), (1172686, 1172698), (1173986, 1173998), (1175286, 1175298), (1176586, 1176598), (1177886, 1177898), (1179186, 1179198), (1180486, 1180498), (1181786, 1181798), (1183086, 1183098), (1184386, 1184398), (1185686, 1185698), (1186986, 1186998), (1188286, 1188298), (1189586, 1189598), (1190886, 1190898), (1192186, 1192198), (1193486, 1193498), (1194786, 1194798), (1196086, 1196098), (1197386, 1197398), (1198686, 1198698), (1199986, 1199998), (1201286, 1201298), (1202586, 1202598), (1203886, 1203898), (1205186, 1205198), (1206486, 1206498), (1207786, 1207798), (1209086, 1209098), (1210386, 1210398), (1211686, 1211698), (1212986, 1212998), (1214286, 1214298), (1215586, 1215598), (1216886, 1216898), (1218186, 1218198), (1219486, 1219498), (1220786, 1220798), (1222086, 1222098), (1223386, 1223398), (1224686, 1224698), (1225986, 1225998), (1227286, 1227298), (1228586, 1228598), (1229886, 1229898), (1231186, 1231198), (1232486, 1232498), (1233786, 1233798), (1235086, 1235098), (1236386, 1236398), (1237686, 1237698), (1238986, 1238998), (1240286, 1240298), (1241586, 1241598), (1242886, 1242898), (1244186, 1244198), (1245486, 1245498), (1246786, 1246798), (1248086, 1248098), (1249386, 1249398), (1250686, 1250698), (1251986, 1251998), (1253286, 1253298), (1254586, 1254598), (1255886, 1255898), (1257186, 1257198), (1258486, 1258498), (1259786, 1259798)],}
-->