<?xml version="1.0" encoding="utf-8" ?>
<svg xmlns="http://www.w3.org/2000/svg" xmlns:ev="http://www.w3.org/2001/xml-events" xmlns:inkscape="http://www.inkscape.org/namespaces/inkscape" xmlns:sodipodi="http://sodipodi.sourceforge.net/DTD/sodipodi-0.dtd" xmlns:xlink="http://www.w3.org/1999/xlink" baseProfile="full" height="325.0mm" id="svg" version="1.1" viewBox="0 0 325.0 325.0" width="325.0mm">
  <defs/>
  <style type="text/css"><![CDATA[@import url(../prj.css);]]></style>
  <g class="kitchen_cut prj" inkscape:groupmode="layer" inkscape:label="prj">
    <g class="Scene_Collection KTC_107_Furniture HouseA ktc_top_012_prj__kitchen_cut ktc_top_012 KTC_A107 kitchen_cut prj" id="ktc_top_012_prj__kitchen_cut">
      <path class="Scene_Collection KTC_107_Furniture HouseA ktc_top_012_prj__kitchen_cut ktc_top_012 KTC_A107 kitchen_cut prj" d="M 208.49973,175.5 208.5049,175.5 208.50491,137.99999 208.49974,138.0 208.5049,138.0 "/>
      <path class="Scene_Collection KTC_107_Furniture HouseA ktc_top_012_prj__kitchen_cut ktc_top_012 KTC_A107 kitchen_cut prj" d="M 226.00501,166.43916 226.00501,136.75 208.50497,136.74997 208.49966,136.75 208.49965,176.75 208.50497,176.75 226.00325,176.75 "/>
      <path class="Scene_Collection KTC_107_Furniture HouseA ktc_top_012_prj__kitchen_cut ktc_top_012 KTC_A107 kitchen_cut prj" d="M 208.50497,136.74997 208.50497,176.75 "/>
      <path class="Scene_Collection KTC_107_Furniture HouseA ktc_top_012_prj__kitchen_cut ktc_top_012 KTC_A107 kitchen_cut prj" d="M 208.49974,138.0 208.49973,175.5 "/>
    </g>
  </g>
  <g inkscape:groupmode="layer" inkscape:label="cut"/>
  <g inkscape:groupmode="layer" inkscape:label="xray"/>
  <g inkscape:groupmode="layer" inkscape:label="hid"/>
  <g inkscape:groupmode="layer" inkscape:label="sym"/>
  <g inkscape:groupmode="layer" inkscape:label="bak"/>
</svg>
<!--
{"subject": "ktc_top_012",
"original_name": "KTC_top.012",
"resolution": [325, 325],
"force": "False",
"outline": "False",
"hidden": "False",
"back": "False",
"symbol": "False",
"overlaps": [("wall", "None"),("wall_cover", "None"),],
"render_pixels": [(711934, 712003), (713234, 713303), (714534, 714603), (715834, 715903), (717134, 717203), (718434, 718503), (719734, 719803), (721034, 721103), (722334, 722403), (723634, 723703), (724934, 725003), (726234, 726303), (727534, 727603), (728834, 728903), (730134, 730203), (731434, 731503), (732734, 732803), (734034, 734103), (735334, 735403), (736634, 736703), (737934, 738003), (739234, 739303), (740534, 740603), (741834, 741903), (743134, 743203), (744434, 744503), (745734, 745803), (747034, 747103), (748334, 748403), (749634, 749703), (750934, 751003), (752234, 752303), (753534, 753603), (754834, 754903), (756134, 756203), (757434, 757503), (758734, 758803), (760034, 760103), (761334, 761403), (762634, 762703), (763934, 764003), (765234, 765303), (766534, 766603), (767834, 767903), (769134, 769203), (770434, 770503), (771734, 771803), (773034, 773103), (774334, 774403), (775634, 775703), (776934, 777003), (778234, 778303), (779534, 779603), (780834, 780903), (782134, 782203), (783434, 783503), (784734, 784803), (786034, 786103), (787334, 787403), (788634, 788703), (789934, 790003), (791234, 791303), (792534, 792603), (793834, 793903), (795134, 795203), (796434, 796503), (797734, 797803), (799034, 799103), (800334, 800403), (801634, 801703), (802934, 803003), (804234, 804303), (805534, 805603), (806834, 806903), (808134, 808203), (809434, 809503), (810734, 810803), (812034, 812103), (813334, 813403), (814634, 814703), (815934, 816003), (817234, 817303), (818534, 818603), (819834, 819903), (821134, 821203), (822434, 822503), (823734, 823803), (825034, 825103), (826334, 826403), (827634, 827703), (828934, 829003), (830234, 830303), (831534, 831603), (832834, 832903), (834134, 834203), (835434, 835503), (836734, 836803), (838034, 838103), (839334, 839403), (840634, 840703), (841934, 842003), (843234, 843303), (844534, 844603), (845834, 845903), (847134, 847203), (848434, 848503), (849734, 849803), (851034, 851103), (852334, 852403), (853634, 853703), (854934, 855003), (856234, 856303), (857534, 857603), (858834, 858903), (860134, 860203), (861434, 861503), (862734, 862803), (864034, 864103), (865334, 865403), (866634, 866703), (867934, 868003), (869234, 869303), (870534, 870603), (871834, 871903), (873134, 873203), (874434, 874503), (875734, 875803), (877034, 877103), (878334, 878403), (879634, 879703), (880934, 881003), (882234, 882303), (883534, 883603), (884834, 884903), (886134, 886203), (887434, 887503), (888734, 888803), (890034, 890103), (891334, 891403), (892634, 892703), (893934, 894003), (895234, 895303), (896534, 896603), (897834, 897903), (899134, 899203), (900434, 900503), (901734, 901803), (903034, 903103), (904334, 904403), (905634, 905703), (906934, 907003), (908234, 908303), (909534, 909603), (910834, 910903), (912134, 912203), (913434, 913503), (914734, 914803), (916034, 916103), (917334, 917403), (918634, 918703)],}
-->