<?xml version="1.0" encoding="utf-8" ?>
<svg xmlns="http://www.w3.org/2000/svg" xmlns:ev="http://www.w3.org/2001/xml-events" xmlns:inkscape="http://www.inkscape.org/namespaces/inkscape" xmlns:sodipodi="http://sodipodi.sourceforge.net/DTD/sodipodi-0.dtd" xmlns:xlink="http://www.w3.org/1999/xlink" baseProfile="full" height="325.0mm" id="svg" version="1.1" viewBox="0 0 325.0 325.0" width="325.0mm">
  <defs/>
  <style type="text/css"><![CDATA[@import url(../prj.css);]]></style>
  <g class="kitchen_cut prj" inkscape:groupmode="layer" inkscape:label="prj">
    <g class="quadro_mixer_ktc_367 Scene_Collection KTC_107_Furniture HouseA quadro_mixer_ktc_367_prj__kitchen_cut KTC_A107 kitchen_cut prj" id="quadro_mixer_ktc_367_prj__kitchen_cut">
      <path class="quadro_mixer_ktc_367 Scene_Collection KTC_107_Furniture HouseA quadro_mixer_ktc_367_prj__kitchen_cut KTC_A107 kitchen_cut prj" d="M 221.22475,189.0734 221.12047,189.0734 "/>
      <path class="quadro_mixer_ktc_367 Scene_Collection KTC_107_Furniture HouseA quadro_mixer_ktc_367_prj__kitchen_cut KTC_A107 kitchen_cut prj" d="M 221.13734,189.0734 221.07576,189.0734 "/>
      <path class="quadro_mixer_ktc_367 Scene_Collection KTC_107_Furniture HouseA quadro_mixer_ktc_367_prj__kitchen_cut KTC_A107 kitchen_cut prj" d="M 221.02455,189.0734 220.99493,189.0734 220.96411,189.0734 220.95279,189.0734 220.93072,189.07336 220.91704,189.07324 220.90938,189.07291 220.90547,189.07228 220.90328,189.07115 220.90216,189.06908 220.90175,189.06557 220.90169,189.06006 220.90169,189.05234 220.90169,189.04338 220.90169,189.03441 220.90169,189.0267 220.90172,189.02121 220.90189,189.01769 220.90335,189.01448 220.905,189.01386 220.9077,189.01352 220.91193,189.0134 220.91805,189.01338 220.93007,189.01338 220.93817,189.01338 "/>
      <path class="quadro_mixer_ktc_367 Scene_Collection KTC_107_Furniture HouseA quadro_mixer_ktc_367_prj__kitchen_cut KTC_A107 kitchen_cut prj" d="M 220.94539,189.01338 220.95688,189.01338 220.99016,189.01338 221.02753,189.01338 "/>
      <path class="quadro_mixer_ktc_367 Scene_Collection KTC_107_Furniture HouseA quadro_mixer_ktc_367_prj__kitchen_cut KTC_A107 kitchen_cut prj" d="M 221.04353,189.01338 221.11525,189.01338 221.1878,189.01338 "/>
      <path class="quadro_mixer_ktc_367 Scene_Collection KTC_107_Furniture HouseA quadro_mixer_ktc_367_prj__kitchen_cut KTC_A107 kitchen_cut prj" d="M 221.19266,189.01338 221.20319,189.01338 221.30362,189.01338 221.40849,189.01338 "/>
      <path class="quadro_mixer_ktc_367 Scene_Collection KTC_107_Furniture HouseA quadro_mixer_ktc_367_prj__kitchen_cut KTC_A107 kitchen_cut prj" d="M 221.41234,189.01338 221.52524,189.01338 221.63814,189.01338 221.64064,189.01338 "/>
      <path class="quadro_mixer_ktc_367 Scene_Collection KTC_107_Furniture HouseA quadro_mixer_ktc_367_prj__kitchen_cut KTC_A107 kitchen_cut prj" d="M 221.64911,189.01338 221.75053,189.01338 221.70046,189.01338 "/>
      <path class="quadro_mixer_ktc_367 Scene_Collection KTC_107_Furniture HouseA quadro_mixer_ktc_367_prj__kitchen_cut KTC_A107 kitchen_cut prj" d="M 221.35382,189.01338 221.29996,189.01338 221.24448,189.01338 "/>
      <path class="quadro_mixer_ktc_367 Scene_Collection KTC_107_Furniture HouseA quadro_mixer_ktc_367_prj__kitchen_cut KTC_A107 kitchen_cut prj" d="M 221.00426,189.01338 220.98131,189.01338 220.97255,189.01338 "/>
      <path class="quadro_mixer_ktc_367 Scene_Collection KTC_107_Furniture HouseA quadro_mixer_ktc_367_prj__kitchen_cut KTC_A107 kitchen_cut prj" d="M 220.93817,189.01338 220.97253,189.01338 "/>
      <path class="quadro_mixer_ktc_367 Scene_Collection KTC_107_Furniture HouseA quadro_mixer_ktc_367_prj__kitchen_cut KTC_A107 kitchen_cut prj" d="M 220.96492,189.01338 221.02081,189.01338 "/>
      <path class="quadro_mixer_ktc_367 Scene_Collection KTC_107_Furniture HouseA quadro_mixer_ktc_367_prj__kitchen_cut KTC_A107 kitchen_cut prj" d="M 220.97255,189.01338 221.02766,189.01338 221.09592,189.01338 "/>
      <path class="quadro_mixer_ktc_367 Scene_Collection KTC_107_Furniture HouseA quadro_mixer_ktc_367_prj__kitchen_cut KTC_A107 kitchen_cut prj" d="M 221.09592,189.01338 221.188,189.01338 221.19258,189.01338 221.29629,189.01338 "/>
      <path class="quadro_mixer_ktc_367 Scene_Collection KTC_107_Furniture HouseA quadro_mixer_ktc_367_prj__kitchen_cut KTC_A107 kitchen_cut prj" d="M 221.29315,189.01338 221.40701,189.01338 "/>
      <path class="quadro_mixer_ktc_367 Scene_Collection KTC_107_Furniture HouseA quadro_mixer_ktc_367_prj__kitchen_cut KTC_A107 kitchen_cut prj" d="M 221.29631,189.01338 221.40863,189.01338 221.52524,189.01338 221.40863,189.01338 "/>
      <path class="quadro_mixer_ktc_367 Scene_Collection KTC_107_Furniture HouseA quadro_mixer_ktc_367_prj__kitchen_cut KTC_A107 kitchen_cut prj" d="M 221.75053,189.01338 221.8526,189.01338 "/>
      <path class="quadro_mixer_ktc_367 Scene_Collection KTC_107_Furniture HouseA quadro_mixer_ktc_367_prj__kitchen_cut KTC_A107 kitchen_cut prj" d="M 222.05766,189.01338 222.06914,189.01338 222.10295,189.01338 "/>
      <path class="quadro_mixer_ktc_367 Scene_Collection KTC_107_Furniture HouseA quadro_mixer_ktc_367_prj__kitchen_cut KTC_A107 kitchen_cut prj" d="M 222.10753,189.01338 222.11227,189.01338 222.12035,189.01338 222.13238,189.01338 "/>
      <path class="quadro_mixer_ktc_367 Scene_Collection KTC_107_Furniture HouseA quadro_mixer_ktc_367_prj__kitchen_cut KTC_A107 kitchen_cut prj" d="M 222.11775,189.01338 222.11459,189.01338 222.10503,189.01338 222.0963,189.01338 "/>
      <path class="quadro_mixer_ktc_367 Scene_Collection KTC_107_Furniture HouseA quadro_mixer_ktc_367_prj__kitchen_cut KTC_A107 kitchen_cut prj" d="M 222.10503,189.01338 222.09357,189.01338 222.06921,189.01338 "/>
      <path class="quadro_mixer_ktc_367 Scene_Collection KTC_107_Furniture HouseA quadro_mixer_ktc_367_prj__kitchen_cut KTC_A107 kitchen_cut prj" d="M 222.06029,189.01338 222.05484,189.01338 "/>
      <path class="quadro_mixer_ktc_367 Scene_Collection KTC_107_Furniture HouseA quadro_mixer_ktc_367_prj__kitchen_cut KTC_A107 kitchen_cut prj" d="M 222.0163,189.01338 222.00693,189.01338 222.01714,189.01338 "/>
      <path class="quadro_mixer_ktc_367 Scene_Collection KTC_107_Furniture HouseA quadro_mixer_ktc_367_prj__kitchen_cut KTC_A107 kitchen_cut prj" d="M 222.04831,189.01338 222.06914,189.01338 "/>
      <path class="quadro_mixer_ktc_367 Scene_Collection KTC_107_Furniture HouseA quadro_mixer_ktc_367_prj__kitchen_cut KTC_A107 kitchen_cut prj" d="M 221.26036,189.01338 221.24759,189.01338 "/>
      <path class="quadro_mixer_ktc_367 Scene_Collection KTC_107_Furniture HouseA quadro_mixer_ktc_367_prj__kitchen_cut KTC_A107 kitchen_cut prj" d="M 220.97702,189.01338 220.97253,189.01338 "/>
      <path class="quadro_mixer_ktc_367 Scene_Collection KTC_107_Furniture HouseA quadro_mixer_ktc_367_prj__kitchen_cut KTC_A107 kitchen_cut prj" d="M 220.9614,189.01338 220.96509,189.01338 "/>
      <path class="quadro_mixer_ktc_367 Scene_Collection KTC_107_Furniture HouseA quadro_mixer_ktc_367_prj__kitchen_cut KTC_A107 kitchen_cut prj" d="M 221.63814,189.01338 221.64059,189.01338 "/>
      <path class="quadro_mixer_ktc_367 Scene_Collection KTC_107_Furniture HouseA quadro_mixer_ktc_367_prj__kitchen_cut KTC_A107 kitchen_cut prj" d="M 221.64951,189.01338 221.74687,189.01338 221.85248,189.01338 "/>
      <path class="quadro_mixer_ktc_367 Scene_Collection KTC_107_Furniture HouseA quadro_mixer_ktc_367_prj__kitchen_cut KTC_A107 kitchen_cut prj" d="M 221.7506,189.01338 221.84727,189.01338 221.93523,189.01338 222.00693,189.01338 "/>
      <path class="quadro_mixer_ktc_367 Scene_Collection KTC_107_Furniture HouseA quadro_mixer_ktc_367_prj__kitchen_cut KTC_A107 kitchen_cut prj" d="M 221.95456,189.01338 221.8579,189.01338 221.75623,189.01338 "/>
      <path class="quadro_mixer_ktc_367 Scene_Collection KTC_107_Furniture HouseA quadro_mixer_ktc_367_prj__kitchen_cut KTC_A107 kitchen_cut prj" d="M 221.86247,189.01338 221.75732,189.01338 "/>
      <path class="quadro_mixer_ktc_367 Scene_Collection KTC_107_Furniture HouseA quadro_mixer_ktc_367_prj__kitchen_cut KTC_A107 kitchen_cut prj" d="M 222.06029,189.01338 222.10283,189.01338 "/>
      <path class="quadro_mixer_ktc_367 Scene_Collection KTC_107_Furniture HouseA quadro_mixer_ktc_367_prj__kitchen_cut KTC_A107 kitchen_cut prj" d="M 221.22475,189.0734 221.31845,189.0734 221.41991,189.0734 221.52524,189.0734 221.63057,189.0734 221.73202,189.0734 221.82571,189.0734 221.90778,189.0734 221.97469,189.0734 222.02446,189.0734 222.0555,189.0734 222.08632,189.0734 222.09766,189.0734 222.11969,189.07336 222.13339,189.07324 222.14104,189.07291 222.14497,189.07228 222.14717,189.07115 222.14828,189.06908 222.14868,189.06557 222.14876,189.06006 222.14876,189.05234 222.14876,189.04338 222.14876,189.03441 222.14876,189.0267 222.14871,189.02121 222.14854,189.01769 222.14708,189.01448 222.14545,189.01386 222.14273,189.01352 222.13852,189.0134 222.13238,189.01338 222.11227,189.01338 222.08214,189.01338 "/>
      <path class="quadro_mixer_ktc_367 Scene_Collection KTC_107_Furniture HouseA quadro_mixer_ktc_367_prj__kitchen_cut KTC_A107 kitchen_cut prj" d="M 222.12038,189.01338 222.08553,189.01338 "/>
      <path class="quadro_mixer_ktc_367 Scene_Collection KTC_107_Furniture HouseA quadro_mixer_ktc_367_prj__kitchen_cut KTC_A107 kitchen_cut prj" d="M 221.95456,189.01338 222.02966,189.01338 222.08553,189.01338 "/>
      <path class="quadro_mixer_ktc_367 Scene_Collection KTC_107_Furniture HouseA quadro_mixer_ktc_367_prj__kitchen_cut KTC_A107 kitchen_cut prj" d="M 221.52524,189.01338 221.64346,189.01338 221.75732,189.01338 "/>
      <path class="quadro_mixer_ktc_367 Scene_Collection KTC_107_Furniture HouseA quadro_mixer_ktc_367_prj__kitchen_cut KTC_A107 kitchen_cut prj" d="M 221.61644,189.0734 221.63525,189.0734 "/>
      <path class="quadro_mixer_ktc_367 Scene_Collection KTC_107_Furniture HouseA quadro_mixer_ktc_367_prj__kitchen_cut KTC_A107 kitchen_cut prj" d="M 221.91026,189.0734 221.92833,189.0734 "/>
      <path class="quadro_mixer_ktc_367 Scene_Collection KTC_107_Furniture HouseA quadro_mixer_ktc_367_prj__kitchen_cut KTC_A107 kitchen_cut prj" d="M 221.9306,189.0734 221.95338,189.0734 "/>
      <path class="quadro_mixer_ktc_367 Scene_Collection KTC_107_Furniture HouseA quadro_mixer_ktc_367_prj__kitchen_cut KTC_A107 kitchen_cut prj" d="M 221.96162,189.0734 221.94073,189.07341 221.92799,189.07362 221.92125,189.07422 221.91812,189.07536 221.91614,189.07716 221.91334,189.07936 "/>
      <path class="quadro_mixer_ktc_367 Scene_Collection KTC_107_Furniture HouseA quadro_mixer_ktc_367_prj__kitchen_cut KTC_A107 kitchen_cut prj" d="M 221.13429,189.07716 221.13232,189.07536 221.12917,189.07422 221.12245,189.07362 221.10968,189.07341 221.08839,189.0734 "/>
      <path class="quadro_mixer_ktc_367 Scene_Collection KTC_107_Furniture HouseA quadro_mixer_ktc_367_prj__kitchen_cut KTC_A107 kitchen_cut prj" d="M 221.09747,189.0734 221.11726,189.0734 "/>
      <path class="quadro_mixer_ktc_367 Scene_Collection KTC_107_Furniture HouseA quadro_mixer_ktc_367_prj__kitchen_cut KTC_A107 kitchen_cut prj" d="M 221.28319,189.0734 221.31361,189.0734 "/>
      <path class="quadro_mixer_ktc_367 Scene_Collection KTC_107_Furniture HouseA quadro_mixer_ktc_367_prj__kitchen_cut KTC_A107 kitchen_cut prj" d="M 221.41373,189.0734 221.43402,189.0734 "/>
      <path class="quadro_mixer_ktc_367 Scene_Collection KTC_107_Furniture HouseA quadro_mixer_ktc_367_prj__kitchen_cut KTC_A107 kitchen_cut prj" d="M 221.84274,189.01338 221.84721,189.01338 "/>
      <path class="quadro_mixer_ktc_367 Scene_Collection KTC_107_Furniture HouseA quadro_mixer_ktc_367_prj__kitchen_cut KTC_A107 kitchen_cut prj" d="M 222.08533,189.01338 222.08968,189.01338 "/>
      <path class="quadro_mixer_ktc_367 Scene_Collection KTC_107_Furniture HouseA quadro_mixer_ktc_367_prj__kitchen_cut KTC_A107 kitchen_cut prj" d="M 222.09644,189.01338 222.08984,189.01335 222.08504,189.01315 222.08174,189.01259 222.07964,189.0115 222.07835,189.00531 222.0777,188.97186 222.07744,188.88466 222.07741,188.71712 222.07741,188.45589 222.07741,188.14037 222.07741,187.82312 222.07741,187.5567 222.07729,187.3808 222.07646,187.28351 222.07417,187.24 222.06975,187.22546 222.06239,187.21905 222.05106,187.21576 222.03465,187.21454 222.01207,187.21437 222.00244,187.21437 221.97449,187.21437 221.9297,187.21437 221.86949,187.21437 221.79565,187.21437 221.71132,187.21437 221.62003,187.21437 221.52522,187.21437 221.43043,187.21437 221.33914,187.21437 221.25482,187.21437 221.18097,187.21437 221.12076,187.21437 221.07596,187.21437 221.048,187.21437 221.03836,187.21437 221.01579,187.21454 220.99936,187.21576 220.98804,187.21905 220.98067,187.22546 220.97626,187.24 220.97398,187.28351 220.97316,187.3808 220.97302,187.5567 220.97302,187.82312 220.97302,188.14037 220.97302,188.45589 220.97302,188.71712 220.97299,188.88466 220.97275,188.97186 220.97209,189.00531 220.97081,189.0115 220.96867,189.01259 220.96539,189.01315 220.96059,189.01335 220.95458,189.01338 220.96317,189.01338 220.96527,189.01338 220.97337,189.01338 "/>
      <path class="quadro_mixer_ktc_367 Scene_Collection KTC_107_Furniture HouseA quadro_mixer_ktc_367_prj__kitchen_cut KTC_A107 kitchen_cut prj" d="M 220.98173,189.01338 220.99806,189.01338 "/>
      <path class="quadro_mixer_ktc_367 Scene_Collection KTC_107_Furniture HouseA quadro_mixer_ktc_367_prj__kitchen_cut KTC_A107 kitchen_cut prj" d="M 221.20577,189.01338 221.20793,189.01338 221.21249,189.01338 "/>
      <path class="quadro_mixer_ktc_367 Scene_Collection KTC_107_Furniture HouseA quadro_mixer_ktc_367_prj__kitchen_cut KTC_A107 kitchen_cut prj" d="M 221.25735,189.01338 221.30688,189.01338 "/>
      <path class="quadro_mixer_ktc_367 Scene_Collection KTC_107_Furniture HouseA quadro_mixer_ktc_367_prj__kitchen_cut KTC_A107 kitchen_cut prj" d="M 210.14873,187.21437 210.15779,187.21437 "/>
      <path class="quadro_mixer_ktc_367 Scene_Collection KTC_107_Furniture HouseA quadro_mixer_ktc_367_prj__kitchen_cut KTC_A107 kitchen_cut prj" d="M 210.16252,187.21437 210.16414,187.21437 "/>
      <path class="quadro_mixer_ktc_367 Scene_Collection KTC_107_Furniture HouseA quadro_mixer_ktc_367_prj__kitchen_cut KTC_A107 kitchen_cut prj" d="M 210.17844,187.21437 210.1806,187.21437 "/>
      <path class="quadro_mixer_ktc_367 Scene_Collection KTC_107_Furniture HouseA quadro_mixer_ktc_367_prj__kitchen_cut KTC_A107 kitchen_cut prj" d="M 210.14822,187.21437 210.13924,187.21437 "/>
      <path class="quadro_mixer_ktc_367 Scene_Collection KTC_107_Furniture HouseA quadro_mixer_ktc_367_prj__kitchen_cut KTC_A107 kitchen_cut prj" d="M 210.13358,187.21437 210.1189,187.21437 210.15585,187.21437 "/>
      <path class="quadro_mixer_ktc_367 Scene_Collection KTC_107_Furniture HouseA quadro_mixer_ktc_367_prj__kitchen_cut KTC_A107 kitchen_cut prj" d="M 210.13029,187.21437 210.12691,187.21437 210.1189,187.21437 210.12695,187.21437 210.15027,187.21437 210.17749,187.21437 210.15587,187.21437 210.1806,187.21437 "/>
      <path class="quadro_mixer_ktc_367 Scene_Collection KTC_107_Furniture HouseA quadro_mixer_ktc_367_prj__kitchen_cut KTC_A107 kitchen_cut prj" d="M 210.17366,187.21437 210.19244,187.21428 210.20534,187.21368 210.2137,187.21208 210.2188,187.20894 210.22179,187.19836 210.22334,187.15271 210.22392,187.039 210.224,186.82419 210.22427,186.48906 210.22632,186.0697 210.23183,185.616 210.24258,185.17783 210.26027,184.79414 210.28661,184.46021 210.32326,184.16032 210.3719,183.87886 210.43391,183.60281 210.50937,183.33017 210.5981,183.06152 210.69992,182.79756 210.81457,182.53891 210.94177,182.28622 211.08122,182.04005 211.23256,181.80103 211.39548,181.56973 211.56955,181.34671 211.75435,181.13246 211.9494,180.92757 212.15431,180.7325 212.36855,180.54771 212.59157,180.37364 212.82288,180.21074 213.06189,180.05939 213.30806,179.91995 213.56076,179.79274 213.81941,179.67807 214.08336,179.57626 214.35199,179.48752 214.62466,179.41206 214.90071,179.35005 215.17944,179.30171 215.46024,179.26709 215.74239,179.24626 216.02522,179.2393 216.30804,179.24626 216.59018,179.26709 216.87099,179.30171 217.14972,179.35005 217.42577,179.41206 217.69842,179.48752 217.96706,179.57626 218.23102,179.67807 218.48967,179.79274 218.74237,179.91995 218.98853,180.05939 219.22757,180.21074 219.45886,180.37364 219.68188,180.54771 219.89612,180.7325 220.10103,180.92757 220.2961,181.13246 220.48086,181.34671 220.65494,181.56973 220.81786,181.80104 220.96921,182.04005 221.10866,182.28624 221.23585,182.53893 221.35051,182.79756 221.45233,183.06152 221.54106,183.33017 221.61655,183.60283 221.67853,183.87886 221.72717,184.16031 221.76382,184.45995 221.79016,184.79327 221.80785,185.17575 221.8186,185.61204 221.82411,186.0637 221.82614,186.48138 221.82643,186.81581 221.82655,187.03133 221.82732,187.14671 221.82944,187.19441 221.83354,187.20686 221.84039,187.21121 221.85113,187.21344 221.86693,187.21425 221.88902,187.21437 "/>
      <path class="quadro_mixer_ktc_367 Scene_Collection KTC_107_Furniture HouseA quadro_mixer_ktc_367_prj__kitchen_cut KTC_A107 kitchen_cut prj" d="M 221.16141,187.21437 221.1835,187.21425 221.1993,187.21344 221.21002,187.21121 221.21689,187.20686 221.22101,187.19441 221.2231,187.14671 221.22388,187.03133 221.224,186.81581 221.22374,186.48169 221.22192,186.06616 221.21698,185.62032 221.20734,185.19533 221.19148,184.8309 221.16789,184.52107 221.13504,184.24846 221.09146,183.99564 221.0359,183.74828 220.96825,183.50392 220.88873,183.26318 220.79748,183.02663 220.69475,182.79485 220.58075,182.56841 220.45579,182.34779 220.32016,182.13359 220.17418,181.92631 220.01817,181.72644 219.85257,181.53445 219.67776,181.35083 219.49414,181.17601 219.30215,181.01042 219.10228,180.85443 218.895,180.70842 218.6808,180.5728 218.46021,180.44785 218.23373,180.33383 218.00197,180.23109 217.76541,180.13985 217.52467,180.06033 217.28032,179.99271 217.03294,179.93715 216.78316,179.8938 216.53152,179.86278 216.27869,179.84412 216.02522,179.83789 215.77177,179.84412 215.51891,179.86278 215.26729,179.8938 215.01749,179.93715 214.77011,179.99271 214.52576,180.06033 214.285,180.13985 214.04846,180.23108 213.81668,180.33383 213.59023,180.44785 213.36963,180.5728 213.15543,180.70842 212.94814,180.85443 212.74828,181.01042 212.55629,181.17601 212.37265,181.35083 212.19785,181.53445 212.03226,181.72644 211.87625,181.92631 211.73027,182.13359 211.59464,182.34779 211.46968,182.56839 211.35568,182.79485 211.25293,183.02663 211.1617,183.26318 211.08215,183.50392 211.01456,183.74828 210.959,183.99564 210.91539,184.24847 210.88254,184.52132 210.85893,184.83179 210.84308,185.19742 210.83347,185.62425 210.82851,186.07216 210.82669,186.48936 210.82643,186.82419 210.82651,187.039 210.82707,187.15271 210.82863,187.19835 210.83165,187.20894 210.83672,187.21208 210.84506,187.21368 210.85799,187.21428 210.87665,187.21437 "/>
      <path class="quadro_mixer_ktc_367 Scene_Collection KTC_107_Furniture HouseA quadro_mixer_ktc_367_prj__kitchen_cut KTC_A107 kitchen_cut prj" d="M 210.32399,187.21437 210.32994,187.21437 210.32079,187.21437 "/>
      <path class="quadro_mixer_ktc_367 Scene_Collection KTC_107_Furniture HouseA quadro_mixer_ktc_367_prj__kitchen_cut KTC_A107 kitchen_cut prj" d="M 210.17749,187.21437 210.21219,187.21437 210.21947,187.21437 "/>
      <path class="quadro_mixer_ktc_367 Scene_Collection KTC_107_Furniture HouseA quadro_mixer_ktc_367_prj__kitchen_cut KTC_A107 kitchen_cut prj" d="M 210.17224,187.21437 210.16205,187.21437 210.13774,187.21437 210.19542,187.21437 210.26617,187.21437 210.34695,187.21437 210.35812,187.21437 "/>
      <path class="quadro_mixer_ktc_367 Scene_Collection KTC_107_Furniture HouseA quadro_mixer_ktc_367_prj__kitchen_cut KTC_A107 kitchen_cut prj" d="M 210.35812,187.21437 210.3699,187.21437 210.32977,187.21437 "/>
      <path class="quadro_mixer_ktc_367 Scene_Collection KTC_107_Furniture HouseA quadro_mixer_ktc_367_prj__kitchen_cut KTC_A107 kitchen_cut prj" d="M 221.88855,187.21437 221.92967,187.21437 221.97351,187.21437 "/>
      <path class="quadro_mixer_ktc_367 Scene_Collection KTC_107_Furniture HouseA quadro_mixer_ktc_367_prj__kitchen_cut KTC_A107 kitchen_cut prj" d="M 221.06192,187.21437 221.048,187.21437 221.03836,187.21437 "/>
      <path class="quadro_mixer_ktc_367 Scene_Collection KTC_107_Furniture HouseA quadro_mixer_ktc_367_prj__kitchen_cut KTC_A107 kitchen_cut prj" d="M 221.048,187.21437 221.07533,187.21437 "/>
      <path class="quadro_mixer_ktc_367 Scene_Collection KTC_107_Furniture HouseA quadro_mixer_ktc_367_prj__kitchen_cut KTC_A107 kitchen_cut prj" d="M 210.88249,187.21437 210.87653,187.21437 "/>
      <path class="quadro_mixer_ktc_367 Scene_Collection KTC_107_Furniture HouseA quadro_mixer_ktc_367_prj__kitchen_cut KTC_A107 kitchen_cut prj" d="M 210.73688,187.21437 210.76804,187.21437 210.85501,187.21437 210.91269,187.21437 210.9556,187.21437 210.98238,187.21437 "/>
      <path class="quadro_mixer_ktc_367 Scene_Collection KTC_107_Furniture HouseA quadro_mixer_ktc_367_prj__kitchen_cut KTC_A107 kitchen_cut prj" d="M 210.95577,187.21437 210.99159,187.21437 210.98236,187.21437 210.95459,187.21437 "/>
      <path class="quadro_mixer_ktc_367 Scene_Collection KTC_107_Furniture HouseA quadro_mixer_ktc_367_prj__kitchen_cut KTC_A107 kitchen_cut prj" d="M 210.99159,187.21437 211.01682,187.21445 211.03749,187.21503 211.0536,187.21657 211.06511,187.21959 211.07222,187.22891 211.07587,187.26666 211.07722,187.35928 211.07739,187.53326 211.07739,187.80159 211.07739,188.1235 211.07739,188.44479 211.07739,188.71124 211.07744,188.88217 211.07768,188.97113 211.07834,189.0052 211.07962,189.0115 211.08176,189.01259 211.08504,189.01315 211.08983,189.01334 211.09642,189.01338 "/>
      <path class="quadro_mixer_ktc_367 Scene_Collection KTC_107_Furniture HouseA quadro_mixer_ktc_367_prj__kitchen_cut KTC_A107 kitchen_cut prj" d="M 211.08968,189.01338 211.08533,189.01338 "/>
      <path class="quadro_mixer_ktc_367 Scene_Collection KTC_107_Furniture HouseA quadro_mixer_ktc_367_prj__kitchen_cut KTC_A107 kitchen_cut prj" d="M 210.84721,189.01338 210.84273,189.01338 "/>
      <path class="quadro_mixer_ktc_367 Scene_Collection KTC_107_Furniture HouseA quadro_mixer_ktc_367_prj__kitchen_cut KTC_A107 kitchen_cut prj" d="M 210.30687,189.01338 210.25734,189.01338 "/>
      <path class="quadro_mixer_ktc_367 Scene_Collection KTC_107_Furniture HouseA quadro_mixer_ktc_367_prj__kitchen_cut KTC_A107 kitchen_cut prj" d="M 210.21249,189.01338 210.20795,189.01338 210.20575,189.01338 "/>
      <path class="quadro_mixer_ktc_367 Scene_Collection KTC_107_Furniture HouseA quadro_mixer_ktc_367_prj__kitchen_cut KTC_A107 kitchen_cut prj" d="M 209.99805,189.01338 209.98173,189.01338 "/>
      <path class="quadro_mixer_ktc_367 Scene_Collection KTC_107_Furniture HouseA quadro_mixer_ktc_367_prj__kitchen_cut KTC_A107 kitchen_cut prj" d="M 209.97336,189.01338 209.96527,189.01338 209.96317,189.01338 209.95458,189.01338 209.96059,189.01334 209.96539,189.01315 209.96869,189.01259 209.97081,189.0115 209.97209,189.0052 209.97273,188.97113 209.97298,188.88217 209.97302,188.71124 209.97302,188.44479 209.97302,188.1235 209.97302,187.80159 209.97302,187.53326 209.97322,187.35928 209.97455,187.26666 209.97821,187.22891 209.98531,187.21959 209.99683,187.21657 210.01292,187.21503 210.03361,187.21445 210.05882,187.21437 210.06805,187.21437 210.09672,187.21437 "/>
      <path class="quadro_mixer_ktc_367 Scene_Collection KTC_107_Furniture HouseA quadro_mixer_ktc_367_prj__kitchen_cut KTC_A107 kitchen_cut prj" d="M 210.09262,187.21437 210.1189,187.21437 "/>
      <path class="quadro_mixer_ktc_367 Scene_Collection KTC_107_Furniture HouseA quadro_mixer_ktc_367_prj__kitchen_cut KTC_A107 kitchen_cut prj" d="M 210.76683,187.21437 210.77942,187.21437 "/>
      <path class="quadro_mixer_ktc_367 Scene_Collection KTC_107_Furniture HouseA quadro_mixer_ktc_367_prj__kitchen_cut KTC_A107 kitchen_cut prj" d="M 210.81729,187.21437 210.85419,187.21437 "/>
      <path class="quadro_mixer_ktc_367 Scene_Collection KTC_107_Furniture HouseA quadro_mixer_ktc_367_prj__kitchen_cut KTC_A107 kitchen_cut prj" d="M 210.35812,187.21437 210.44011,187.21437 210.52522,187.21437 210.61604,187.21437 210.70351,187.21437 210.78426,187.21437 210.76804,187.21437 210.68054,187.21437 210.66745,187.21437 "/>
      <path class="quadro_mixer_ktc_367 Scene_Collection KTC_107_Furniture HouseA quadro_mixer_ktc_367_prj__kitchen_cut KTC_A107 kitchen_cut prj" d="M 210.12611,187.21437 210.12141,187.21437 210.10788,187.21437 "/>
      <path class="quadro_mixer_ktc_367 Scene_Collection KTC_107_Furniture HouseA quadro_mixer_ktc_367_prj__kitchen_cut KTC_A107 kitchen_cut prj" d="M 210.10591,187.21437 210.09482,187.21437 210.13774,187.21437 210.15254,187.21437 "/>
      <path class="quadro_mixer_ktc_367 Scene_Collection KTC_107_Furniture HouseA quadro_mixer_ktc_367_prj__kitchen_cut KTC_A107 kitchen_cut prj" d="M 210.15025,187.21437 210.15472,187.21437 "/>
      <path class="quadro_mixer_ktc_367 Scene_Collection KTC_107_Furniture HouseA quadro_mixer_ktc_367_prj__kitchen_cut KTC_A107 kitchen_cut prj" d="M 210.17146,187.21437 210.17392,187.21437 "/>
      <path class="quadro_mixer_ktc_367 Scene_Collection KTC_107_Furniture HouseA quadro_mixer_ktc_367_prj__kitchen_cut KTC_A107 kitchen_cut prj" d="M 210.15294,187.21437 210.15025,187.21437 "/>
      <path class="quadro_mixer_ktc_367 Scene_Collection KTC_107_Furniture HouseA quadro_mixer_ktc_367_prj__kitchen_cut KTC_A107 kitchen_cut prj" d="M 210.15585,187.21437 210.17392,187.21437 "/>
      <path class="quadro_mixer_ktc_367 Scene_Collection KTC_107_Furniture HouseA quadro_mixer_ktc_367_prj__kitchen_cut KTC_A107 kitchen_cut prj" d="M 210.1806,187.21437 210.18741,187.21437 "/>
      <path class="quadro_mixer_ktc_367 Scene_Collection KTC_107_Furniture HouseA quadro_mixer_ktc_367_prj__kitchen_cut KTC_A107 kitchen_cut prj" d="M 210.75679,187.21437 210.76804,187.21437 "/>
      <path class="quadro_mixer_ktc_367 Scene_Collection KTC_107_Furniture HouseA quadro_mixer_ktc_367_prj__kitchen_cut KTC_A107 kitchen_cut prj" d="M 210.76549,187.21437 210.77736,187.21437 "/>
      <path class="quadro_mixer_ktc_367 Scene_Collection KTC_107_Furniture HouseA quadro_mixer_ktc_367_prj__kitchen_cut KTC_A107 kitchen_cut prj" d="M 210.81226,187.21437 210.73451,187.21437 210.74005,187.21437 "/>
      <path class="quadro_mixer_ktc_367 Scene_Collection KTC_107_Furniture HouseA quadro_mixer_ktc_367_prj__kitchen_cut KTC_A107 kitchen_cut prj" d="M 210.37354,187.21437 210.36656,187.21437 "/>
      <path class="quadro_mixer_ktc_367 Scene_Collection KTC_107_Furniture HouseA quadro_mixer_ktc_367_prj__kitchen_cut KTC_A107 kitchen_cut prj" d="M 210.32733,187.21437 210.32556,187.21437 "/>
      <path class="quadro_mixer_ktc_367 Scene_Collection KTC_107_Furniture HouseA quadro_mixer_ktc_367_prj__kitchen_cut KTC_A107 kitchen_cut prj" d="M 210.96454,189.48337 210.9429,189.48334 210.92925,189.48309 210.92195,189.48244 210.91844,189.48116 210.91655,189.47816 "/>
      <path class="quadro_mixer_ktc_367 Scene_Collection KTC_107_Furniture HouseA quadro_mixer_ktc_367_prj__kitchen_cut KTC_A107 kitchen_cut prj" d="M 210.91641,189.07817 210.91811,189.07536 210.92127,189.07422 210.92798,189.07362 210.94075,189.07341 210.96202,189.07338 "/>
      <path class="quadro_mixer_ktc_367 Scene_Collection KTC_107_Furniture HouseA quadro_mixer_ktc_367_prj__kitchen_cut KTC_A107 kitchen_cut prj" d="M 210.95294,189.07338 210.93059,189.07338 "/>
      <path class="quadro_mixer_ktc_367 Scene_Collection KTC_107_Furniture HouseA quadro_mixer_ktc_367_prj__kitchen_cut KTC_A107 kitchen_cut prj" d="M 210.9268,189.07338 210.91028,189.07338 "/>
      <path class="quadro_mixer_ktc_367 Scene_Collection KTC_107_Furniture HouseA quadro_mixer_ktc_367_prj__kitchen_cut KTC_A107 kitchen_cut prj" d="M 210.63525,189.07338 210.61642,189.07338 "/>
      <path class="quadro_mixer_ktc_367 Scene_Collection KTC_107_Furniture HouseA quadro_mixer_ktc_367_prj__kitchen_cut KTC_A107 kitchen_cut prj" d="M 210.43402,189.07338 210.41373,189.07338 "/>
      <path class="quadro_mixer_ktc_367 Scene_Collection KTC_107_Furniture HouseA quadro_mixer_ktc_367_prj__kitchen_cut KTC_A107 kitchen_cut prj" d="M 210.31361,189.07338 210.28259,189.07338 "/>
      <path class="quadro_mixer_ktc_367 Scene_Collection KTC_107_Furniture HouseA quadro_mixer_ktc_367_prj__kitchen_cut KTC_A107 kitchen_cut prj" d="M 210.11725,189.07338 210.09705,189.07338 "/>
      <path class="quadro_mixer_ktc_367 Scene_Collection KTC_107_Furniture HouseA quadro_mixer_ktc_367_prj__kitchen_cut KTC_A107 kitchen_cut prj" d="M 210.08922,189.07338 210.10969,189.07341 210.12245,189.07362 210.12915,189.07422 210.13234,189.07536 210.13403,189.07837 "/>
      <path class="quadro_mixer_ktc_367 Scene_Collection KTC_107_Furniture HouseA quadro_mixer_ktc_367_prj__kitchen_cut KTC_A107 kitchen_cut prj" d="M 210.13373,189.47838 210.13196,189.48116 210.12848,189.48244 210.1212,189.48309 210.10751,189.48334 210.08491,189.48337 "/>
      <path class="quadro_mixer_ktc_367 Scene_Collection KTC_107_Furniture HouseA quadro_mixer_ktc_367_prj__kitchen_cut KTC_A107 kitchen_cut prj" d="M 210.11183,189.48337 210.1189,189.48337 210.11114,189.48337 "/>
      <path class="quadro_mixer_ktc_367 Scene_Collection KTC_107_Furniture HouseA quadro_mixer_ktc_367_prj__kitchen_cut KTC_A107 kitchen_cut prj" d="M 210.10736,189.48337 210.12033,189.48337 "/>
      <path class="quadro_mixer_ktc_367 Scene_Collection KTC_107_Furniture HouseA quadro_mixer_ktc_367_prj__kitchen_cut KTC_A107 kitchen_cut prj" d="M 210.29575,189.48337 210.35693,189.48337 "/>
      <path class="quadro_mixer_ktc_367 Scene_Collection KTC_107_Furniture HouseA quadro_mixer_ktc_367_prj__kitchen_cut KTC_A107 kitchen_cut prj" d="M 210.45915,189.48337 210.52228,189.48337 "/>
      <path class="quadro_mixer_ktc_367 Scene_Collection KTC_107_Furniture HouseA quadro_mixer_ktc_367_prj__kitchen_cut KTC_A107 kitchen_cut prj" d="M 210.80925,189.48337 210.91368,189.48337 "/>
      <path class="quadro_mixer_ktc_367 Scene_Collection KTC_107_Furniture HouseA quadro_mixer_ktc_367_prj__kitchen_cut KTC_A107 kitchen_cut prj" d="M 210.80925,189.48337 210.72069,189.48337 "/>
      <path class="quadro_mixer_ktc_367 Scene_Collection KTC_107_Furniture HouseA quadro_mixer_ktc_367_prj__kitchen_cut KTC_A107 kitchen_cut prj" d="M 210.42566,189.48337 210.32977,189.48337 210.31525,189.48337 210.36665,189.48337 "/>
      <path class="quadro_mixer_ktc_367 Scene_Collection KTC_107_Furniture HouseA quadro_mixer_ktc_367_prj__kitchen_cut KTC_A107 kitchen_cut prj" d="M 210.41208,189.48337 210.30307,189.48337 210.20242,189.48337 "/>
      <path class="quadro_mixer_ktc_367 Scene_Collection KTC_107_Furniture HouseA quadro_mixer_ktc_367_prj__kitchen_cut KTC_A107 kitchen_cut prj" d="M 210.23454,189.48337 210.2412,189.48337 "/>
      <path class="quadro_mixer_ktc_367 Scene_Collection KTC_107_Furniture HouseA quadro_mixer_ktc_367_prj__kitchen_cut KTC_A107 kitchen_cut prj" d="M 210.2412,189.48337 210.31525,189.48337 210.26051,189.48337 "/>
      <path class="quadro_mixer_ktc_367 Scene_Collection KTC_107_Furniture HouseA quadro_mixer_ktc_367_prj__kitchen_cut KTC_A107 kitchen_cut prj" d="M 210.1004,189.48337 210.05333,189.48337 210.01825,189.48337 209.98889,189.48337 209.95554,189.48337 209.94403,189.48337 209.92285,189.48338 209.91095,189.48352 209.9054,189.48384 209.90337,189.48448 209.90189,189.48767 209.9017,189.4912 209.90167,189.4967 209.90167,189.50441 209.90167,189.51338 209.90167,189.52234 209.90167,189.53005 209.90172,189.53555 209.90196,189.53908 209.90266,189.54114 209.90617,189.54291 209.90944,189.54324 209.91402,189.54336 209.92011,189.54338 209.92772,189.54338 "/>
      <path class="quadro_mixer_ktc_367 Scene_Collection KTC_107_Furniture HouseA quadro_mixer_ktc_367_prj__kitchen_cut KTC_A107 kitchen_cut prj" d="M 209.93623,189.54338 209.94218,189.54338 "/>
      <path class="quadro_mixer_ktc_367 Scene_Collection KTC_107_Furniture HouseA quadro_mixer_ktc_367_prj__kitchen_cut KTC_A107 kitchen_cut prj" d="M 209.99687,189.54338 209.99374,189.54338 209.9724,189.54338 "/>
      <path class="quadro_mixer_ktc_367 Scene_Collection KTC_107_Furniture HouseA quadro_mixer_ktc_367_prj__kitchen_cut KTC_A107 kitchen_cut prj" d="M 209.96858,189.54338 209.98868,189.54338 "/>
      <path class="quadro_mixer_ktc_367 Scene_Collection KTC_107_Furniture HouseA quadro_mixer_ktc_367_prj__kitchen_cut KTC_A107 kitchen_cut prj" d="M 210.20242,189.48337 210.13675,189.48337 210.11427,189.48337 210.04237,189.48337 "/>
      <path class="quadro_mixer_ktc_367 Scene_Collection KTC_107_Furniture HouseA quadro_mixer_ktc_367_prj__kitchen_cut KTC_A107 kitchen_cut prj" d="M 210.08347,189.48337 210.13675,189.48337 210.1004,189.48337 "/>
      <path class="quadro_mixer_ktc_367 Scene_Collection KTC_107_Furniture HouseA quadro_mixer_ktc_367_prj__kitchen_cut KTC_A107 kitchen_cut prj" d="M 209.95281,189.54338 209.94788,189.54338 209.93623,189.54338 "/>
      <path class="quadro_mixer_ktc_367 Scene_Collection KTC_107_Furniture HouseA quadro_mixer_ktc_367_prj__kitchen_cut KTC_A107 kitchen_cut prj" d="M 209.94789,189.54338 209.95728,189.54338 "/>
      <path class="quadro_mixer_ktc_367 Scene_Collection KTC_107_Furniture HouseA quadro_mixer_ktc_367_prj__kitchen_cut KTC_A107 kitchen_cut prj" d="M 209.93207,189.54338 209.9668,189.54338 210.02249,189.54338 210.09734,189.54338 210.18913,189.54338 210.29393,189.54338 210.40741,189.54338 210.52522,189.54338 210.64307,189.54338 210.75655,189.54338 210.86134,189.54338 210.95312,189.54338 211.02795,189.54338 211.08363,189.54338 211.11836,189.54338 211.13034,189.54338 211.13641,189.54336 211.14098,189.54324 211.14424,189.54291 211.14644,189.54227 211.14845,189.53908 211.14871,189.53555 211.14874,189.53005 211.14874,189.52234 211.14874,189.51338 211.14874,189.50441 211.14874,189.4967 211.14871,189.4912 211.14853,189.48767 211.14803,189.48561 211.14502,189.48384 211.13948,189.48352 211.12756,189.48338 211.10638,189.48337 211.09491,189.48337 211.06154,189.48337 211.00806,189.48337 "/>
      <path class="quadro_mixer_ktc_367 Scene_Collection KTC_107_Furniture HouseA quadro_mixer_ktc_367_prj__kitchen_cut KTC_A107 kitchen_cut prj" d="M 210.9971,189.48337 211.02644,189.48337 211.04805,189.48337 "/>
      <path class="quadro_mixer_ktc_367 Scene_Collection KTC_107_Furniture HouseA quadro_mixer_ktc_367_prj__kitchen_cut KTC_A107 kitchen_cut prj" d="M 210.72565,189.48337 210.77534,189.48337 "/>
      <path class="quadro_mixer_ktc_367 Scene_Collection KTC_107_Furniture HouseA quadro_mixer_ktc_367_prj__kitchen_cut KTC_A107 kitchen_cut prj" d="M 210.84804,189.48337 210.74738,189.48337 210.6384,189.48337 "/>
      <path class="quadro_mixer_ktc_367 Scene_Collection KTC_107_Furniture HouseA quadro_mixer_ktc_367_prj__kitchen_cut KTC_A107 kitchen_cut prj" d="M 210.68828,189.48337 210.73521,189.48337 210.7827,189.48337 "/>
      <path class="quadro_mixer_ktc_367 Scene_Collection KTC_107_Furniture HouseA quadro_mixer_ktc_367_prj__kitchen_cut KTC_A107 kitchen_cut prj" d="M 210.93619,189.48337 210.84804,189.48337 "/>
      <path class="quadro_mixer_ktc_367 Scene_Collection KTC_107_Furniture HouseA quadro_mixer_ktc_367_prj__kitchen_cut KTC_A107 kitchen_cut prj" d="M 209.9689,189.54338 209.98964,189.54338 209.99672,189.54338 "/>
      <path class="quadro_mixer_ktc_367 Scene_Collection KTC_107_Furniture HouseA quadro_mixer_ktc_367_prj__kitchen_cut KTC_A107 kitchen_cut prj" d="M 209.99373,189.54338 209.97014,189.54338 "/>
      <path class="quadro_mixer_ktc_367 Scene_Collection KTC_107_Furniture HouseA quadro_mixer_ktc_367_prj__kitchen_cut KTC_A107 kitchen_cut prj" d="M 209.95268,189.54338 209.95911,189.5434 209.9641,189.54359 209.96779,189.54414 209.97034,189.5452 209.97188,189.55138 209.97267,189.58507 209.97298,189.6731 209.97302,189.84229 209.97302,190.10611 209.97302,190.42456 209.97302,190.74422 209.97302,191.01172 209.9731,191.18686 209.97366,191.28206 209.97523,191.32291 209.97826,191.33502 209.98395,191.33984 209.99631,191.34233 210.02,191.34325 210.05975,191.34338 210.06897,191.34338 210.09569,191.34338 210.13852,191.34338 210.19609,191.34338 210.23685,191.34338 210.29866,191.34338 210.26669,191.34338 210.34731,191.34338 210.4346,191.34338 "/>
      <path class="quadro_mixer_ktc_367 Scene_Collection KTC_107_Furniture HouseA quadro_mixer_ktc_367_prj__kitchen_cut KTC_A107 kitchen_cut prj" d="M 210.52522,191.34338 210.60461,191.34338 210.68111,191.34338 210.70316,191.34338 210.78375,191.34338 "/>
      <path class="quadro_mixer_ktc_367 Scene_Collection KTC_107_Furniture HouseA quadro_mixer_ktc_367_prj__kitchen_cut KTC_A107 kitchen_cut prj" d="M 210.7518,191.34338 210.81358,191.34338 210.85435,191.34338 210.91193,191.34338 210.8638,191.34338 210.90108,191.34338 210.95477,191.34338 210.98146,191.34338 210.99069,191.34338 211.03041,191.34325 211.05412,191.34233 211.06648,191.33984 211.07216,191.33502 211.07518,191.32291 211.07675,191.28206 211.07732,191.18686 211.07739,191.01172 211.07739,190.74422 211.07739,190.42456 211.07739,190.10611 211.07739,189.84229 211.07745,189.6731 211.07774,189.58507 211.07854,189.55138 211.08008,189.5452 211.08264,189.54414 211.08632,189.54359 211.09132,189.5434 211.09761,189.54338 "/>
      <path class="quadro_mixer_ktc_367 Scene_Collection KTC_107_Furniture HouseA quadro_mixer_ktc_367_prj__kitchen_cut KTC_A107 kitchen_cut prj" d="M 211.06482,189.54338 211.05633,189.54338 "/>
      <path class="quadro_mixer_ktc_367 Scene_Collection KTC_107_Furniture HouseA quadro_mixer_ktc_367_prj__kitchen_cut KTC_A107 kitchen_cut prj" d="M 211.05356,189.54338 211.06081,189.54338 211.0378,189.54338 "/>
      <path class="quadro_mixer_ktc_367 Scene_Collection KTC_107_Furniture HouseA quadro_mixer_ktc_367_prj__kitchen_cut KTC_A107 kitchen_cut prj" d="M 210.75,189.54338 210.74551,189.54338 210.69386,189.54338 "/>
      <path class="quadro_mixer_ktc_367 Scene_Collection KTC_107_Furniture HouseA quadro_mixer_ktc_367_prj__kitchen_cut KTC_A107 kitchen_cut prj" d="M 210.33873,189.54338 210.30659,189.54338 210.29391,189.54338 "/>
      <path class="quadro_mixer_ktc_367 Scene_Collection KTC_107_Furniture HouseA quadro_mixer_ktc_367_prj__kitchen_cut KTC_A107 kitchen_cut prj" d="M 209.99931,189.54338 209.98979,189.54338 "/>
      <path class="quadro_mixer_ktc_367 Scene_Collection KTC_107_Furniture HouseA quadro_mixer_ktc_367_prj__kitchen_cut KTC_A107 kitchen_cut prj" d="M 210.7368,191.34338 210.76952,191.34338 210.79317,191.34338 "/>
      <path class="quadro_mixer_ktc_367 Scene_Collection KTC_107_Furniture HouseA quadro_mixer_ktc_367_prj__kitchen_cut KTC_A107 kitchen_cut prj" d="M 210.83221,191.34338 210.83662,191.34338 210.83482,191.34338 "/>
      <path class="quadro_mixer_ktc_367 Scene_Collection KTC_107_Furniture HouseA quadro_mixer_ktc_367_prj__kitchen_cut KTC_A107 kitchen_cut prj" d="M 210.35777,191.34338 210.34724,191.34338 "/>
      <path class="quadro_mixer_ktc_367 Scene_Collection KTC_107_Furniture HouseA quadro_mixer_ktc_367_prj__kitchen_cut KTC_A107 kitchen_cut prj" d="M 210.4346,191.34338 210.52522,191.34338 "/>
      <path class="quadro_mixer_ktc_367 Scene_Collection KTC_107_Furniture HouseA quadro_mixer_ktc_367_prj__kitchen_cut KTC_A107 kitchen_cut prj" d="M 210.26538,191.34338 210.29862,191.34338 210.36931,191.34338 210.39449,191.34338 "/>
      <path class="quadro_mixer_ktc_367 Scene_Collection KTC_107_Furniture HouseA quadro_mixer_ktc_367_prj__kitchen_cut KTC_A107 kitchen_cut prj" d="M 210.26576,191.34338 210.26329,191.34338 210.19525,191.34338 "/>
      <path class="quadro_mixer_ktc_367 Scene_Collection KTC_107_Furniture HouseA quadro_mixer_ktc_367_prj__kitchen_cut KTC_A107 kitchen_cut prj" d="M 210.19525,191.34338 210.13942,191.34338 "/>
      <path class="quadro_mixer_ktc_367 Scene_Collection KTC_107_Furniture HouseA quadro_mixer_ktc_367_prj__kitchen_cut KTC_A107 kitchen_cut prj" d="M 210.12842,191.34338 210.13849,191.34338 "/>
      <path class="quadro_mixer_ktc_367 Scene_Collection KTC_107_Furniture HouseA quadro_mixer_ktc_367_prj__kitchen_cut KTC_A107 kitchen_cut prj" d="M 210.19076,191.34338 210.20532,191.34338 "/>
      <path class="quadro_mixer_ktc_367 Scene_Collection KTC_107_Furniture HouseA quadro_mixer_ktc_367_prj__kitchen_cut KTC_A107 kitchen_cut prj" d="M 210.25252,191.34338 210.26329,191.34338 "/>
      <path class="quadro_mixer_ktc_367 Scene_Collection KTC_107_Furniture HouseA quadro_mixer_ktc_367_prj__kitchen_cut KTC_A107 kitchen_cut prj" d="M 210.1261,191.34338 210.11806,191.34338 210.1803,191.34338 "/>
      <path class="quadro_mixer_ktc_367 Scene_Collection KTC_107_Furniture HouseA quadro_mixer_ktc_367_prj__kitchen_cut KTC_A107 kitchen_cut prj" d="M 210.6778,191.34338 210.68109,191.34338 210.70056,191.34338 "/>
      <path class="quadro_mixer_ktc_367 Scene_Collection KTC_107_Furniture HouseA quadro_mixer_ktc_367_prj__kitchen_cut KTC_A107 kitchen_cut prj" d="M 210.7123,191.34338 210.74336,191.34338 "/>
      <path class="quadro_mixer_ktc_367 Scene_Collection KTC_107_Furniture HouseA quadro_mixer_ktc_367_prj__kitchen_cut KTC_A107 kitchen_cut prj" d="M 210.79086,191.34338 210.81357,191.34338 210.86379,191.34338 210.84096,191.34338 "/>
      <path class="quadro_mixer_ktc_367 Scene_Collection KTC_107_Furniture HouseA quadro_mixer_ktc_367_prj__kitchen_cut KTC_A107 kitchen_cut prj" d="M 210.58279,191.34338 210.60649,191.34338 "/>
      <path class="quadro_mixer_ktc_367 Scene_Collection KTC_107_Furniture HouseA quadro_mixer_ktc_367_prj__kitchen_cut KTC_A107 kitchen_cut prj" d="M 210.61728,191.34338 210.63232,191.34338 210.64568,191.34338 "/>
      <path class="quadro_mixer_ktc_367 Scene_Collection KTC_107_Furniture HouseA quadro_mixer_ktc_367_prj__kitchen_cut KTC_A107 kitchen_cut prj" d="M 210.24348,191.34338 210.26634,191.34337 "/>
      <path class="quadro_mixer_ktc_367 Scene_Collection KTC_107_Furniture HouseA quadro_mixer_ktc_367_prj__kitchen_cut KTC_A107 kitchen_cut prj" d="M 210.26619,191.34337 210.21381,191.34338 "/>
      <path class="quadro_mixer_ktc_367 Scene_Collection KTC_107_Furniture HouseA quadro_mixer_ktc_367_prj__kitchen_cut KTC_A107 kitchen_cut prj" d="M 210.2056,191.34338 210.19525,191.34338 210.21707,191.34338 "/>
      <path class="quadro_mixer_ktc_367 Scene_Collection KTC_107_Furniture HouseA quadro_mixer_ktc_367_prj__kitchen_cut KTC_A107 kitchen_cut prj" d="M 210.29657,191.34338 210.33668,191.34338 210.39468,191.34338 210.44336,191.34338 "/>
      <path class="quadro_mixer_ktc_367 Scene_Collection KTC_107_Furniture HouseA quadro_mixer_ktc_367_prj__kitchen_cut KTC_A107 kitchen_cut prj" d="M 210.45024,191.34338 210.48633,191.34338 "/>
      <path class="quadro_mixer_ktc_367 Scene_Collection KTC_107_Furniture HouseA quadro_mixer_ktc_367_prj__kitchen_cut KTC_A107 kitchen_cut prj" d="M 210.48578,191.34338 210.52521,191.34338 "/>
      <path class="quadro_mixer_ktc_367 Scene_Collection KTC_107_Furniture HouseA quadro_mixer_ktc_367_prj__kitchen_cut KTC_A107 kitchen_cut prj" d="M 210.44334,191.34338 210.39391,191.34338 "/>
      <path class="quadro_mixer_ktc_367 Scene_Collection KTC_107_Furniture HouseA quadro_mixer_ktc_367_prj__kitchen_cut KTC_A107 kitchen_cut prj" d="M 210.4314,191.34338 210.43413,191.34338 "/>
      <path class="quadro_mixer_ktc_367 Scene_Collection KTC_107_Furniture HouseA quadro_mixer_ktc_367_prj__kitchen_cut KTC_A107 kitchen_cut prj" d="M 210.60707,191.34338 210.6371,191.34338 "/>
      <path class="quadro_mixer_ktc_367 Scene_Collection KTC_107_Furniture HouseA quadro_mixer_ktc_367_prj__kitchen_cut KTC_A107 kitchen_cut prj" d="M 210.68944,191.34338 210.71374,191.34338 210.70991,191.34338 "/>
      <path class="quadro_mixer_ktc_367 Scene_Collection KTC_107_Furniture HouseA quadro_mixer_ktc_367_prj__kitchen_cut KTC_A107 kitchen_cut prj" d="M 210.62405,191.34338 210.6069,191.34338 210.61072,191.34338 "/>
      <path class="quadro_mixer_ktc_367 Scene_Collection KTC_107_Furniture HouseA quadro_mixer_ktc_367_prj__kitchen_cut KTC_A107 kitchen_cut prj" d="M 210.22473,189.07338 210.12045,189.07338 "/>
      <path class="quadro_mixer_ktc_367 Scene_Collection KTC_107_Furniture HouseA quadro_mixer_ktc_367_prj__kitchen_cut KTC_A107 kitchen_cut prj" d="M 210.13733,189.07338 210.07577,189.07338 "/>
      <path class="quadro_mixer_ktc_367 Scene_Collection KTC_107_Furniture HouseA quadro_mixer_ktc_367_prj__kitchen_cut KTC_A107 kitchen_cut prj" d="M 210.02454,189.07338 209.99493,189.07338 209.96411,189.07338 209.95277,189.07338 209.93074,189.07336 209.91704,189.07324 209.90939,189.07291 209.90546,189.07227 209.90329,189.07115 209.90216,189.06908 209.90173,189.06555 209.90167,189.06006 209.90167,189.05234 209.90167,189.04338 209.90167,189.03441 209.90167,189.0267 209.9017,189.02119 209.90189,189.01769 209.90337,189.01448 209.90498,189.01384 209.9077,189.01352 209.91191,189.0134 209.91805,189.01338 209.93005,189.01338 209.93816,189.01338 "/>
      <path class="quadro_mixer_ktc_367 Scene_Collection KTC_107_Furniture HouseA quadro_mixer_ktc_367_prj__kitchen_cut KTC_A107 kitchen_cut prj" d="M 209.9726,189.01338 210.02765,189.01338 210.0959,189.01338 210.18799,189.01338 210.19258,189.01338 210.29637,189.01338 210.40863,189.01338 210.52522,189.01338 210.64345,189.01338 210.75732,189.01338 "/>
      <path class="quadro_mixer_ktc_367 Scene_Collection KTC_107_Furniture HouseA quadro_mixer_ktc_367_prj__kitchen_cut KTC_A107 kitchen_cut prj" d="M 210.75621,189.01338 210.85788,189.01338 210.95456,189.01338 211.02966,189.01338 211.08551,189.01338 "/>
      <path class="quadro_mixer_ktc_367 Scene_Collection KTC_107_Furniture HouseA quadro_mixer_ktc_367_prj__kitchen_cut KTC_A107 kitchen_cut prj" d="M 211.12036,189.01338 211.08551,189.01338 "/>
      <path class="quadro_mixer_ktc_367 Scene_Collection KTC_107_Furniture HouseA quadro_mixer_ktc_367_prj__kitchen_cut KTC_A107 kitchen_cut prj" d="M 210.22473,189.07338 210.31844,189.07338 210.41989,189.07338 210.52522,189.07338 210.63057,189.07338 210.73201,189.07338 210.82571,189.07338 210.90778,189.07338 210.97469,189.07338 211.02444,189.07338 211.0555,189.07338 211.08632,189.07338 211.09764,189.07338 211.11971,189.07336 211.13338,189.07324 211.14105,189.07291 211.14496,189.07227 211.14716,189.07115 211.14827,189.06908 211.14868,189.06555 211.14874,189.06006 211.14874,189.05234 211.14874,189.04338 211.14874,189.03441 211.14874,189.0267 211.14871,189.02119 211.14853,189.01769 211.14706,189.01448 211.14543,189.01384 211.14272,189.01352 211.1385,189.0134 211.13237,189.01338 211.12036,189.01338 211.11226,189.01338 211.10751,189.01338 "/>
      <path class="quadro_mixer_ktc_367 Scene_Collection KTC_107_Furniture HouseA quadro_mixer_ktc_367_prj__kitchen_cut KTC_A107 kitchen_cut prj" d="M 211.11453,189.01338 211.11777,189.01338 "/>
      <path class="quadro_mixer_ktc_367 Scene_Collection KTC_107_Furniture HouseA quadro_mixer_ktc_367_prj__kitchen_cut KTC_A107 kitchen_cut prj" d="M 211.13237,189.01338 211.11227,189.01338 211.08212,189.01338 "/>
      <path class="quadro_mixer_ktc_367 Scene_Collection KTC_107_Furniture HouseA quadro_mixer_ktc_367_prj__kitchen_cut KTC_A107 kitchen_cut prj" d="M 209.93816,189.01338 209.97257,189.01338 209.98129,189.01338 210.00424,189.01338 "/>
      <path class="quadro_mixer_ktc_367 Scene_Collection KTC_107_Furniture HouseA quadro_mixer_ktc_367_prj__kitchen_cut KTC_A107 kitchen_cut prj" d="M 210.24448,189.01338 210.29994,189.01338 210.35381,189.01338 "/>
      <path class="quadro_mixer_ktc_367 Scene_Collection KTC_107_Furniture HouseA quadro_mixer_ktc_367_prj__kitchen_cut KTC_A107 kitchen_cut prj" d="M 210.70044,189.01338 210.75053,189.01338 210.8526,189.01338 "/>
      <path class="quadro_mixer_ktc_367 Scene_Collection KTC_107_Furniture HouseA quadro_mixer_ktc_367_prj__kitchen_cut KTC_A107 kitchen_cut prj" d="M 211.05763,189.01338 211.06914,189.01338 211.10297,189.01338 "/>
      <path class="quadro_mixer_ktc_367 Scene_Collection KTC_107_Furniture HouseA quadro_mixer_ktc_367_prj__kitchen_cut KTC_A107 kitchen_cut prj" d="M 211.11458,189.01338 211.10501,189.01338 211.0963,189.01338 "/>
      <path class="quadro_mixer_ktc_367 Scene_Collection KTC_107_Furniture HouseA quadro_mixer_ktc_367_prj__kitchen_cut KTC_A107 kitchen_cut prj" d="M 211.10501,189.01338 211.09355,189.01338 211.06921,189.01338 "/>
      <path class="quadro_mixer_ktc_367 Scene_Collection KTC_107_Furniture HouseA quadro_mixer_ktc_367_prj__kitchen_cut KTC_A107 kitchen_cut prj" d="M 211.06029,189.01338 211.05482,189.01338 "/>
      <path class="quadro_mixer_ktc_367 Scene_Collection KTC_107_Furniture HouseA quadro_mixer_ktc_367_prj__kitchen_cut KTC_A107 kitchen_cut prj" d="M 211.01628,189.01338 211.00691,189.01338 211.01712,189.01338 "/>
      <path class="quadro_mixer_ktc_367 Scene_Collection KTC_107_Furniture HouseA quadro_mixer_ktc_367_prj__kitchen_cut KTC_A107 kitchen_cut prj" d="M 211.04829,189.01338 211.06914,189.01338 "/>
      <path class="quadro_mixer_ktc_367 Scene_Collection KTC_107_Furniture HouseA quadro_mixer_ktc_367_prj__kitchen_cut KTC_A107 kitchen_cut prj" d="M 210.26036,189.01338 210.24757,189.01338 "/>
      <path class="quadro_mixer_ktc_367 Scene_Collection KTC_107_Furniture HouseA quadro_mixer_ktc_367_prj__kitchen_cut KTC_A107 kitchen_cut prj" d="M 209.97704,189.01338 209.97252,189.01338 "/>
      <path class="quadro_mixer_ktc_367 Scene_Collection KTC_107_Furniture HouseA quadro_mixer_ktc_367_prj__kitchen_cut KTC_A107 kitchen_cut prj" d="M 209.9454,189.01338 209.95686,189.01338 209.99014,189.01338 210.02751,189.01338 "/>
      <path class="quadro_mixer_ktc_367 Scene_Collection KTC_107_Furniture HouseA quadro_mixer_ktc_367_prj__kitchen_cut KTC_A107 kitchen_cut prj" d="M 210.04352,189.01338 210.11523,189.01338 210.18779,189.01338 "/>
      <path class="quadro_mixer_ktc_367 Scene_Collection KTC_107_Furniture HouseA quadro_mixer_ktc_367_prj__kitchen_cut KTC_A107 kitchen_cut prj" d="M 210.19266,189.01338 210.2032,189.01338 210.3036,189.01338 210.40849,189.01338 "/>
      <path class="quadro_mixer_ktc_367 Scene_Collection KTC_107_Furniture HouseA quadro_mixer_ktc_367_prj__kitchen_cut KTC_A107 kitchen_cut prj" d="M 210.41232,189.01338 210.52522,189.01338 210.63812,189.01338 210.64064,189.01338 "/>
      <path class="quadro_mixer_ktc_367 Scene_Collection KTC_107_Furniture HouseA quadro_mixer_ktc_367_prj__kitchen_cut KTC_A107 kitchen_cut prj" d="M 210.64911,189.01338 210.75053,189.01338 "/>
      <path class="quadro_mixer_ktc_367 Scene_Collection KTC_107_Furniture HouseA quadro_mixer_ktc_367_prj__kitchen_cut KTC_A107 kitchen_cut prj" d="M 210.0208,189.01338 209.96492,189.01338 "/>
      <path class="quadro_mixer_ktc_367 Scene_Collection KTC_107_Furniture HouseA quadro_mixer_ktc_367_prj__kitchen_cut KTC_A107 kitchen_cut prj" d="M 210.63812,189.01338 210.64058,189.01338 "/>
      <path class="quadro_mixer_ktc_367 Scene_Collection KTC_107_Furniture HouseA quadro_mixer_ktc_367_prj__kitchen_cut KTC_A107 kitchen_cut prj" d="M 210.64952,189.01338 210.74686,189.01338 210.85249,189.01338 "/>
      <path class="quadro_mixer_ktc_367 Scene_Collection KTC_107_Furniture HouseA quadro_mixer_ktc_367_prj__kitchen_cut KTC_A107 kitchen_cut prj" d="M 210.7506,189.01338 210.84727,189.01338 210.93521,189.01338 211.00691,189.01338 "/>
      <path class="quadro_mixer_ktc_367 Scene_Collection KTC_107_Furniture HouseA quadro_mixer_ktc_367_prj__kitchen_cut KTC_A107 kitchen_cut prj" d="M 210.86247,189.01338 210.75732,189.01338 "/>
      <path class="quadro_mixer_ktc_367 Scene_Collection KTC_107_Furniture HouseA quadro_mixer_ktc_367_prj__kitchen_cut KTC_A107 kitchen_cut prj" d="M 209.96138,189.01338 209.96507,189.01338 "/>
      <path class="quadro_mixer_ktc_367 Scene_Collection KTC_107_Furniture HouseA quadro_mixer_ktc_367_prj__kitchen_cut KTC_A107 kitchen_cut prj" d="M 210.40703,189.01338 210.29315,189.01338 "/>
      <path class="quadro_mixer_ktc_367 Scene_Collection KTC_107_Furniture HouseA quadro_mixer_ktc_367_prj__kitchen_cut KTC_A107 kitchen_cut prj" d="M 210.52522,189.01338 210.40863,189.01338 "/>
      <path class="quadro_mixer_ktc_367 Scene_Collection KTC_107_Furniture HouseA quadro_mixer_ktc_367_prj__kitchen_cut KTC_A107 kitchen_cut prj" d="M 211.06029,189.01338 211.10281,189.01338 "/>
      <path class="quadro_mixer_ktc_367 Scene_Collection KTC_107_Furniture HouseA quadro_mixer_ktc_367_prj__kitchen_cut KTC_A107 kitchen_cut prj" d="M 210.96118,189.07338 210.97464,189.07338 210.98074,189.07338 "/>
      <path class="quadro_mixer_ktc_367 Scene_Collection KTC_107_Furniture HouseA quadro_mixer_ktc_367_prj__kitchen_cut KTC_A107 kitchen_cut prj" d="M 211.00572,189.07338 211.02322,189.07338 "/>
      <path class="quadro_mixer_ktc_367 Scene_Collection KTC_107_Furniture HouseA quadro_mixer_ktc_367_prj__kitchen_cut KTC_A107 kitchen_cut prj" d="M 210.11722,189.07338 210.09354,189.07338 "/>
      <path class="quadro_mixer_ktc_367 Scene_Collection KTC_107_Furniture HouseA quadro_mixer_ktc_367_prj__kitchen_cut KTC_A107 kitchen_cut prj" d="M 210.95593,189.07338 210.93228,189.07338 "/>
      <path class="quadro_mixer_ktc_367 Scene_Collection KTC_107_Furniture HouseA quadro_mixer_ktc_367_prj__kitchen_cut KTC_A107 kitchen_cut prj" d="M 210.0667,189.07338 210.06107,189.07338 "/>
      <path class="quadro_mixer_ktc_367 Scene_Collection KTC_107_Furniture HouseA quadro_mixer_ktc_367_prj__kitchen_cut KTC_A107 kitchen_cut prj" d="M 210.07034,189.07338 210.0667,189.07338 "/>
      <path class="quadro_mixer_ktc_367 Scene_Collection KTC_107_Furniture HouseA quadro_mixer_ktc_367_prj__kitchen_cut KTC_A107 kitchen_cut prj" d="M 210.00717,189.07338 209.98422,189.07338 "/>
      <path class="quadro_mixer_ktc_367 Scene_Collection KTC_107_Furniture HouseA quadro_mixer_ktc_367_prj__kitchen_cut KTC_A107 kitchen_cut prj" d="M 209.9884,189.07338 209.99493,189.07338 210.028,189.07338 "/>
      <path class="quadro_mixer_ktc_367 Scene_Collection KTC_107_Furniture HouseA quadro_mixer_ktc_367_prj__kitchen_cut KTC_A107 kitchen_cut prj" d="M 210.1366,189.07338 210.19446,189.07338 210.26541,189.07338 210.32936,189.07338 "/>
      <path class="quadro_mixer_ktc_367 Scene_Collection KTC_107_Furniture HouseA quadro_mixer_ktc_367_prj__kitchen_cut KTC_A107 kitchen_cut prj" d="M 210.24484,189.07338 210.22844,189.07338 "/>
      <path class="quadro_mixer_ktc_367 Scene_Collection KTC_107_Furniture HouseA quadro_mixer_ktc_367_prj__kitchen_cut KTC_A107 kitchen_cut prj" d="M 210.11961,189.07338 210.10625,189.07338 "/>
      <path class="quadro_mixer_ktc_367 Scene_Collection KTC_107_Furniture HouseA quadro_mixer_ktc_367_prj__kitchen_cut KTC_A107 kitchen_cut prj" d="M 210.11757,189.07338 210.1366,189.07338 "/>
      <path class="quadro_mixer_ktc_367 Scene_Collection KTC_107_Furniture HouseA quadro_mixer_ktc_367_prj__kitchen_cut KTC_A107 kitchen_cut prj" d="M 209.99696,189.07338 210.07577,189.07338 "/>
      <path class="quadro_mixer_ktc_367 Scene_Collection KTC_107_Furniture HouseA quadro_mixer_ktc_367_prj__kitchen_cut KTC_A107 kitchen_cut prj" d="M 210.43414,189.07338 210.42705,189.07338 "/>
      <path class="quadro_mixer_ktc_367 Scene_Collection KTC_107_Furniture HouseA quadro_mixer_ktc_367_prj__kitchen_cut KTC_A107 kitchen_cut prj" d="M 210.42703,189.07338 210.52026,189.07338 "/>
      <path class="quadro_mixer_ktc_367 Scene_Collection KTC_107_Furniture HouseA quadro_mixer_ktc_367_prj__kitchen_cut KTC_A107 kitchen_cut prj" d="M 210.52522,189.07338 210.62302,189.07338 "/>
      <path class="quadro_mixer_ktc_367 Scene_Collection KTC_107_Furniture HouseA quadro_mixer_ktc_367_prj__kitchen_cut KTC_A107 kitchen_cut prj" d="M 210.93015,189.07338 210.9438,189.07338 "/>
      <path class="quadro_mixer_ktc_367 Scene_Collection KTC_107_Furniture HouseA quadro_mixer_ktc_367_prj__kitchen_cut KTC_A107 kitchen_cut prj" d="M 210.93292,189.07338 210.91383,189.07338 210.8665,189.07338 "/>
      <path class="quadro_mixer_ktc_367 Scene_Collection KTC_107_Furniture HouseA quadro_mixer_ktc_367_prj__kitchen_cut KTC_A107 kitchen_cut prj" d="M 210.80968,189.07338 210.78503,189.07338 210.71188,189.07338 "/>
      <path class="quadro_mixer_ktc_367 Scene_Collection KTC_107_Furniture HouseA quadro_mixer_ktc_367_prj__kitchen_cut KTC_A107 kitchen_cut prj" d="M 210.62302,189.07338 210.61632,189.07338 210.52522,189.07338 210.43414,189.07338 "/>
      <path class="quadro_mixer_ktc_367 Scene_Collection KTC_107_Furniture HouseA quadro_mixer_ktc_367_prj__kitchen_cut KTC_A107 kitchen_cut prj" d="M 210.96902,189.07338 210.98373,189.07338 211.01697,189.07338 "/>
      <path class="quadro_mixer_ktc_367 Scene_Collection KTC_107_Furniture HouseA quadro_mixer_ktc_367_prj__kitchen_cut KTC_A107 kitchen_cut prj" d="M 211.02416,189.07338 211.01953,189.07338 "/>
      <path class="quadro_mixer_ktc_367 Scene_Collection KTC_107_Furniture HouseA quadro_mixer_ktc_367_prj__kitchen_cut KTC_A107 kitchen_cut prj" d="M 211.02121,189.07338 211.02867,189.07338 "/>
      <path class="quadro_mixer_ktc_367 Scene_Collection KTC_107_Furniture HouseA quadro_mixer_ktc_367_prj__kitchen_cut KTC_A107 kitchen_cut prj" d="M 210.73521,189.48337 210.63882,189.48337 "/>
      <path class="quadro_mixer_ktc_367 Scene_Collection KTC_107_Furniture HouseA quadro_mixer_ktc_367_prj__kitchen_cut KTC_A107 kitchen_cut prj" d="M 210.6384,189.48337 210.52522,189.48337 210.42566,189.48337 "/>
      <path class="quadro_mixer_ktc_367 Scene_Collection KTC_107_Furniture HouseA quadro_mixer_ktc_367_prj__kitchen_cut KTC_A107 kitchen_cut prj" d="M 210.41208,189.48337 210.52522,189.48337 "/>
      <path class="quadro_mixer_ktc_367 Scene_Collection KTC_107_Furniture HouseA quadro_mixer_ktc_367_prj__kitchen_cut KTC_A107 kitchen_cut prj" d="M 210.11316,189.48337 210.08679,189.48337 "/>
      <path class="quadro_mixer_ktc_367 Scene_Collection KTC_107_Furniture HouseA quadro_mixer_ktc_367_prj__kitchen_cut KTC_A107 kitchen_cut prj" d="M 210.10188,189.48337 210.11095,189.48337 "/>
      <path class="quadro_mixer_ktc_367 Scene_Collection KTC_107_Furniture HouseA quadro_mixer_ktc_367_prj__kitchen_cut KTC_A107 kitchen_cut prj" d="M 210.02397,189.48337 210.06763,189.48337 "/>
      <path class="quadro_mixer_ktc_367 Scene_Collection KTC_107_Furniture HouseA quadro_mixer_ktc_367_prj__kitchen_cut KTC_A107 kitchen_cut prj" d="M 210.01386,189.48337 210.01888,189.48337 210.02397,189.48337 "/>
      <path class="quadro_mixer_ktc_367 Scene_Collection KTC_107_Furniture HouseA quadro_mixer_ktc_367_prj__kitchen_cut KTC_A107 kitchen_cut prj" d="M 210.01692,189.48337 209.97772,189.48337 "/>
      <path class="quadro_mixer_ktc_367 Scene_Collection KTC_107_Furniture HouseA quadro_mixer_ktc_367_prj__kitchen_cut KTC_A107 kitchen_cut prj" d="M 210.30571,189.48337 210.3234,189.48337 "/>
      <path class="quadro_mixer_ktc_367 Scene_Collection KTC_107_Furniture HouseA quadro_mixer_ktc_367_prj__kitchen_cut KTC_A107 kitchen_cut prj" d="M 210.96422,189.48337 210.99561,189.48337 "/>
      <path class="quadro_mixer_ktc_367 Scene_Collection KTC_107_Furniture HouseA quadro_mixer_ktc_367_prj__kitchen_cut KTC_A107 kitchen_cut prj" d="M 210.93033,189.48337 210.92244,189.48337 "/>
      <path class="quadro_mixer_ktc_367 Scene_Collection KTC_107_Furniture HouseA quadro_mixer_ktc_367_prj__kitchen_cut KTC_A107 kitchen_cut prj" d="M 211.04217,189.48337 211.03218,189.48337 211.00835,189.48337 "/>
      <path class="quadro_mixer_ktc_367 Scene_Collection KTC_107_Furniture HouseA quadro_mixer_ktc_367_prj__kitchen_cut KTC_A107 kitchen_cut prj" d="M 211.03218,189.48337 211.02055,189.48337 "/>
      <path class="quadro_mixer_ktc_367 Scene_Collection KTC_107_Furniture HouseA quadro_mixer_ktc_367_prj__kitchen_cut KTC_A107 kitchen_cut prj" d="M 210.91368,189.48337 211.00806,189.48337 "/>
      <path class="quadro_mixer_ktc_367 Scene_Collection KTC_107_Furniture HouseA quadro_mixer_ktc_367_prj__kitchen_cut KTC_A107 kitchen_cut prj" d="M 210.64546,189.54338 210.65076,189.54338 "/>
      <path class="quadro_mixer_ktc_367 Scene_Collection KTC_107_Furniture HouseA quadro_mixer_ktc_367_prj__kitchen_cut KTC_A107 kitchen_cut prj" d="M 211.02516,189.54338 211.02997,189.54338 "/>
      <path class="quadro_mixer_ktc_367 Scene_Collection KTC_107_Furniture HouseA quadro_mixer_ktc_367_prj__kitchen_cut KTC_A107 kitchen_cut prj" d="M 211.05577,189.54338 211.03696,189.54338 "/>
      <path class="quadro_mixer_ktc_367 Scene_Collection KTC_107_Furniture HouseA quadro_mixer_ktc_367_prj__kitchen_cut KTC_A107 kitchen_cut prj" d="M 210.29692,189.54338 210.29393,189.54338 "/>
      <path class="quadro_mixer_ktc_367 Scene_Collection KTC_107_Furniture HouseA quadro_mixer_ktc_367_prj__kitchen_cut KTC_A107 kitchen_cut prj" d="M 210.30005,189.54338 210.30304,189.54338 "/>
      <path class="quadro_mixer_ktc_367 Scene_Collection KTC_107_Furniture HouseA quadro_mixer_ktc_367_prj__kitchen_cut KTC_A107 kitchen_cut prj" d="M 209.93831,189.54338 209.93205,189.54338 209.93634,189.54338 "/>
      <path class="quadro_mixer_ktc_367 Scene_Collection KTC_107_Furniture HouseA quadro_mixer_ktc_367_prj__kitchen_cut KTC_A107 kitchen_cut prj" d="M 210.0359,189.54338 210.00484,189.54338 "/>
      <path class="quadro_mixer_ktc_367 Scene_Collection KTC_107_Furniture HouseA quadro_mixer_ktc_367_prj__kitchen_cut KTC_A107 kitchen_cut prj" d="M 210.10339,189.54338 210.1087,189.54338 210.0359,189.54338 "/>
      <path class="quadro_mixer_ktc_367 Scene_Collection KTC_107_Furniture HouseA quadro_mixer_ktc_367_prj__kitchen_cut KTC_A107 kitchen_cut prj" d="M 210.10974,189.54338 210.12038,189.54338 "/>
      <path class="quadro_mixer_ktc_367 Scene_Collection KTC_107_Furniture HouseA quadro_mixer_ktc_367_prj__kitchen_cut KTC_A107 kitchen_cut prj" d="M 210.10274,189.54338 210.19142,189.54338 "/>
      <path class="quadro_mixer_ktc_367 Scene_Collection KTC_107_Furniture HouseA quadro_mixer_ktc_367_prj__kitchen_cut KTC_A107 kitchen_cut prj" d="M 210.24542,189.54338 210.19807,189.54338 "/>
      <path class="quadro_mixer_ktc_367 Scene_Collection KTC_107_Furniture HouseA quadro_mixer_ktc_367_prj__kitchen_cut KTC_A107 kitchen_cut prj" d="M 210.10274,189.54338 210.1003,189.54338 "/>
      <path class="quadro_mixer_ktc_367 Scene_Collection KTC_107_Furniture HouseA quadro_mixer_ktc_367_prj__kitchen_cut KTC_A107 kitchen_cut prj" d="M 210.41055,189.54338 210.35365,189.54338 "/>
      <path class="quadro_mixer_ktc_367 Scene_Collection KTC_107_Furniture HouseA quadro_mixer_ktc_367_prj__kitchen_cut KTC_A107 kitchen_cut prj" d="M 210.52519,189.54338 210.5294,189.54338 "/>
      <path class="quadro_mixer_ktc_367 Scene_Collection KTC_107_Furniture HouseA quadro_mixer_ktc_367_prj__kitchen_cut KTC_A107 kitchen_cut prj" d="M 210.86148,189.54338 210.94768,189.54338 210.95285,189.54338 "/>
      <path class="quadro_mixer_ktc_367 Scene_Collection KTC_107_Furniture HouseA quadro_mixer_ktc_367_prj__kitchen_cut KTC_A107 kitchen_cut prj" d="M 211.11845,189.54338 211.12267,189.54338 211.11418,189.54338 211.10254,189.54338 211.08559,189.54338 "/>
      <path class="quadro_mixer_ktc_367 Scene_Collection KTC_107_Furniture HouseA quadro_mixer_ktc_367_prj__kitchen_cut KTC_A107 kitchen_cut prj" d="M 211.04869,189.54338 211.01453,189.54338 210.9417,189.54338 210.85237,189.54338 210.80131,189.54338 "/>
      <path class="quadro_mixer_ktc_367 Scene_Collection KTC_107_Furniture HouseA quadro_mixer_ktc_367_prj__kitchen_cut KTC_A107 kitchen_cut prj" d="M 210.6975,189.54338 210.63991,189.54338 210.52522,189.54338 210.41055,189.54338 "/>
      <path class="quadro_mixer_ktc_367 Scene_Collection KTC_107_Furniture HouseA quadro_mixer_ktc_367_prj__kitchen_cut KTC_A107 kitchen_cut prj" d="M 210.30339,189.54338 210.29393,189.54338 "/>
      <path class="quadro_mixer_ktc_367 Scene_Collection KTC_107_Furniture HouseA quadro_mixer_ktc_367_prj__kitchen_cut KTC_A107 kitchen_cut prj" d="M 221.9612,189.0734 221.97466,189.0734 221.98076,189.0734 "/>
      <path class="quadro_mixer_ktc_367 Scene_Collection KTC_107_Furniture HouseA quadro_mixer_ktc_367_prj__kitchen_cut KTC_A107 kitchen_cut prj" d="M 222.00571,189.0734 222.02324,189.0734 "/>
      <path class="quadro_mixer_ktc_367 Scene_Collection KTC_107_Furniture HouseA quadro_mixer_ktc_367_prj__kitchen_cut KTC_A107 kitchen_cut prj" d="M 221.11723,189.0734 221.09355,189.0734 "/>
      <path class="quadro_mixer_ktc_367 Scene_Collection KTC_107_Furniture HouseA quadro_mixer_ktc_367_prj__kitchen_cut KTC_A107 kitchen_cut prj" d="M 221.95595,189.0734 221.93228,189.0734 "/>
      <path class="quadro_mixer_ktc_367 Scene_Collection KTC_107_Furniture HouseA quadro_mixer_ktc_367_prj__kitchen_cut KTC_A107 kitchen_cut prj" d="M 221.0667,189.0734 221.06107,189.0734 "/>
      <path class="quadro_mixer_ktc_367 Scene_Collection KTC_107_Furniture HouseA quadro_mixer_ktc_367_prj__kitchen_cut KTC_A107 kitchen_cut prj" d="M 221.07034,189.0734 221.0667,189.0734 "/>
      <path class="quadro_mixer_ktc_367 Scene_Collection KTC_107_Furniture HouseA quadro_mixer_ktc_367_prj__kitchen_cut KTC_A107 kitchen_cut prj" d="M 221.00717,189.0734 220.98421,189.0734 "/>
      <path class="quadro_mixer_ktc_367 Scene_Collection KTC_107_Furniture HouseA quadro_mixer_ktc_367_prj__kitchen_cut KTC_A107 kitchen_cut prj" d="M 220.9884,189.0734 220.99493,189.0734 221.02802,189.0734 "/>
      <path class="quadro_mixer_ktc_367 Scene_Collection KTC_107_Furniture HouseA quadro_mixer_ktc_367_prj__kitchen_cut KTC_A107 kitchen_cut prj" d="M 221.13661,189.0734 221.19447,189.0734 221.26541,189.0734 221.32938,189.0734 "/>
      <path class="quadro_mixer_ktc_367 Scene_Collection KTC_107_Furniture HouseA quadro_mixer_ktc_367_prj__kitchen_cut KTC_A107 kitchen_cut prj" d="M 221.24484,189.0734 221.22845,189.0734 "/>
      <path class="quadro_mixer_ktc_367 Scene_Collection KTC_107_Furniture HouseA quadro_mixer_ktc_367_prj__kitchen_cut KTC_A107 kitchen_cut prj" d="M 221.11963,189.0734 221.10626,189.0734 "/>
      <path class="quadro_mixer_ktc_367 Scene_Collection KTC_107_Furniture HouseA quadro_mixer_ktc_367_prj__kitchen_cut KTC_A107 kitchen_cut prj" d="M 221.11757,189.0734 221.13661,189.0734 "/>
      <path class="quadro_mixer_ktc_367 Scene_Collection KTC_107_Furniture HouseA quadro_mixer_ktc_367_prj__kitchen_cut KTC_A107 kitchen_cut prj" d="M 220.99698,189.0734 221.07576,189.0734 "/>
      <path class="quadro_mixer_ktc_367 Scene_Collection KTC_107_Furniture HouseA quadro_mixer_ktc_367_prj__kitchen_cut KTC_A107 kitchen_cut prj" d="M 221.43416,189.0734 221.42705,189.0734 "/>
      <path class="quadro_mixer_ktc_367 Scene_Collection KTC_107_Furniture HouseA quadro_mixer_ktc_367_prj__kitchen_cut KTC_A107 kitchen_cut prj" d="M 221.42705,189.0734 221.52026,189.0734 "/>
      <path class="quadro_mixer_ktc_367 Scene_Collection KTC_107_Furniture HouseA quadro_mixer_ktc_367_prj__kitchen_cut KTC_A107 kitchen_cut prj" d="M 221.52522,189.0734 221.62303,189.0734 "/>
      <path class="quadro_mixer_ktc_367 Scene_Collection KTC_107_Furniture HouseA quadro_mixer_ktc_367_prj__kitchen_cut KTC_A107 kitchen_cut prj" d="M 221.93015,189.0734 221.9438,189.0734 "/>
      <path class="quadro_mixer_ktc_367 Scene_Collection KTC_107_Furniture HouseA quadro_mixer_ktc_367_prj__kitchen_cut KTC_A107 kitchen_cut prj" d="M 221.93294,189.0734 221.91385,189.0734 221.86652,189.0734 "/>
      <path class="quadro_mixer_ktc_367 Scene_Collection KTC_107_Furniture HouseA quadro_mixer_ktc_367_prj__kitchen_cut KTC_A107 kitchen_cut prj" d="M 221.80969,189.0734 221.78505,189.0734 221.71188,189.0734 "/>
      <path class="quadro_mixer_ktc_367 Scene_Collection KTC_107_Furniture HouseA quadro_mixer_ktc_367_prj__kitchen_cut KTC_A107 kitchen_cut prj" d="M 221.62302,189.0734 221.6163,189.0734 221.52524,189.0734 221.43416,189.0734 "/>
      <path class="quadro_mixer_ktc_367 Scene_Collection KTC_107_Furniture HouseA quadro_mixer_ktc_367_prj__kitchen_cut KTC_A107 kitchen_cut prj" d="M 221.96904,189.0734 221.98372,189.0734 222.01698,189.0734 "/>
      <path class="quadro_mixer_ktc_367 Scene_Collection KTC_107_Furniture HouseA quadro_mixer_ktc_367_prj__kitchen_cut KTC_A107 kitchen_cut prj" d="M 222.02416,189.0734 222.01955,189.0734 "/>
      <path class="quadro_mixer_ktc_367 Scene_Collection KTC_107_Furniture HouseA quadro_mixer_ktc_367_prj__kitchen_cut KTC_A107 kitchen_cut prj" d="M 222.02122,189.0734 222.02867,189.0734 "/>
    </g>
  </g>
  <g inkscape:groupmode="layer" inkscape:label="cut"/>
  <g inkscape:groupmode="layer" inkscape:label="xray"/>
  <g inkscape:groupmode="layer" inkscape:label="hid"/>
  <g inkscape:groupmode="layer" inkscape:label="sym"/>
  <g inkscape:groupmode="layer" inkscape:label="bak"/>
</svg>
<!--
{"subject": "quadro_mixer_ktc_367",
"original_name": "Quadro_mixer_ktc_367",
"resolution": [325, 325],
"force": "False",
"outline": "False",
"hidden": "False",
"back": "False",
"symbol": "False",
"overlaps": [("wall", "None"),("wall_cover", "None"),("plate3", "None"),("quadro_mixer_ktc_367_holder", "None"),],
"render_pixels": [(932959, 932968), (934256, 934271), (935554, 935561), (935567, 935574), (936852, 936856), (936871, 936875), (938150, 938154), (938173, 938177), (939449, 939452), (939475, 939478), (940748, 940751), (940777, 940779), (942047, 942049), (942078, 942080), (943346, 943348), (943379, 943381), (944645, 944647), (944680, 944682), (945945, 945947), (945981, 945982), (947244, 947246), (947281, 947283), (948544, 948545), (948582, 948584), (949843, 949845), (949882, 949884), (951143, 951144), (951183, 951185), (952442, 952444), (952483, 952485), (953742, 953743), (953784, 953785), (955042, 955043), (955084, 955085), (956341, 956343), (956384, 956386), (957641, 957643), (957684, 957686), (958941, 958943), (958985, 958986), (960241, 960242), (960285, 960286), (961541, 961542), (961585, 961586), (962841, 962842), (962885, 962886), (964141, 964142), (964185, 964186), (965441, 965442), (965485, 965486), (966741, 966742), (966785, 966786), (968041, 968042), (968085, 968086), (969341, 969342), (969385, 969386), (970641, 970642), (970685, 970686), (971941, 971942), (971985, 971986), (973241, 973242), (973285, 973286), (974540, 974543), (974584, 974587), (975840, 975843), (975884, 975887), (977140, 977143), (977184, 977187), (978440, 978443), (978484, 978487), (979740, 979743), (979784, 979787), (981040, 981043), (981084, 981087), (982340, 982343), (982384, 982387), (983641, 983643), (984941, 984943), (986240, 986243), (987540, 987543), (988840, 988843), (990140, 990143), (991440, 991443), (992740, 992743), (994040, 994043)],}
-->