<?xml version="1.0" encoding="utf-8" ?>
<svg xmlns="http://www.w3.org/2000/svg" xmlns:ev="http://www.w3.org/2001/xml-events" xmlns:inkscape="http://www.inkscape.org/namespaces/inkscape" xmlns:sodipodi="http://sodipodi.sourceforge.net/DTD/sodipodi-0.dtd" xmlns:xlink="http://www.w3.org/1999/xlink" baseProfile="full" height="325.0mm" id="svg" version="1.1" viewBox="0 0 325.0 325.0" width="325.0mm">
  <defs/>
  <style type="text/css"><![CDATA[@import url(../prj.css);]]></style>
  <g class="kitchen_cut prj" inkscape:groupmode="layer" inkscape:label="prj">
    <g class="Scene_Collection HouseA prj skirting_board_016_prj__kitchen_cut kitchen_cut skirting_board_016" id="skirting_board_016_prj__kitchen_cut">
      <path class="Scene_Collection HouseA prj skirting_board_016_prj__kitchen_cut kitchen_cut skirting_board_016" d="M 233.75503,242.5 233.75503,238.95908 "/>
      <path class="Scene_Collection HouseA prj skirting_board_016_prj__kitchen_cut kitchen_cut skirting_board_016" d="M 234.00507,242.49991 234.00507,238.625 231.10513,238.625 "/>
      <path class="Scene_Collection HouseA prj skirting_board_016_prj__kitchen_cut kitchen_cut skirting_board_016" d="M 231.10515,242.5 233.75551,242.5 "/>
      <path class="Scene_Collection HouseA prj skirting_board_016_prj__kitchen_cut kitchen_cut skirting_board_016" d="M 325.0,238.625 313.50385,238.625 313.49948,238.62499 273.75736,238.62497 "/>
      <path class="Scene_Collection HouseA prj skirting_board_016_prj__kitchen_cut kitchen_cut skirting_board_016" d="M 325.0,242.5 Z "/>
      <path class="Scene_Collection HouseA prj skirting_board_016_prj__kitchen_cut kitchen_cut skirting_board_016" d="M 313.49948,242.49999 313.49948,238.62499 "/>
      <path class="Scene_Collection HouseA prj skirting_board_016_prj__kitchen_cut kitchen_cut skirting_board_016" d="M 313.50385,242.5 313.50385,238.625 "/>
      <path class="Scene_Collection HouseA prj skirting_board_016_prj__kitchen_cut kitchen_cut skirting_board_016" d="M 231.10515,242.5 231.10515,238.625 "/>
    </g>
  </g>
  <g inkscape:groupmode="layer" inkscape:label="cut"/>
  <g inkscape:groupmode="layer" inkscape:label="xray"/>
  <g inkscape:groupmode="layer" inkscape:label="hid"/>
  <g inkscape:groupmode="layer" inkscape:label="sym"/>
  <g inkscape:groupmode="layer" inkscape:label="bak"/>
</svg>
<!--
{"subject": "skirting_board_016",
"original_name": "Skirting_board.016",
"resolution": [325, 325],
"force": "False",
"outline": "False",
"hidden": "False",
"back": "False",
"symbol": "False",
"overlaps": [("wall", "None"),("stairs_structure", "None"),],
"render_pixels": [(1242424, 1242799), (1243724, 1244099), (1245024, 1245399), (1246324, 1246699), (1247624, 1247999), (1248924, 1249299), (1250224, 1250599), (1251524, 1251899), (1252824, 1253199), (1254124, 1254499), (1255424, 1255799), (1256724, 1257099), (1258024, 1258399), (1259324, 1259699), (1260624, 1260999)],}
-->