<?xml version="1.0" encoding="utf-8" ?>
<svg xmlns="http://www.w3.org/2000/svg" xmlns:ev="http://www.w3.org/2001/xml-events" xmlns:inkscape="http://www.inkscape.org/namespaces/inkscape" xmlns:sodipodi="http://sodipodi.sourceforge.net/DTD/sodipodi-0.dtd" xmlns:xlink="http://www.w3.org/1999/xlink" baseProfile="full" height="325.0mm" id="svg" version="1.1" viewBox="0 0 325.0 325.0" width="325.0mm">
  <defs/>
  <style type="text/css"><![CDATA[@import url(../prj.css);]]></style>
  <g class="kitchen_cut prj" inkscape:groupmode="layer" inkscape:label="prj">
    <g class="Scene_Collection FLOOR HouseA slaba_001_prj__kitchen_cut slaba_001 kitchen_cut prj" id="slaba_001_prj__kitchen_cut">
      <path class="Scene_Collection FLOOR HouseA slaba_001_prj__kitchen_cut slaba_001 kitchen_cut prj" d="M 33.75714,244.99997 33.75714,246.04999 "/>
    </g>
  </g>
  <g class="kitchen_cut cut" inkscape:groupmode="layer" inkscape:label="cut">
    <g class="Scene_Collection FLOOR HouseA cut slaba_001_cut__kitchen_cut slaba_001 kitchen_cut" id="slaba_001_cut__kitchen_cut">
      <path class="Scene_Collection FLOOR HouseA cut slaba_001_cut__kitchen_cut slaba_001 kitchen_cut" d="M 24.15554,246.04999 33.75551,246.04999 33.75551,245.20132 33.75559,244.99999 144.0056,244.99999 158.64711,244.99999 224.00543,244.99999 325.0,244.99999 325.0,249.58505 325.0,257.5 224.00543,257.5 158.64711,257.5 144.0056,257.5 33.75551,257.5 24.15554,257.5 0.0,257.49997 0.0,248.61029 0.0,244.99997 24.15554,244.99997 Z  M 33.75551,257.5 0.0,257.49997  M 144.0056,257.5 224.00543,257.5  M 325.0,244.99999 325.0,249.58505 325.0,256.82312 325.0,325.00003 325.0,249.58505 "/>
    </g>
  </g>
  <g inkscape:groupmode="layer" inkscape:label="xray"/>
  <g inkscape:groupmode="layer" inkscape:label="hid"/>
  <g inkscape:groupmode="layer" inkscape:label="sym"/>
  <g inkscape:groupmode="layer" inkscape:label="bak"/>
</svg>
<!--
{"subject": "slaba_001",
"original_name": "SlabA.001",
"resolution": [325, 325],
"force": "False",
"outline": "False",
"hidden": "False",
"back": "False",
"symbol": "False",
"overlaps": [("wall", "None"),("kitchen_floor", "None"),("window_drain_box_001", "None"),],
"render_pixels": [(1272835, 1273604), (1274000, 1338999)],}
-->